Af,fail_moment,fail_duration,fail_regular,starttime,endtime,success
final2,100,1,true,1531853066825,1531853391280,0
final1,100,1,true,1531853396310,1531853722114,0
final2,100,15,true,1531853727157,1531854080821,0
final1,100,15,true,1531854085852,1531854417582,1
final1,100,15,true,1531854477594,1531854488139,0
final2,100,60,true,1531854493168,1531854682861,1
final2,100,60,true,1531854742873,1531854778956,1
final2,100,60,true,1531854838968,1531855003178,1
final2,100,60,true,1531855063207,1531855098937,1
final2,100,60,true,1531855158963,1531855322817,1
final2,100,60,true,1531855382829,1531855418998,1
final2,100,60,true,1531855479009,1531855498464,0
final1,100,60,true,1531855503495,1531855693349,1
final1,100,60,true,1531855753362,1531855789282,1
final1,100,60,true,1531855849296,1531856013883,1
final1,100,60,true,1531856073905,1531856109306,1
final1,100,60,true,1531856169318,1531856333367,1
final1,100,60,true,1531856393378,1531856429326,1
final1,100,60,true,1531856489343,1531856510018,0
final2,30,1,true,1531856515049,1531856949516,1
final2,30,1,true,1531857009527,1531857015786,0
final1,30,1,true,1531857020842,1531857393221,1
final1,30,1,true,1531857453237,1531857459101,0
final2,30,15,true,1531857464148,1531857807311,0
final1,30,15,true,1531857812341,1531858147909,0
final2,30,60,true,1531858152942,1531858271562,1
final2,30,60,true,1531858331574,1531858337660,1
final2,30,60,true,1531858397673,1531858400376,1
final2,30,60,true,1531858460389,1531858463072,1
final2,30,60,true,1531858523083,1531858657514,1
final2,30,60,true,1531858717527,1531859044640,1
final2,30,60,true,1531859104656,1531859107306,1
final2,30,60,true,1531859167318,1531859198947,1
final2,30,60,true,1531859258960,1531859289135,1
final2,30,60,true,1531859349148,1531859377941,1
final2,30,60,true,1531859437954,1531859764565,1
final2,30,60,true,1531859824577,1531859827401,1
final2,30,60,true,1531859887416,1531860035253,1
final2,30,60,true,1531860095267,1531860097961,1
final2,30,60,true,1531860157975,1531860485057,1