Af,starttime,endtime,success
final2.json,1529535060065,1529535308955,7
final2.json,1529535438977,1529535484649,0
final1.json,1529535489681,1529535767190,7
final1.json,1529535897208,1529535943491,0
final2.json,1529535948520,1529536135968,1
final2.json,1529536265984,1529536508855,0
final1.json,1529536513884,1529536705174,7
final1.json,1529536835193,1529537008038,0
final2.json,1529537013081,1529537256215,7
final2.json,1529537386233,1529537430000,0
final1.json,1529537435031,1529537635478,7
final1.json,1529537765493,1529537810335,0
final2.json,1529537815365,1529538107030,7
final2.json,1529538237046,1529538280886,0
final1.json,1529538285912,1529538484375,7
final1.json,1529538614391,1529538660890,0
final2.json,1529538665924,1529538872346,7
final2.json,1529539002363,1529539047256,0
final1.json,1529539052288,1529539250715,7
final1.json,1529539380731,1529539498419,0