Af,starttime,endtime,success
v2,1529337937951,1529338164593,0
v1,1529338169603,1529338413765,0
v2,1529338418779,1529338685767,0
v1,1529338690778,1529338931629,0
v2,1529338936642,1529339138176,0
v1,1529339143187,1529339418618,0
v2,1529339423629,1529339687162,0
v1,1529339692177,1529339905983,0
v2,1529339910992,1529340150552,0
v1,1529340155563,1529340426563,0