Af,starttime,endtime,success
final2.json,1526135743120,1526135924415,0
final1.json,1526135929434,1526136142339,0
final2.json,1526136147356,1526136363201,0
final1.json,1526136368225,1526136604981,0
final2.json,1526136609998,1526136816790,0
final1.json,1526136821809,1526137172140,0