killTime,recoveryTime
1531832471554,1531832471662
1531832831285,1531832831394
1531833198050,1531833199059
1531833414113,1531833415135
1531833713727,1531833714737
1531834116764,1531834121776
1531834466449,1531834471460
1531834686469,1531834691480
1531834918760,1531834933775
1531835331284,1531835346295
1531835561306,1531835576317
1531835814603,1531835874613
1531836089622,1531836149634
1531836475710,1531836535720
1531836976027,1531836976136
1531837309510,1531837309620
1531837641365,1531837642374
1531837998419,1531837999445
1531838326863,1531838331873
1531838654304,1531838659314
1531838986287,1531839001296
1531839345928,1531839360941
1531839695902,1531839755913
1531840003924,1531840063934
1531840362799,1531840422808
