time,instances
1529535047781,18
1529535050210,18
1529535057095,18
1529535058583,18
1529535059823,18
1529535061253,18
1529535062565,18
1529535063756,18
1529535064938,18
1529535066076,18
1529535067298,18
1529535068419,22
1529535070046,24
1529535071869,24
1529535073533,24
1529535075376,24
1529535076920,24
1529535078346,24
1529535080001,24
1529535082072,24
1529535084498,24
1529535085849,24
1529535087140,24
1529535088500,24
1529535089929,24
1529535091266,24
1529535092558,24
1529535093934,24
1529535095297,24
1529535096641,24
1529535097896,24
1529535099233,24
1529535100591,24
1529535101931,24
1529535103273,24
1529535104643,24
1529535105920,24
1529535107251,24
1529535108576,24
1529535110179,24
1529535111575,24
1529535113086,24
1529535114490,24
1529535115983,24
1529535117391,24
1529535118900,24
1529535120452,24
1529535122500,24
1529535123916,24
1529535125594,24
1529535126993,24
1529535128358,24
1529535129814,24
1529535131241,24
1529535132620,24
1529535133914,24
1529535135248,24
1529535136494,24
1529535137826,24
1529535139271,24
1529535140722,24
1529535142004,24
1529535143267,24
1529535144570,24
1529535145882,24
1529535147249,24
1529535148591,24
1529535149926,24
1529535152146,24
1529535153588,24
1529535154958,24
1529535156350,24
1529535157601,24
1529535158902,24
1529535160154,24
1529535161429,24
1529535162684,24
1529535163931,24
1529535165190,24
1529535166471,24
1529535167747,24
1529535168990,24
1529535170371,24
1529535171763,24
1529535173020,24
1529535174306,24
1529535175642,24
1529535176914,24
1529535178158,24
1529535179420,24
1529535180698,24
1529535182009,24
1529535183333,24
1529535184684,24
1529535186095,24
1529535187349,24
1529535188572,24
1529535189854,24
1529535191149,24
1529535192481,24
1529535193765,24
1529535195041,24
1529535196287,24
1529535197528,24
1529535198819,24
1529535200072,24
1529535201572,24
1529535202929,24
1529535204241,24
1529535205506,24
1529535206853,24
1529535208105,24
1529535209399,24
1529535210757,24
1529535212040,24
1529535213384,24
1529535214663,24
1529535215925,24
1529535217167,24
1529535218484,24
1529535219770,24
1529535221110,24
1529535222391,24
1529535223660,24
1529535224981,24
1529535226311,24
1529535227624,24
1529535228880,24
1529535230202,24
1529535231624,24
1529535233003,24
1529535234270,24
1529535235504,24
1529535236799,24
1529535238104,24
1529535239418,24
1529535240703,24
1529535242001,24
1529535243321,24
1529535244588,24
1529535245848,24
1529535247134,24
1529535248383,24
1529535249633,24
1529535250884,24
1529535252210,24
1529535253477,24
1529535254801,24
1529535256063,24
1529535257299,24
1529535258556,24
1529535259828,24
1529535261100,24
1529535262506,24
1529535263843,24
1529535265078,24
1529535266342,24
1529535267597,24
1529535268865,24
1529535270141,24
1529535271398,24
1529535272630,24
1529535273903,24
1529535275228,24
1529535276566,24
1529535277820,24
1529535279092,24
1529535280358,24
1529535281617,24
1529535282865,24
1529535284163,24
1529535285424,24
1529535286706,24
1529535287982,24
1529535289245,24
1529535290540,24
1529535291797,24
1529535293272,24
1529535294628,24
1529535295933,24
1529535297232,24
1529535298500,24
1529535299768,24
1529535301062,24
1529535302315,24
1529535303623,24
1529535304934,24
1529535306207,24
1529535307437,24
1529535308690,24
1529535310051,24
1529535311292,24
1529535312588,24
1529535313891,24
1529535315179,24
1529535316459,24
1529535317752,24
1529535319060,24
1529535320309,24
1529535321610,24
1529535322901,24
1529535324340,24
1529535325630,24
1529535326870,24
1529535328101,24
1529535329364,24
1529535330700,24
1529535331963,24
1529535333263,24
1529535334494,24
1529535335768,24
1529535337081,24
1529535338383,24
1529535339627,24
1529535340951,24
1529535342241,24
1529535343550,24
1529535344830,24
1529535346076,24
1529535347324,24
1529535348589,24
1529535349867,24
1529535351126,24
1529535352438,24
1529535353743,24
1529535355154,24
1529535356479,24
1529535357766,24
1529535359026,24
1529535360267,24
1529535361585,24
1529535362866,24
1529535364136,24
1529535365443,24
1529535366709,24
1529535367930,24
1529535369213,24
1529535370487,24
1529535371775,24
1529535373036,24
1529535374283,24
1529535375567,24
1529535376847,24
1529535378142,24
1529535379442,24
1529535380731,24
1529535382003,24
1529535383279,24
1529535384549,24
1529535386061,24
1529535387562,24
1529535388887,24
1529535390189,24
1529535391522,24
1529535392765,24
1529535394064,24
1529535395341,24
1529535396614,24
1529535397879,24
1529535399229,24
1529535400498,24
1529535401805,24
1529535403014,24
1529535404327,24
1529535405651,24
1529535406942,24
1529535408223,24
1529535409498,24
1529535410805,24
1529535412079,24
1529535413415,24
1529535414658,24
1529535416136,24
1529535417468,24
1529535418724,24
1529535419995,24
1529535421233,24
1529535422556,24
1529535423769,24
1529535425061,24
1529535426376,24
1529535427950,24
1529535429236,24
1529535430525,24
1529535431803,24
1529535433054,24
1529535434307,24
1529535435600,24
1529535436921,24
1529535438281,24
1529535439654,24
1529535441018,24
1529535442318,24
1529535443823,24
1529535445138,24
1529535446621,24
1529535448576,24
1529535450044,24
1529535451576,24
1529535452908,24
1529535454358,24
1529535455829,24
1529535457139,24
1529535458851,24
1529535460163,24
1529535461508,24
1529535462913,24
1529535464196,24
1529535465675,24
1529535467031,24
1529535468404,24
1529535470299,24
1529535471677,24
1529535473051,24
1529535474348,24
1529535475653,24
1529535477233,24
1529535478629,22
1529535480275,18
1529535481612,18
1529535482840,18
1529535483932,18
1529535484963,18
1529535485973,18
1529535486951,18
1529535487973,18
1529535488938,18
1529535489920,18
1529535490951,18
1529535492034,18
1529535493050,22
1529535494673,24
1529535496389,24
1529535497885,24
1529535499275,24
1529535500846,24
1529535502173,24
1529535503633,24
1529535506142,24
1529535508283,24
1529535509572,24
1529535510848,24
1529535512041,24
1529535513328,24
1529535514627,24
1529535515836,24
1529535517081,24
1529535518461,24
1529535519748,24
1529535521058,24
1529535522303,24
1529535523583,24
1529535524873,24
1529535526199,24
1529535527433,24
1529535528700,24
1529535529877,24
1529535531132,24
1529535544211,24
1529535545670,24
1529535547079,24
1529535549024,24
1529535550459,24
1529535551800,24
1529535553295,24
1529535554756,24
1529535556078,24
1529535557383,24
1529535558660,24
1529535559908,24
1529535561252,24
1529535562576,24
1529535563857,24
1529535565217,24
1529535566599,24
1529535567885,24
1529535569269,24
1529535570685,24
1529535571986,24
1529535573500,24
1529535574804,24
1529535576164,24
1529535577584,24
1529535579002,24
1529535580385,24
1529535581706,24
1529535582982,24
1529535584269,24
1529535585695,24
1529535587125,24
1529535588429,24
1529535589771,24
1529535591074,24
1529535592349,24
1529535593678,24
1529535595055,24
1529535596402,24
1529535597695,24
1529535599013,24
1529535600279,24
1529535601745,24
1529535603218,24
1529535604889,24
1529535606200,24
1529535607541,24
1529535608847,24
1529535610065,24
1529535611310,24
1529535612590,24
1529535613901,24
1529535615339,24
1529535616594,24
1529535617866,24
1529535619135,24
1529535620450,24
1529535621698,24
1529535622951,24
1529535624201,24
1529535625440,24
1529535626720,24
1529535627987,24
1529535629257,24
1529535630524,24
1529535631781,24
1529535633052,24
1529535634432,24
1529535635859,24
1529535637109,24
1529535638362,24
1529535639633,24
1529535640862,24
1529535642097,24
1529535643358,24
1529535644622,24
1529535645939,24
1529535647175,24
1529535648471,24
1529535649708,24
1529535650953,24
1529535652193,24
1529535653465,24
1529535654719,24
1529535656027,24
1529535657243,24
1529535658472,24
1529535659720,24
1529535661006,24
1529535662222,24
1529535663522,24
1529535664850,24
1529535666250,24
1529535667529,24
1529535668813,24
1529535670069,24
1529535671413,24
1529535672756,24
1529535674026,24
1529535675260,24
1529535676488,24
1529535677774,24
1529535678993,24
1529535680254,24
1529535681524,24
1529535682789,24
1529535684087,24
1529535685310,24
1529535686557,24
1529535687864,24
1529535689169,24
1529535690446,24
1529535691710,24
1529535692953,24
1529535694290,24
1529535695647,24
1529535697090,24
1529535698383,24
1529535699699,24
1529535700942,24
1529535702224,24
1529535703478,24
1529535704729,24
1529535705964,24
1529535707249,24
1529535708493,24
1529535709754,24
1529535711006,24
1529535712276,24
1529535713558,24
1529535714825,24
1529535716122,24
1529535717360,24
1529535718626,24
1529535719894,24
1529535721131,24
1529535722405,24
1529535723701,24
1529535724962,24
1529535726298,24
1529535727691,24
1529535728974,24
1529535730184,24
1529535731454,24
1529535732724,24
1529535733988,24
1529535735256,24
1529535736590,24
1529535737851,24
1529535739088,24
1529535740356,24
1529535741636,24
1529535742935,24
1529535744232,24
1529535745475,24
1529535746766,24
1529535748007,24
1529535749280,24
1529535750520,24
1529535751786,24
1529535752994,24
1529535754284,24
1529535755591,24
1529535756941,24
1529535758386,24
1529535759665,24
1529535760957,24
1529535762245,24
1529535763512,24
1529535764829,24
1529535766087,24
1529535767306,24
1529535768616,24
1529535769876,24
1529535771105,24
1529535772335,24
1529535773591,24
1529535774835,24
1529535776070,24
1529535777302,24
1529535778549,24
1529535779778,24
1529535781030,24
1529535782291,24
1529535783553,24
1529535784864,24
1529535786426,24
1529535787736,24
1529535789152,24
1529535790447,24
1529535791736,24
1529535793025,24
1529535794258,24
1529535795516,24
1529535796795,24
1529535798065,24
1529535799308,24
1529535800620,24
1529535801852,24
1529535803102,24
1529535804398,24
1529535805643,24
1529535806928,24
1529535808156,24
1529535809390,24
1529535810676,24
1529535812007,24
1529535813251,24
1529535814549,24
1529535815812,24
1529535817073,24
1529535818388,24
1529535819835,24
1529535821091,24
1529535822344,24
1529535823593,24
1529535824846,24
1529535826115,24
1529535827359,24
1529535828613,24
1529535829873,24
1529535831138,24
1529535832421,24
1529535833655,24
1529535834984,24
1529535836211,24
1529535837444,24
1529535838690,24
1529535839900,24
1529535841112,24
1529535842350,24
1529535845372,24
1529535846668,24
1529535847977,24
1529535849305,24
1529535850751,24
1529535852005,24
1529535853276,24
1529535854518,24
1529535855875,24
1529535857078,24
1529535858326,24
1529535859622,24
1529535860880,24
1529535862168,24
1529535863471,24
1529535864743,24
1529535866004,24
1529535867233,24
1529535868462,24
1529535869682,24
1529535870962,24
1529535872215,24
1529535873517,24
1529535874810,24
1529535876127,24
1529535877402,24
1529535878650,24
1529535879960,24
1529535881417,24
1529535882704,24
1529535883952,24
1529535885193,24
1529535886451,24
1529535887693,24
1529535888934,24
1529535890173,24
1529535891458,24
1529535892722,24
1529535894061,24
1529535895309,24
1529535896596,24
1529535898016,24
1529535899340,24
1529535900632,24
1529535902001,24
1529535903458,24
1529535904704,24
1529535906299,24
1529535907549,24
1529535908850,24
1529535910289,24
1529535911787,24
1529535913164,24
1529535914549,24
1529535915924,24
1529535917990,24
1529535919448,24
1529535920873,24
1529535922243,24
1529535923648,24
1529535925144,24
1529535926421,24
1529535928388,24
1529535929775,24
1529535931179,24
1529535932558,24
1529535933837,24
1529535935214,24
1529535936633,24
1529535938142,20
1529535939596,18
1529535940625,18
1529535941848,18
1529535942939,18
1529535944018,18
1529535945059,18
1529535946130,18
1529535947231,18
1529535948272,18
1529535949363,18
1529535950460,18
1529535951560,19
1529535952669,24
1529535954358,24
1529535955755,24
1529535957206,24
1529535958726,24
1529535960347,24
1529535961598,24
1529535962928,24
1529535964971,24
1529535967273,24
1529535968512,24
1529535969736,24
1529535971045,24
1529535972420,24
1529535973696,24
1529535974934,24
1529535976403,24
1529535977712,24
1529535978994,24
1529535980278,24
1529535981539,24
1529535982750,24
1529535984058,24
1529535985364,24
1529535986747,24
1529535988007,24
1529535989379,24
1529535990655,24
1529535991959,24
1529535993261,24
1529535994647,24
1529535996034,24
1529535997363,24
1529535998997,24
1529536000603,24
1529536002024,24
1529536003887,24
1529536005509,24
1529536006873,24
1529536008290,24
1529536009580,24
1529536010957,24
1529536012225,24
1529536013481,24
1529536014741,24
1529536016018,24
1529536017340,24
1529536018616,24
1529536019905,24
1529536021258,24
1529536022503,24
1529536023786,24
1529536025003,24
1529536026436,24
1529536027873,24
1529536029267,24
1529536030797,24
1529536032329,24
1529536033876,24
1529536035328,24
1529536036709,24
1529536038020,24
1529536039278,24
1529536040545,24
1529536041889,24
1529536043248,24
1529536044660,24
1529536045896,24
1529536047159,24
1529536048536,24
1529536049781,24
1529536051018,24
1529536052296,24
1529536055318,24
1529536056721,24
1529536058105,24
1529536059380,24
1529536060857,24
1529536062126,24
1529536063692,24
1529536064998,24
1529536066380,24
1529536067615,24
1529536068838,24
1529536070079,24
1529536071396,24
1529536072689,24
1529536073936,24
1529536075197,24
1529536076435,24
1529536077732,24
1529536078981,24
1529536080219,24
1529536081449,24
1529536084600,24
1529536085857,24
1529536087172,24
1529536088412,24
1529536089735,24
1529536091223,24
1529536092474,24
1529536093855,24
1529536095080,24
1529536096309,24
1529536097568,24
1529536098834,24
1529536100080,24
1529536101367,24
1529536102635,24
1529536103923,24
1529536105310,24
1529536106560,24
1529536107841,24
1529536109064,24
1529536110321,24
1529536111605,24
1529536112896,24
1529536114138,24
1529536115439,24
1529536116738,24
1529536118111,24
1529536119432,24
1529536120688,24
1529536122079,24
1529536123364,24
1529536124860,24
1529536126148,24
1529536127428,24
1529536128706,24
1529536129979,24
1529536131248,24
1529536132531,24
1529536133793,24
1529536135076,24
1529536136406,24
1529536137659,24
1529536138892,24
1529536140143,24
1529536141421,24
1529536142683,24
1529536143947,24
1529536145232,24
1529536146679,24
1529536147996,24
1529536149318,24
1529536150617,24
1529536152053,24
1529536153394,24
1529536154825,24
1529536156040,24
1529536157320,24
1529536158569,24
1529536159868,24
1529536161129,24
1529536162405,24
1529536163661,24
1529536164959,24
1529536166243,24
1529536167527,24
1529536168843,24
1529536170134,24
1529536171469,24
1529536172810,24
1529536174081,24
1529536175413,24
1529536176698,24
1529536177967,24
1529536179240,24
1529536180511,24
1529536181908,24
1529536183246,24
1529536184616,24
1529536186133,24
1529536187523,24
1529536188788,24
1529536190150,24
1529536191459,24
1529536192712,24
1529536194050,24
1529536195972,24
1529536197290,24
1529536198576,24
1529536199893,24
1529536201188,24
1529536202481,24
1529536203757,24
1529536205010,24
1529536206228,24
1529536207541,24
1529536208854,24
1529536210103,24
1529536211415,24
1529536212714,24
1529536214072,24
1529536215403,24
1529536216836,24
1529536218141,24
1529536219420,24
1529536220720,24
1529536222015,24
1529536223304,24
1529536224597,24
1529536225873,24
1529536227133,24
1529536228414,24
1529536229678,24
1529536230936,24
1529536232252,24
1529536233522,24
1529536234811,24
1529536236084,24
1529536237372,24
1529536238630,24
1529536239938,24
1529536241260,24
1529536242600,24
1529536243963,24
1529536245243,24
1529536246518,24
1529536247932,24
1529536249297,24
1529536250586,24
1529536251831,24
1529536253060,24
1529536254298,24
1529536255599,24
1529536256868,24
1529536258159,24
1529536259477,24
1529536260712,24
1529536261995,24
1529536263254,24
1529536264542,24
1529536265834,24
1529536267240,24
1529536268559,24
1529536269891,24
1529536271291,24
1529536272572,24
1529536273889,24
1529536275215,24
1529536276469,24
1529536277894,24
1529536279155,24
1529536280432,24
1529536281738,24
1529536283009,24
1529536284257,24
1529536285558,24
1529536286842,24
1529536288124,24
1529536289407,24
1529536290659,24
1529536291951,24
1529536293184,24
1529536294462,24
1529536295701,24
1529536296991,24
1529536298287,24
1529536299581,24
1529536300876,24
1529536302180,24
1529536303435,24
1529536304683,24
1529536306065,24
1529536307347,24
1529536308792,24
1529536310130,24
1529536311405,24
1529536312702,24
1529536313975,24
1529536315245,24
1529536316503,24
1529536317776,24
1529536319009,24
1529536320345,24
1529536321636,24
1529536322877,24
1529536324142,24
1529536325394,24
1529536326669,24
1529536328079,24
1529536329395,24
1529536330683,24
1529536331938,24
1529536333227,24
1529536334513,24
1529536335884,24
1529536337173,24
1529536338707,24
1529536339939,24
1529536341968,24
1529536343231,24
1529536344486,24
1529536345762,24
1529536347036,24
1529536348286,24
1529536349616,24
1529536350918,24
1529536352232,24
1529536353523,24
1529536354865,24
1529536356104,24
1529536357378,24
1529536358752,24
1529536360024,24
1529536361291,24
1529536362600,24
1529536363933,24
1529536365209,24
1529536366555,24
1529536367828,24
1529536369377,24
1529536370662,24
1529536371975,24
1529536373271,24
1529536374553,24
1529536375892,24
1529536377190,24
1529536378492,24
1529536379763,24
1529536381054,24
1529536382331,24
1529536383576,24
1529536384862,24
1529536386381,24
1529536387630,24
1529536388917,24
1529536390156,24
1529536391437,24
1529536392773,24
1529536394082,24
1529536395388,24
1529536396721,24
1529536397973,24
1529536399466,24
1529536400810,24
1529536402118,24
1529536403427,24
1529536404669,24
1529536405901,24
1529536407170,24
1529536408475,24
1529536409801,24
1529536411108,24
1529536412401,24
1529536413737,24
1529536414983,24
1529536416207,24
1529536417454,24
1529536418782,24
1529536420065,24
1529536421362,24
1529536422726,24
1529536423984,24
1529536425260,24
1529536426581,24
1529536427848,24
1529536429293,24
1529536430546,24
1529536431830,24
1529536433125,24
1529536434390,24
1529536435632,24
1529536436899,24
1529536438158,24
1529536439455,24
1529536440771,24
1529536442872,24
1529536444137,24
1529536445378,24
1529536446730,24
1529536448047,24
1529536449324,24
1529536450582,24
1529536451829,24
1529536453141,24
1529536454407,24
1529536455675,24
1529536457030,24
1529536458283,24
1529536459729,24
1529536461108,24
1529536462578,24
1529536463993,24
1529536465370,24
1529536466659,24
1529536468065,24
1529536469412,24
1529536470806,24
1529536472721,24
1529536474135,24
1529536475522,24
1529536476815,24
1529536478193,24
1529536479665,24
1529536480933,24
1529536482507,24
1529536483760,24
1529536485043,24
1529536486474,24
1529536487725,24
1529536489107,24
1529536490480,24
1529536491777,24
1529536493550,24
1529536495004,24
1529536496314,24
1529536497693,24
1529536498904,24
1529536500305,24
1529536501716,24
1529536503002,22
1529536504728,18
1529536505925,18
1529536507050,18
1529536508043,18
1529536509224,18
1529536510218,18
1529536511202,18
1529536512191,18
1529536513252,18
1529536514298,18
1529536515392,18
1529536516485,18
1529536517497,24
1529536519152,24
1529536520688,24
1529536522220,24
1529536523987,24
1529536525349,24
1529536526608,24
1529536529242,24
1529536531490,24
1529536532814,24
1529536534112,24
1529536535364,24
1529536536587,24
1529536537851,24
1529536539067,24
1529536540248,24
1529536541517,24
1529536542760,24
1529536544058,24
1529536545288,24
1529536546469,24
1529536547728,24
1529536549001,24
1529536550295,24
1529536551546,24
1529536552733,24
1529536553927,24
1529536555168,24
1529536556328,24
1529536557573,24
1529536558975,24
1529536560303,24
1529536561658,24
1529536562857,24
1529536564112,24
1529536565567,24
1529536566925,24
1529536568206,24
1529536569735,24
1529536570954,24
1529536572254,24
1529536573519,24
1529536574734,24
1529536576047,24
1529536577375,24
1529536578754,24
1529536580032,24
1529536581495,24
1529536582741,24
1529536584016,24
1529536585266,24
1529536586514,24
1529536587705,24
1529536588936,24
1529536590178,24
1529536591436,24
1529536592634,24
1529536593853,24
1529536595076,24
1529536596333,24
1529536597631,24
1529536598892,24
1529536600171,24
1529536601425,24
1529536602686,24
1529536603974,24
1529536605234,24
1529536606458,24
1529536607727,24
1529536609026,24
1529536610298,24
1529536611699,24
1529536612952,24
1529536614159,24
1529536615390,24
1529536616615,24
1529536617869,24
1529536619128,24
1529536620325,24
1529536621574,24
1529536622815,24
1529536624112,24
1529536625371,24
1529536626631,24
1529536628008,24
1529536629279,24
1529536630612,24
1529536631923,24
1529536633150,24
1529536634416,24
1529536635739,24
1529536636976,24
1529536638210,24
1529536639542,24
1529536640824,24
1529536642245,24
1529536643495,24
1529536644761,24
1529536646009,24
1529536647254,24
1529536648485,24
1529536649737,24
1529536651115,24
1529536652398,24
1529536653673,24
1529536654948,24
1529536656206,24
1529536657447,24
1529536658711,24
1529536659990,24
1529536661239,24
1529536662491,24
1529536663786,24
1529536665042,24
1529536666325,24
1529536667563,24
1529536668843,24
1529536670152,24
1529536671411,24
1529536672794,24
1529536674106,24
1529536675402,24
1529536676686,24
1529536677946,24
1529536679186,24
1529536680436,24
1529536681692,24
1529536682943,24
1529536684200,24
1529536685451,24
1529536686709,24
1529536688001,24
1529536689270,24
1529536690591,24
1529536691851,24
1529536693104,24
1529536694355,24
1529536695617,24
1529536696901,24
1529536698219,24
1529536699478,24
1529536700806,24
1529536702043,24
1529536703536,24
1529536704807,24
1529536706166,24
1529536707453,24
1529536708697,24
1529536709963,24
1529536711191,24
1529536712437,24
1529536713697,24
1529536714939,24
1529536716214,24
1529536717502,24
1529536718799,24
1529536720087,24
1529536721444,24
1529536722744,24
1529536723988,24
1529536725226,24
1529536726471,24
1529536727768,24
1529536729058,24
1529536730338,24
1529536731737,24
1529536732995,24
1529536734468,24
1529536735686,24
1529536736928,24
1529536738173,24
1529536739425,24
1529536740702,24
1529536741974,24
1529536743196,24
1529536744449,24
1529536745666,24
1529536746960,24
1529536748199,24
1529536749481,24
1529536750923,24
1529536752112,24
1529536753380,24
1529536754581,24
1529536755799,24
1529536757026,24
1529536758278,24
1529536759537,24
1529536760763,24
1529536762096,24
1529536763387,24
1529536764802,24
1529536766074,24
1529536767308,24
1529536768549,24
1529536769826,24
1529536771070,24
1529536772371,24
1529536773658,24
1529536774956,24
1529536776180,24
1529536777422,24
1529536778667,24
1529536779942,24
1529536781226,24
1529536782492,24
1529536783772,24
1529536785030,24
1529536787123,24
1529536788391,24
1529536789689,24
1529536790918,24
1529536792250,24
1529536793541,24
1529536794956,24
1529536796222,24
1529536797500,24
1529536798743,24
1529536799998,24
1529536801252,24
1529536802485,24
1529536803759,24
1529536805025,24
1529536806324,24
1529536807595,24
1529536808870,24
1529536810178,24
1529536811484,24
1529536812739,24
1529536813986,24
1529536815263,24
1529536817084,24
1529536818343,24
1529536819571,24
1529536820834,24
1529536822181,24
1529536823420,24
1529536824852,24
1529536826189,24
1529536827421,24
1529536828680,24
1529536829920,24
1529536831172,24
1529536832463,24
1529536833718,24
1529536834967,24
1529536836329,24
1529536837646,24
1529536838968,24
1529536840310,24
1529536841623,24
1529536842936,24
1529536844202,24
1529536845456,24
1529536847053,24
1529536848295,24
1529536849578,24
1529536850821,24
1529536852129,24
1529536853443,24
1529536854658,24
1529536855999,24
1529536857273,24
1529536858515,24
1529536859820,24
1529536861114,24
1529536862446,24
1529536863725,24
1529536864996,24
1529536866224,24
1529536867468,24
1529536868704,24
1529536869947,24
1529536871250,24
1529536872519,24
1529536873793,24
1529536875069,24
1529536877177,24
1529536878429,24
1529536879679,24
1529536880911,24
1529536882187,24
1529536883519,24
1529536884766,24
1529536886195,24
1529536887434,24
1529536888704,24
1529536889971,24
1529536891201,24
1529536892462,24
1529536893719,24
1529536894984,24
1529536896258,24
1529536897607,24
1529536898895,24
1529536900159,24
1529536901443,24
1529536902716,24
1529536904013,24
1529536905307,24
1529536906628,24
1529536907889,24
1529536909110,24
1529536910354,24
1529536911622,24
1529536912901,24
1529536914227,24
1529536915519,24
1529536917071,24
1529536918305,24
1529536919574,24
1529536920854,24
1529536922137,24
1529536923442,24
1529536924688,24
1529536925983,24
1529536927258,24
1529536928532,24
1529536929833,24
1529536931076,24
1529536932390,24
1529536933744,24
1529536935037,24
1529536936314,24
1529536937595,24
1529536938845,24
1529536940098,24
1529536942455,24
1529536943709,24
1529536945086,24
1529536946376,24
1529536947787,24
1529536949174,24
1529536950481,24
1529536951748,24
1529536953051,24
1529536954367,24
1529536955651,24
1529536956910,24
1529536958179,24
1529536959454,24
1529536960749,24
1529536962027,24
1529536963358,24
1529536964777,24
1529536966071,24
1529536967446,24
1529536968798,24
1529536970102,24
1529536971735,24
1529536973034,24
1529536974325,24
1529536975777,24
1529536977172,24
1529536978623,24
1529536980018,24
1529536981377,24
1529536983211,24
1529536984532,24
1529536986209,24
1529536987530,24
1529536988936,24
1529536990264,24
1529536991603,24
1529536993581,24
1529536995259,24
1529536996701,24
1529536997998,24
1529536999375,24
1529537000754,24
1529537002102,22
1529537003835,18
1529537005052,18
1529537006270,18
1529537007458,18
1529537008552,18
1529537009580,18
1529537010606,18
1529537011627,18
1529537012692,18
1529537013784,18
1529537014839,18
1529537015968,18
1529537017143,24
1529537018826,24
1529537020373,24
1529537021875,24
1529537023180,24
1529537024456,24
1529537025728,24
1529537027878,24
1529537030257,24
1529537031850,24
1529537033098,24
1529537034429,24
1529537035722,24
1529537037019,24
1529537038269,24
1529537039551,24
1529537040845,24
1529537042136,24
1529537043408,24
1529537044642,24
1529537045916,24
1529537047188,24
1529537048561,24
1529537049786,24
1529537051047,24
1529537052302,24
1529537053514,24
1529537054804,24
1529537056186,24
1529537057580,24
1529537058904,24
1529537060281,24
1529537061875,24
1529537063569,24
1529537065124,24
1529537066731,24
1529537068638,24
1529537070012,24
1529537071413,24
1529537072867,24
1529537074298,24
1529537075653,24
1529537077036,24
1529537078352,24
1529537079692,24
1529537080915,24
1529537082269,24
1529537083594,24
1529537084965,24
1529537086260,24
1529537087599,24
1529537088834,24
1529537090117,24
1529537091372,24
1529537092743,24
1529537094132,24
1529537095557,24
1529537097021,24
1529537098342,24
1529537099813,24
1529537101179,24
1529537102483,24
1529537103854,24
1529537105172,24
1529537106458,24
1529537107732,24
1529537109020,24
1529537110321,24
1529537111597,24
1529537112941,24
1529537114190,24
1529537115458,24
1529537117284,24
1529537118519,24
1529537119811,24
1529537121065,24
1529537122314,24
1529537123555,24
1529537124803,24
1529537126066,24
1529537127407,24
1529537128769,24
1529537130087,24
1529537131352,24
1529537132637,24
1529537133934,24
1529537135200,24
1529537136528,24
1529537137821,24
1529537139148,24
1529537140455,24
1529537141756,24
1529537143003,24
1529537144310,24
1529537145563,24
1529537146843,24
1529537148138,24
1529537149405,24
1529537150682,24
1529537152008,24
1529537153328,24
1529537154575,24
1529537155823,24
1529537157097,24
1529537158436,24
1529537159777,24
1529537161111,24
1529537162360,24
1529537163669,24
1529537164901,24
1529537166171,24
1529537167459,24
1529537168709,24
1529537169999,24
1529537171305,24
1529537172570,24
1529537173843,24
1529537175104,24
1529537176428,24
1529537177716,24
1529537179035,24
1529537180372,24
1529537181660,24
1529537182957,24
1529537184279,24
1529537185539,24
1529537186843,24
1529537188150,24
1529537189522,24
1529537190880,24
1529537192212,24
1529537193478,24
1529537194723,24
1529537195952,24
1529537197220,24
1529537198530,24
1529537199839,24
1529537201089,24
1529537202365,24
1529537203715,24
1529537205048,24
1529537206335,24
1529537207650,24
1529537208923,24
1529537210246,24
1529537211538,24
1529537212867,24
1529537214211,24
1529537215549,24
1529537216853,24
1529537218124,24
1529537219437,24
1529537220777,24
1529537222170,24
1529537223425,24
1529537224700,24
1529537226016,24
1529537227396,24
1529537228726,24
1529537229975,24
1529537231285,24
1529537232550,24
1529537233920,24
1529537235175,24
1529537236448,24
1529537237750,24
1529537239005,24
1529537240262,24
1529537241516,24
1529537242802,24
1529537244093,24
1529537246454,24
1529537247694,24
1529537248990,24
1529537250346,24
1529537251744,24
1529537253145,24
1529537254476,24
1529537255745,24
1529537256997,24
1529537258309,24
1529537259580,24
1529537260915,24
1529537262216,24
1529537263532,24
1529537264830,24
1529537266076,24
1529537267346,24
1529537268607,24
1529537269912,24
1529537271249,24
1529537272508,24
1529537273815,24
1529537275086,24
1529537276345,24
1529537277593,24
1529537278871,24
1529537280269,24
1529537281628,24
1529537282998,24
1529537284300,24
1529537285596,24
1529537286873,24
1529537288157,24
1529537289422,24
1529537290707,24
1529537292040,24
1529537293307,24
1529537294622,24
1529537295922,24
1529537297209,24
1529537298448,24
1529537299727,24
1529537301030,24
1529537302364,24
1529537303627,24
1529537304873,24
1529537306289,24
1529537307507,24
1529537308770,24
1529537310057,24
1529537311473,24
1529537312841,24
1529537314259,24
1529537315560,24
1529537316811,24
1529537318075,24
1529537319362,24
1529537320651,24
1529537321917,24
1529537323162,24
1529537324472,24
1529537325748,24
1529537327014,24
1529537328293,24
1529537329539,24
1529537330798,24
1529537332108,24
1529537333404,24
1529537334691,24
1529537335992,24
1529537337288,24
1529537338573,24
1529537339858,24
1529537341120,24
1529537342470,24
1529537343849,24
1529537345231,24
1529537346493,24
1529537347775,24
1529537349065,24
1529537350304,24
1529537351571,24
1529537352839,24
1529537354134,24
1529537355369,24
1529537356743,24
1529537358009,24
1529537359292,24
1529537360577,24
1529537361906,24
1529537363194,24
1529537364505,24
1529537365754,24
1529537367025,24
1529537368302,24
1529537369553,24
1529537370858,24
1529537372140,24
1529537373495,24
1529537374859,24
1529537376182,24
1529537377429,24
1529537378712,24
1529537379953,24
1529537381207,24
1529537382441,24
1529537383685,24
1529537384996,24
1529537386286,24
1529537387694,24
1529537389005,24
1529537390383,24
1529537391824,24
1529537393071,24
1529537394678,24
1529537395917,24
1529537397190,24
1529537398579,24
1529537399870,24
1529537401309,24
1529537402677,24
1529537404118,24
1529537405927,24
1529537407345,24
1529537408688,24
1529537410013,24
1529537411348,24
1529537412786,24
1529537414102,24
1529537415793,24
1529537417094,24
1529537418445,24
1529537419806,24
1529537421087,24
1529537422508,24
1529537423860,24
1529537425440,18
1529537426729,18
1529537427738,18
1529537428755,18
1529537429956,18
1529537430992,18
1529537431937,18
1529537432926,18
1529537434132,18
1529537435271,18
1529537436336,18
1529537437558,18
1529537438546,24
1529537440168,24
1529537441638,24
1529537443253,24
1529537444682,24
1529537446149,24
1529537447397,24
1529537448777,24
1529537450639,24
1529537452967,24
1529537454256,24
1529537455517,24
1529537456722,24
1529537457974,24
1529537459292,24
1529537460838,24
1529537462146,24
1529537463368,24
1529537464675,24
1529537466025,24
1529537467294,24
1529537468499,24
1529537469778,24
1529537470963,24
1529537472285,24
1529537473553,24
1529537474853,24
1529537477301,24
1529537478538,24
1529537479797,24
1529537481077,24
1529537482499,24
1529537484053,24
1529537485336,24
1529537486580,24
1529537487841,24
1529537489250,24
1529537490543,24
1529537491882,24
1529537493521,24
1529537494903,24
1529537496336,24
1529537497648,24
1529537499022,24
1529537500377,24
1529537501646,24
1529537502999,24
1529537504223,24
1529537505487,24
1529537506732,24
1529537508076,24
1529537509306,24
1529537510591,24
1529537511848,24
1529537513108,24
1529537514396,24
1529537515658,24
1529537516897,24
1529537518221,24
1529537519500,24
1529537520755,24
1529537522040,24
1529537523308,24
1529537524634,24
1529537526009,24
1529537527341,24
1529537528659,24
1529537529974,24
1529537531225,24
1529537532493,24
1529537533765,24
1529537535065,24
1529537536329,24
1529537537603,24
1529537538823,24
1529537540105,24
1529537541415,24
1529537542707,24
1529537543987,24
1529537545239,24
1529537546498,24
1529537547773,24
1529537549036,24
1529537550335,24
1529537551601,24
1529537552867,24
1529537554156,24
1529537555409,24
1529537556783,24
1529537558154,24
1529537559409,24
1529537560764,24
1529537562012,24
1529537563270,24
1529537564530,24
1529537565839,24
1529537567113,24
1529537568407,24
1529537569721,24
1529537571026,24
1529537572286,24
1529537573534,24
1529537574849,24
1529537576152,24
1529537577418,24
1529537578673,24
1529537579962,24
1529537581154,24
1529537582395,24
1529537583633,24
1529537584877,24
1529537586362,24
1529537587684,24
1529537589051,24
1529537590332,24
1529537591676,24
1529537592919,24
1529537594174,24
1529537595455,24
1529537596727,24
1529537597990,24
1529537599320,24
1529537600598,24
1529537601895,24
1529537603159,24
1529537604453,24
1529537605726,24
1529537607006,24
1529537608234,24
1529537609523,24
1529537610826,24
1529537612131,24
1529537613441,24
1529537614717,24
1529537616004,24
1529537617271,24
1529537618673,24
1529537619988,24
1529537621269,24
1529537622602,24
1529537623915,24
1529537625186,24
1529537626470,24
1529537627749,24
1529537629003,24
1529537630269,24
1529537631494,24
1529537632774,24
1529537634117,24
1529537635391,24
1529537636665,24
1529537637925,24
1529537639165,24
1529537640416,24
1529537641700,24
1529537642969,24
1529537644278,24
1529537645556,24
1529537646792,24
1529537648112,24
1529537649442,24
1529537650761,24
1529537652046,24
1529537653368,24
1529537654620,24
1529537655868,24
1529537657609,24
1529537658956,24
1529537660216,24
1529537661493,24
1529537662734,24
1529537664019,24
1529537665284,24
1529537666569,24
1529537667903,24
1529537669171,24
1529537670426,24
1529537671682,24
1529537672914,24
1529537674182,24
1529537675455,24
1529537676710,24
1529537678008,24
1529537679379,24
1529537680737,24
1529537682003,24
1529537683348,24
1529537684623,24
1529537685912,24
1529537687198,24
1529537688509,24
1529537689749,24
1529537690982,24
1529537692251,24
1529537693491,24
1529537694814,24
1529537696173,24
1529537697443,24
1529537698737,24
1529537699989,24
1529537701268,24
1529537702567,24
1529537703819,24
1529537705152,24
1529537706429,24
1529537707680,24
1529537708987,24
1529537710353,24
1529537711673,24
1529537712924,24
1529537714265,24
1529537715480,24
1529537716752,24
1529537717984,24
1529537719285,24
1529537720496,24
1529537721778,24
1529537723005,24
1529537724257,24
1529537725496,24
1529537726788,24
1529537728070,24
1529537729296,24
1529537730580,24
1529537731839,24
1529537733133,24
1529537734394,24
1529537735674,24
1529537736935,24
1529537738200,24
1529537739486,24
1529537740818,24
1529537742209,24
1529537743455,24
1529537744754,24
1529537746070,24
1529537747327,24
1529537748594,24
1529537749855,24
1529537751127,24
1529537752635,24
1529537753867,24
1529537755131,24
1529537756392,24
1529537757663,24
1529537758885,24
1529537760131,24
1529537761359,24
1529537762670,24
1529537763882,24
1529537765143,24
1529537766472,24
1529537767870,24
1529537769121,24
1529537770453,24
1529537771783,24
1529537773127,24
1529537774856,24
1529537776165,24
1529537777456,24
1529537778874,24
1529537780146,24
1529537781613,24
1529537782958,24
1529537784290,24
1529537786072,24
1529537787387,24
1529537788788,24
1529537790111,24
1529537791424,24
1529537792853,24
1529537794146,24
1529537795909,24
1529537797348,24
1529537798734,24
1529537800136,24
1529537801505,24
1529537802881,24
1529537804252,24
1529537806067,18
1529537807173,18
1529537808280,18
1529537809303,18
1529537810412,18
1529537811453,18
1529537812481,18
1529537813485,18
1529537814522,18
1529537815535,18
1529537816555,18
1529537817661,18
1529537818731,22
1529537820291,24
1529537821873,24
1529537823392,24
1529537824932,24
1529537826422,24
1529537827760,24
1529537829137,24
1529537831161,24
1529537832732,24
1529537834160,24
1529537835509,24
1529537836811,24
1529537838100,24
1529537839357,24
1529537840596,24
1529537841900,24
1529537843292,24
1529537844649,24
1529537845882,24
1529537847134,24
1529537848342,24
1529537849811,24
1529537851222,24
1529537852467,24
1529537853707,24
1529537854960,24
1529537856262,24
1529537857585,24
1529537858873,24
1529537860103,24
1529537866855,24
1529537868342,24
1529537869942,24
1529537871522,24
1529537872897,24
1529537874398,24
1529537875743,24
1529537877155,24
1529537878620,24
1529537879980,24
1529537881281,24
1529537882563,24
1529537883810,24
1529537885069,24
1529537886372,24
1529537887718,24
1529537889084,24
1529537890413,24
1529537891677,24
1529537893102,24
1529537894478,24
1529537895840,24
1529537897231,24
1529537898487,24
1529537899819,24
1529537901138,24
1529537902446,24
1529537903950,24
1529537905438,24
1529537906713,24
1529537907973,24
1529537909193,24
1529537910437,24
1529537911802,24
1529537913179,24
1529537914607,24
1529537915882,24
1529537917215,24
1529537918542,24
1529537919941,24
1529537921386,24
1529537922808,24
1529537924131,24
1529537925539,24
1529537926818,24
1529537928327,24
1529537929716,24
1529537931015,24
1529537932294,24
1529537933571,24
1529537934950,24
1529537936236,24
1529537937651,24
1529537939013,24
1529537940303,24
1529537941630,24
1529537942930,24
1529537944187,24
1529537945599,24
1529537947057,24
1529537948435,24
1529537949734,24
1529537951007,24
1529537952326,24
1529537953753,24
1529537955118,24
1529537956528,24
1529537957837,24
1529537959163,24
1529537960476,24
1529537961737,24
1529537963038,24
1529537964353,24
1529537965554,24
1529537966839,24
1529537968139,24
1529537969419,24
1529537970731,24
1529537971993,24
1529537973278,24
1529537974549,24
1529537975833,24
1529537977109,24
1529537978384,24
1529537979630,24
1529537980879,24
1529537982187,24
1529537983526,24
1529537984910,24
1529537986213,24
1529537987606,24
1529537988948,24
1529537990335,24
1529537991644,24
1529537992946,24
1529537994241,24
1529537995532,24
1529537996837,24
1529537998123,24
1529537999507,24
1529538000812,24
1529538002092,24
1529538003438,24
1529538004699,24
1529538005986,24
1529538007298,24
1529538008558,24
1529538009860,24
1529538011152,24
1529538012440,24
1529538014345,24
1529538015698,24
1529538016955,24
1529538018930,24
1529538020286,24
1529538021576,24
1529538022935,24
1529538024214,24
1529538025522,24
1529538026824,24
1529538028093,24
1529538029424,24
1529538030678,24
1529538031943,24
1529538033276,24
1529538034597,24
1529538035945,24
1529538037279,24
1529538038546,24
1529538039838,24
1529538041118,24
1529538042377,24
1529538043684,24
1529538045013,24
1529538046380,24
1529538047686,24
1529538049090,24
1529538050433,24
1529538051699,24
1529538052935,24
1529538054177,24
1529538055465,24
1529538056745,24
1529538058050,24
1529538059334,24
1529538060686,24
1529538061968,24
1529538063268,24
1529538064546,24
1529538065858,24
1529538067129,24
1529538068425,24
1529538069696,24
1529538070933,24
1529538072187,24
1529538073444,24
1529538074698,24
1529538075974,24
1529538077321,24
1529538078615,24
1529538080022,24
1529538081373,24
1529538082622,24
1529538083930,24
1529538085238,24
1529538086491,24
1529538087782,24
1529538089036,24
1529538090307,24
1529538091564,24
1529538092807,24
1529538094074,24
1529538095347,24
1529538096640,24
1529538097890,24
1529538099153,24
1529538100420,24
1529538101696,24
1529538103007,24
1529538104305,24
1529538105628,24
1529538106943,24
1529538108291,24
1529538109558,24
1529538110887,24
1529538112269,24
1529538113554,24
1529538114852,24
1529538116129,24
1529538117420,24
1529538118682,24
1529538119957,24
1529538121201,24
1529538122502,24
1529538123822,24
1529538125125,24
1529538126433,24
1529538127765,24
1529538129035,24
1529538130241,24
1529538131525,24
1529538132768,24
1529538134053,24
1529538135325,24
1529538136635,24
1529538137933,24
1529538139266,24
1529538140548,24
1529538141915,24
1529538143250,24
1529538144558,24
1529538145859,24
1529538147094,24
1529538148397,24
1529538149694,24
1529538150973,24
1529538152243,24
1529538153555,24
1529538154871,24
1529538156139,24
1529538157435,24
1529538158685,24
1529538159978,24
1529538161351,24
1529538162626,24
1529538163884,24
1529538165146,24
1529538166484,24
1529538167794,24
1529538169178,24
1529538170464,24
1529538171835,24
1529538173222,24
1529538174477,24
1529538175827,24
1529538177123,24
1529538178443,24
1529538179738,24
1529538180999,24
1529538182282,24
1529538183546,24
1529538184830,24
1529538186339,24
1529538187607,24
1529538188920,24
1529538190174,24
1529538191427,24
1529538192715,24
1529538193994,24
1529538195267,24
1529538196561,24
1529538197914,24
1529538199178,24
1529538200508,24
1529538201790,24
1529538203164,24
1529538204518,24
1529538205733,24
1529538206982,24
1529538208305,24
1529538209553,24
1529538210810,24
1529538212110,24
1529538213394,24
1529538214650,24
1529538215963,24
1529538217248,24
1529538218503,24
1529538219793,24
1529538221105,24
1529538222415,24
1529538223701,24
1529538224935,24
1529538226236,24
1529538227490,24
1529538228741,24
1529538230047,24
1529538231439,24
1529538232684,24
1529538234073,24
1529538235402,24
1529538236678,24
1529538238002,24
1529538239407,24
1529538240739,24
1529538242147,24
1529538243464,24
1529538245075,24
1529538246288,24
1529538247524,24
1529538248873,24
1529538250177,24
1529538251513,24
1529538252931,24
1529538254173,24
1529538255745,24
1529538257027,24
1529538258312,24
1529538259767,24
1529538261064,24
1529538262606,24
1529538264148,24
1529538265683,24
1529538267112,24
1529538268438,24
1529538269817,24
1529538271094,24
1529538272466,24
1529538273873,24
1529538275111,22
1529538276834,18
1529538277994,18
1529538279108,18
1529538280122,18
1529538281146,18
1529538282171,18
1529538283136,18
1529538284109,18
1529538285136,18
1529538286109,18
1529538287175,18
1529538288258,18
1529538289275,22
1529538290811,24
1529538292311,24
1529538293916,24
1529538295349,24
1529538297137,24
1529538298368,24
1529538299727,24
1529538301882,24
1529538304031,24
1529538305332,24
1529538306600,24
1529538307832,24
1529538309115,24
1529538310416,24
1529538311673,24
1529538312949,24
1529538314260,24
1529538315476,24
1529538316687,24
1529538317915,24
1529538319182,24
1529538320369,24
1529538321620,24
1529538322866,24
1529538324104,24
1529538325463,24
1529538326871,24
1529538328151,24
1529538329397,24
1529538330660,24
1529538331927,24
1529538333307,24
1529538334592,24
1529538335906,24
1529538337500,24
1529538338730,24
1529538340015,24
1529538341477,24
1529538342773,24
1529538344051,24
1529538345347,24
1529538346618,24
1529538347918,24
1529538349221,24
1529538350512,24
1529538351802,24
1529538353063,24
1529538354409,24
1529538355733,24
1529538357103,24
1529538358381,24
1529538359629,24
1529538361330,24
1529538362588,24
1529538363862,24
1529538365119,24
1529538366365,24
1529538367598,24
1529538368835,24
1529538370058,24
1529538371299,24
1529538372599,24
1529538373834,24
1529538375078,24
1529538376320,24
1529538377587,24
1529538378829,24
1529538380146,24
1529538381425,24
1529538382765,24
1529538384097,24
1529538385435,24
1529538386760,24
1529538388048,24
1529538389329,24
1529538390580,24
1529538391863,24
1529538393119,24
1529538394364,24
1529538395647,24
1529538396915,24
1529538398195,24
1529538399550,24
1529538400850,24
1529538402159,24
1529538403418,24
1529538404696,24
1529538406019,24
1529538407321,24
1529538408579,24
1529538409887,24
1529538411194,24
1529538412440,24
1529538413713,24
1529538414955,24
1529538416337,24
1529538417672,24
1529538419006,24
1529538420280,24
1529538421607,24
1529538422885,24
1529538424209,24
1529538425525,24
1529538426787,24
1529538428289,24
1529538429578,24
1529538430859,24
1529538432091,24
1529538433371,24
1529538434646,24
1529538435927,24
1529538437164,24
1529538438473,24
1529538439739,24
1529538441026,24
1529538442293,24
1529538443556,24
1529538444871,24
1529538446221,24
1529538447588,24
1529538448936,24
1529538450191,24
1529538451424,24
1529538452675,24
1529538453928,24
1529538455248,24
1529538456492,24
1529538457755,24
1529538459063,24
1529538460327,24
1529538461609,24
1529538462858,24
1529538464128,24
1529538465407,24
1529538466666,24
1529538467947,24
1529538469264,24
1529538470594,24
1529538471883,24
1529538473156,24
1529538474423,24
1529538475714,24
1529538477077,24
1529538478394,24
1529538479763,24
1529538481078,24
1529538482329,24
1529538483602,24
1529538484906,24
1529538486208,24
1529538487488,24
1529538488774,24
1529538490088,24
1529538491394,24
1529538492705,24
1529538494003,24
1529538495329,24
1529538496750,24
1529538498046,24
1529538499323,24
1529538500574,24
1529538501914,24
1529538503151,24
1529538504426,24
1529538505945,24
1529538507273,24
1529538508636,24
1529538510004,24
1529538511306,24
1529538512614,24
1529538513927,24
1529538515222,24
1529538516521,24
1529538517839,24
1529538519144,24
1529538520409,24
1529538521644,24
1529538522934,24
1529538524198,24
1529538525450,24
1529538526738,24
1529538528023,24
1529538529327,24
1529538530621,24
1529538531903,24
1529538533187,24
1529538534443,24
1529538535741,24
1529538536998,24
1529538538352,24
1529538539686,24
1529538541064,24
1529538542358,24
1529538543690,24
1529538544978,24
1529538546244,24
1529538547478,24
1529538548713,24
1529538549981,24
1529538551243,24
1529538552523,24
1529538553780,24
1529538555067,24
1529538556347,24
1529538557578,24
1529538558870,24
1529538560146,24
1529538561404,24
1529538562716,24
1529538564008,24
1529538565302,24
1529538566581,24
1529538567946,24
1529538569264,24
1529538570629,24
1529538571944,24
1529538573275,24
1529538574517,24
1529538575807,24
1529538577058,24
1529538578288,24
1529538579575,24
1529538580843,24
1529538582095,24
1529538583347,24
1529538584828,24
1529538586119,24
1529538587387,24
1529538588759,24
1529538590047,24
1529538591313,24
1529538592550,24
1529538593847,24
1529538595192,24
1529538597062,24
1529538598359,24
1529538599727,24
1529538601091,24
1529538602472,24
1529538603825,24
1529538605163,24
1529538606414,24
1529538607715,24
1529538608991,24
1529538610320,24
1529538611586,24
1529538612866,24
1529538614182,24
1529538615546,24
1529538616865,24
1529538618215,24
1529538619650,24
1529538620986,24
1529538622438,24
1529538624180,24
1529538625587,24
1529538627004,24
1529538628338,24
1529538629790,24
1529538631400,24
1529538632910,24
1529538634553,24
1529538635921,24
1529538637243,24
1529538638607,24
1529538639896,24
1529538641243,24
1529538642648,24
1529538643936,24
1529538645978,24
1529538647607,24
1529538648979,24
1529538650339,24
1529538651680,24
1529538653188,24
1529538654504,24
1529538656287,18
1529538657379,18
1529538658405,18
1529538659425,18
1529538660586,18
1529538661738,18
1529538662849,18
1529538663893,18
1529538664938,18
1529538665999,18
1529538667150,18
1529538668231,18
1529538669283,22
1529538670800,24
1529538672297,24
1529538673908,24
1529538675345,24
1529538676910,24
1529538678209,24
1529538679458,24
1529538681631,24
1529538683837,24
1529538685064,24
1529538686353,24
1529538687614,24
1529538688913,24
1529538690196,24
1529538691449,24
1529538692722,24
1529538694065,24
1529538695397,24
1529538696647,24
1529538697868,24
1529538699123,24
1529538700367,24
1529538701687,24
1529538702991,24
1529538704263,24
1529538705548,24
1529538706790,24
1529538708045,24
1529538709301,24
1529538710578,24
1529538711851,24
1529538713206,24
1529538714616,24
1529538715982,24
1529538717553,24
1529538719294,24
1529538720617,24
1529538722016,24
1529538723494,24
1529538724765,24
1529538726145,24
1529538727430,24
1529538728736,24
1529538730031,24
1529538731308,24
1529538732566,24
1529538733846,24
1529538735148,24
1529538736441,24
1529538737729,24
1529538738989,24
1529538740255,24
1529538741460,24
1529538742739,24
1529538744039,24
1529538745344,24
1529538746611,24
1529538747893,24
1529538749182,24
1529538750420,24
1529538751692,24
1529538753075,24
1529538754506,24
1529538755793,24
1529538757090,24
1529538758330,24
1529538759629,24
1529538760977,24
1529538762265,24
1529538763524,24
1529538764791,24
1529538766054,24
1529538767315,24
1529538768581,24
1529538769804,24
1529538771061,24
1529538772323,24
1529538773590,24
1529538774852,24
1529538776149,24
1529538777384,24
1529538778652,24
1529538779863,24
1529538781127,24
1529538782433,24
1529538783754,24
1529538785203,24
1529538786568,24
1529538787882,24
1529538789150,24
1529538790431,24
1529538791740,24
1529538793012,24
1529538794318,24
1529538795739,24
1529538796992,24
1529538798287,24
1529538799548,24
1529538800921,24
1529538802163,24
1529538803473,24
1529538804761,24
1529538806021,24
1529538807488,24
1529538808741,24
1529538809969,24
1529538811311,24
1529538812584,24
1529538813899,24
1529538815306,24
1529538816807,24
1529538818096,24
1529538819453,24
1529538820761,24
1529538822178,24
1529538824964,24
1529538826259,24
1529538827525,24
1529538828860,24
1529538830223,24
1529538831742,24
1529538833138,24
1529538834454,24
1529538835698,24
1529538837003,24
1529538838288,24
1529538839748,24
1529538841110,24
1529538842445,24
1529538843836,24
1529538845244,24
1529538846501,24
1529538847761,24
1529538849049,24
1529538850372,24
1529538851629,24
1529538852901,24
1529538854177,24
1529538855419,24
1529538856693,24
1529538857983,24
1529538859301,24
1529538860561,24
1529538861873,24
1529538863181,24
1529538864413,24
1529538865715,24
1529538867028,24
1529538868340,24
1529538869624,24
1529538870899,24
1529538872188,24
1529538873501,24
1529538874862,24
1529538876315,24
1529538877640,24
1529538878962,24
1529538880238,24
1529538881503,24
1529538882775,24
1529538884052,24
1529538885336,24
1529538886650,24
1529538887953,24
1529538889241,24
1529538890485,24
1529538891741,24
1529538893020,24
1529538894391,24
1529538895684,24
1529538896950,24
1529538898230,24
1529538899496,24
1529538900738,24
1529538902031,24
1529538903363,24
1529538904621,24
1529538905974,24
1529538907389,24
1529538908662,24
1529538909890,24
1529538911178,24
1529538912449,24
1529538913706,24
1529538915013,24
1529538916297,24
1529538917546,24
1529538918860,24
1529538920103,24
1529538921406,24
1529538922683,24
1529538923968,24
1529538925249,24
1529538926489,24
1529538927731,24
1529538929008,24
1529538930258,24
1529538931548,24
1529538932845,24
1529538934176,24
1529538935534,24
1529538936912,24
1529538938420,24
1529538939699,24
1529538941001,24
1529538942275,24
1529538943537,24
1529538944812,24
1529538946044,24
1529538947292,24
1529538948565,24
1529538949888,24
1529538951165,24
1529538952446,24
1529538953731,24
1529538955024,24
1529538956329,24
1529538957656,24
1529538958980,24
1529538960284,24
1529538961598,24
1529538962892,24
1529538964175,24
1529538965455,24
1529538966796,24
1529538968197,24
1529538969503,24
1529538970786,24
1529538972052,24
1529538973293,24
1529538974554,24
1529538975870,24
1529538977129,24
1529538978379,24
1529538979690,24
1529538980993,24
1529538982246,24
1529538983502,24
1529538984750,24
1529538986055,24
1529538987310,24
1529538988610,24
1529538989871,24
1529538991115,24
1529538992388,24
1529538993698,24
1529538994937,24
1529538996251,24
1529538997596,24
1529538999032,24
1529539000332,24
1529539001630,24
1529539002918,24
1529539004317,24
1529539005752,24
1529539007156,24
1529539008531,24
1529539010009,24
1529539011661,24
1529539012966,24
1529539014338,24
1529539015683,24
1529539017023,24
1529539018456,24
1529539019742,24
1529539022240,24
1529539023573,24
1529539024980,24
1529539026357,24
1529539027678,24
1529539029374,24
1529539030776,24
1529539032312,24
1529539033738,24
1529539035065,24
1529539036430,24
1529539037678,24
1529539039013,24
1529539040407,24
1529539041729,20
1529539043325,18
1529539044479,18
1529539045560,18
1529539046572,18
1529539047600,18
1529539048581,18
1529539049552,18
1529539050552,18
1529539051567,18
1529539052601,18
1529539053668,18
1529539054809,18
1529539055795,24
1529539057361,24
1529539058922,24
1529539060442,24
1529539062064,24
1529539063491,24
1529539064723,24
1529539066772,24
1529539068208,24
1529539070517,24
1529539071786,24
1529539073026,24
1529539074267,24
1529539075483,24
1529539076739,24
1529539077963,24
1529539079204,24
1529539080464,24
1529539081829,24
1529539083067,24
1529539084298,24
1529539085555,24
1529539086829,24
1529539088079,24
1529539089300,24
1529539090722,24
1529539091961,24
1529539093170,24
1529539094426,24
1529539095669,24
1529539096927,24
1529539098243,24
1529539099637,24
1529539101292,24
1529539102584,24
1529539103965,24
1529539105453,24
1529539106711,24
1529539108549,24
1529539109837,24
1529539111170,24
1529539112477,24
1529539114533,24
1529539115807,24
1529539117073,24
1529539118440,24
1529539119829,24
1529539121306,24
1529539122594,24
1529539123850,24
1529539125107,24
1529539126356,24
1529539127629,24
1529539128915,24
1529539130147,24
1529539131389,24
1529539132653,24
1529539133898,24
1529539135213,24
1529539136509,24
1529539137788,24
1529539139040,24
1529539140394,24
1529539141704,24
1529539142955,24
1529539144190,24
1529539145427,24
1529539146738,24
1529539148016,24
1529539149302,24
1529539150617,24
1529539152040,24
1529539153295,24
1529539154537,24
1529539155782,24
1529539157022,24
1529539158258,24
1529539159515,24
1529539160755,24
1529539161994,24
1529539163264,24
1529539164487,24
1529539165753,24
1529539167014,24
1529539168301,24
1529539169549,24
1529539170820,24
1529539172058,24
1529539173313,24
1529539174552,24
1529539175847,24
1529539177139,24
1529539178373,24
1529539179635,24
1529539180984,24
1529539182421,24
1529539183680,24
1529539184945,24
1529539186180,24
1529539187448,24
1529539188728,24
1529539189987,24
1529539191235,24
1529539192542,24
1529539193807,24
1529539195072,24
1529539196334,24
1529539197593,24
1529539198846,24
1529539200099,24
1529539201422,24
1529539203853,24
1529539205114,24
1529539206363,24
1529539207626,24
1529539208915,24
1529539210261,24
1529539211601,24
1529539213038,24
1529539214298,24
1529539215545,24
1529539216829,24
1529539218119,24
1529539219399,24
1529539220647,24
1529539221879,24
1529539223125,24
1529539224393,24
1529539225691,24
1529539226956,24
1529539228207,24
1529539229505,24
1529539230813,24
1529539232092,24
1529539234295,24
1529539235563,24
1529539236825,24
1529539238129,24
1529539239389,24
1529539240666,24
1529539241995,24
1529539245063,24
1529539246320,24
1529539247576,24
1529539248804,24
1529539250072,24
1529539251364,24
1529539252639,24
1529539253898,24
1529539255179,24
1529539256479,24
1529539257746,24
1529539258982,24
1529539260240,24
1529539261494,24
1529539262749,24
1529539264012,24
1529539265284,24
1529539266584,24
1529539267808,24
1529539269110,24
1529539270367,24
1529539271660,24
1529539272972,24
1529539274410,24
1529539275681,24
1529539276929,24
1529539278184,24
1529539279434,24
1529539280715,24
1529539283137,24
1529539293569,24
1529539294840,24
1529539296064,24
1529539297325,24
1529539298580,24
1529539299843,24
1529539301140,24
1529539302393,24
1529539303711,24
1529539305135,24
1529539306400,24
1529539307668,24
1529539308921,24
1529539310190,24
1529539311435,24
1529539312688,24
1529539313904,24
1529539315149,24
1529539316364,24
1529539317691,24
1529539318947,24
1529539320235,24
1529539321558,24
1529539322939,24
1529539324218,24
1529539325502,24
1529539326799,24
1529539328107,24
1529539329420,24
1529539330695,24
1529539331943,24
1529539333260,24
1529539334629,24
1529539336081,24
1529539337307,24
1529539338520,24
1529539339778,24
1529539341020,24
1529539342271,24
1529539343537,24
1529539344794,24
1529539346067,24
1529539347355,24
1529539348588,24
1529539349884,24
1529539351142,24
1529539352477,24
1529539353766,24
1529539355048,24
1529539356340,24
1529539357643,24
1529539358907,24
1529539360191,24
1529539361474,24
1529539362750,24
1529539365340,24
1529539366785,24
1529539368005,24
1529539369220,24
1529539370451,24
1529539371674,24
1529539372964,24
1529539374223,24
1529539375441,24
1529539376680,24
1529539378012,24
1529539379257,24
1529539381861,24
1529539383203,24
1529539384452,24
1529539385923,24
1529539387255,24
1529539388504,24
1529539389819,24
1529539391141,24
1529539392380,24
1529539393686,24
1529539394974,24
1529539396312,24
1529539397639,24
1529539398914,24
1529539400174,24
1529539401433,24
1529539402693,24
1529539403985,24
1529539405252,24
1529539406531,24
1529539407887,24
1529539409140,24
1529539410443,24
1529539411715,24
1529539414046,24
1529539415394,24
1529539416701,24
1529539417957,24
1529539419247,24
1529539420524,24
1529539421891,24
1529539423143,24
1529539424398,24
1529539425654,24
1529539426992,24
1529539428348,24
1529539429666,24
1529539430982,24
1529539432282,24
1529539433529,24
1529539434854,24
1529539436139,24
1529539437421,24
1529539438763,24
1529539440139,24
1529539441484,24
1529539442781,24
1529539444059,24
1529539445367,24
1529539446630,24
1529539447872,24
1529539449122,24
1529539450431,24
1529539451701,24
1529539453015,24
1529539454386,24
1529539455715,24
1529539457167,24
1529539458672,24
1529539459969,24
1529539461550,24
1529539462802,24
1529539464180,24
1529539465597,24
1529539466863,24
1529539468280,24
1529539469585,24
1529539470927,24
1529539472940,24
1529539474480,24
1529539476004,24
1529539477352,24
1529539478723,24
1529539480130,24
1529539481460,25
1529539482959,24
1529539484607,24
1529539485995,24
1529539487516,24
1529539488938,24
1529539490311,24
1529539491705,24
1529539493007,20
1529539494698,18
1529539495735,18
1529539496854,18
1529539497917,18
1529539498963,18
1529539501623,18
1529539502694,