time,instances
1530213055567,18
1530213057850,18
1530213059924,18
1530213061859,18
1530213063028,18
1530213064411,18
1530213065910,18
1530213067250,24
1530213069415,24
1530213071559,24
1530213073364,24
1530213075124,24
1530213076695,24
1530213078259,24
1530213080175,24
1530213082548,24
1530213084697,24
1530213086043,24
1530213087435,24
1530213088863,24
1530213090207,24
1530213091628,24
1530213093030,24
1530213094397,24
1530213095771,24
1530213097308,24
1530213098735,24
1530213100083,24
1530213101486,24
1530213102989,24
1530213104387,24
1530213106240,24
1530213107597,24
1530213114004,24
1530213115715,24
1530213117354,24
1530213118888,24
1530213120573,24
1530213122000,24
1530213123453,24
1530213124834,24
1530213126138,24
1530213127595,24
1530213128994,24
1530213130353,24
1530213131718,24
1530213133041,24
1530213134466,24
1530213135892,24
1530213137344,24
1530213138645,24
1530213139923,24
1530213141219,24
1530213142694,24
1530213144071,24
1530213145347,24
1530213146700,24
1530213148177,24
1530213149638,24
1530213151037,24
1530213152575,24
1530213154020,24
1530213155400,24
1530213156783,24
1530213158165,24
1530213159527,24
1530213160974,24
1530213162272,24
1530213163642,24
1530213165025,24
1530213166415,24
1530213167766,24
1530213169052,24
1530213170336,24
1530213171593,24
1530213172822,24
1530213174140,24
1530213175602,24
1530213176923,24
1530213178276,24
1530213179587,24
1530213180973,24
1530213182299,24
1530213183638,24
1530213184914,24
1530213186175,24
1530213187458,24
1530213188742,24
1530213190045,24
1530213191355,24
1530213192614,24
1530213193921,24
1530213195220,24
1530213196727,24
1530213198047,24
1530213199315,24
1530213200563,24
1530213201886,24
1530213203843,24
1530213205152,24
1530213206436,24
1530213207763,24
1530213209046,24
1530213210349,24
1530213211647,24
1530213212922,24
1530213214280,24
1530213215638,24
1530213216936,24
1530213218187,24
1530213219500,24
1530213220772,24
1530213222096,24
1530213223414,24
1530213224712,24
1530213226146,24
1530213227471,24
1530213229084,24
1530213230731,24
1530213232119,24
1530213233486,24
1530213234933,24
1530213236264,24
1530213237791,24
1530213239198,24
1530213240548,24
1530213241965,24
1530213243391,24
1530213244663,24
1530213246297,24
1530213247734,24
1530213249021,24
1530213250381,24
1530213251729,24
1530213253037,20
1530213254672,18
1530213255756,18
1530213256821,18
1530213258006,18
1530213259313,18
1530213260338,18
1530213261481,18
1530213262534,18
1530213264085,18
1530213265159,18
1530213266174,18
1530213267502,18
1530213268704,18
1530213269864,18
1530213270926,18
1530213272146,18
1530213273234,22
1530213275047,24
1530213276716,24
1530213278290,24
1530213279730,24
1530213281451,24
1530213282662,24
1530213283988,24
1530213286126,24
1530213288346,24
1530213289524,24
1530213290871,24
1530213292150,24
1530213293410,24
1530213294689,24
1530213295938,24
1530213297219,24
1530213298535,24
1530213299844,24
1530213301132,24
1530213302372,24
1530213303672,24
1530213304943,24
1530213306205,24
1530213307501,24
1530213308734,24
1530213309958,24
1530213311217,24
1530213312481,24
1530213313767,24
1530213315060,24
1530213316358,24
1530213317929,24
1530213319682,24
1530213321564,24
1530213322921,24
1530213324322,24
1530213325682,24
1530213327238,24
1530213328586,24
1530213329969,24
1530213331457,24
1530213332790,24
1530213334065,24
1530213335349,24
1530213336660,24
1530213338093,24
1530213339411,24
1530213340709,24
1530213341999,24
1530213343241,24
1530213344581,24
1530213345948,24
1530213347312,24
1530213348599,24
1530213350576,24
1530213351893,24
1530213353247,24
1530213354549,24
1530213355944,24
1530213357265,24
1530213358544,24
1530213359985,24
1530213361405,24
1530213362685,24
1530213363992,24
1530213365338,24
1530213366669,24
1530213368169,24
1530213369624,24
1530213370953,24
1530213372232,24
1530213373527,24
1530213374896,24
1530213376144,24
1530213377513,24
1530213378997,24
1530213380416,24
1530213381722,24
1530213382980,24
1530213384293,24
1530213385715,24
1530213387086,24
1530213388426,24
1530213389752,24
1530213391121,24
1530213392500,24
1530213393874,24
1530213395331,24
1530213396664,24
1530213398032,24
1530213399490,24
1530213400754,24
1530213402134,24
1530213403563,24
1530213404897,24
1530213406248,24
1530213407647,24
1530213409052,24
1530213410584,24
1530213411981,24
1530213413306,24
1530213414635,24
1530213415957,24
1530213417200,24
1530213418558,24
1530213419897,24
1530213421229,24
1530213422598,24
1530213423834,24
1530213425093,24
1530213426425,24
1530213427714,24
1530213428957,24
1530213430296,24
1530213431622,24
1530213432965,24
1530213434250,24
1530213435576,24
1530213436821,24
1530213438238,24
1530213439607,24
1530213440891,24
1530213442158,24
1530213443429,24
1530213444707,24
1530213446017,24
1530213447333,24
1530213448666,24
1530213449996,24
1530213451274,24
1530213452566,24
1530213453824,24
1530213455147,24
1530213456492,24
1530213457854,24
1530213459174,24
1530213460544,24
1530213461855,24
1530213463130,24
1530213464402,24
1530213465680,24
1530213466984,24
1530213468400,24
1530213469742,24
1530213471078,24
1530213472343,24
1530213473585,24
1530213474868,24
1530213476204,24
1530213477446,24
1530213478867,24
1530213480425,24
1530213481820,24
1530213483243,24
1530213484591,24
1530213485982,24
1530213487601,24
1530213488936,24
1530213490233,24
1530213491580,24
1530213492875,24
1530213494399,24
1530213495804,24
1530213497192,24
1530213498737,24
1530213500263,24
1530213501583,24
1530213503220,24
1530213504690,24
1530213505997,24
1530213507526,24
1530213508903,24
1530213510302,20
1530213511915,18
1530213512993,18
1530213514073,18
1530213515267,18
1530213516426,18
1530213517566,18
1530213518588,18
1530213519680,18
1530213520741,18
1530213521770,18
1530213522802,18
1530213523906,18
1530213525076,18
1530213526309,18
1530213527378,18
1530213528591,18
1530213529751,18
1530213530879,24
1530213532757,24
1530213534425,24
1530213535925,24
1530213537378,24
1530213539179,24
1530213540448,24
1530213541807,24
1530213543513,24
1530213545947,24
1530213547199,24
1530213549876,24
1530213551126,24
1530213552457,24
1530213553751,24
1530213554979,24
1530213556325,24
1530213557668,24
1530213559002,24
1530213560348,24
1530213561646,24
1530213562986,24
1530213564302,24
1530213565528,24
1530213566782,24
1530213568003,24
1530213569252,24
1530213570608,24
1530213571941,24
1530213573276,24
1530213574580,24
1530213575946,24
1530213577691,24
1530213579392,24
1530213581151,24
1530213582916,24
1530213584540,24
1530213585912,24
1530213587279,24
1530213588588,24
1530213590697,24
1530213592199,24
1530213593538,24
1530213594862,24
1530213596132,24
1530213597448,24
1530213598771,24
1530213600195,24
1530213601565,24
1530213602844,24
1530213604105,24
1530213605471,24
1530213606866,24
1530213608203,24
1530213609527,24
1530213610802,24
1530213612101,24
1530213613418,24
1530213614802,24
1530213616110,24
1530213617478,24
1530213618837,24
1530213620150,24
1530213621468,24
1530213622937,24
1530213624294,24
1530213625550,24
1530213626838,24
1530213628121,24
1530213629465,24
1530213630739,24
1530213632013,24
1530213633343,24
1530213634670,24
1530213636035,24
1530213637372,24
1530213640015,24
1530213641271,24
1530213642517,24
1530213643928,24
1530213645271,24
1530213646659,24
1530213648072,24
1530213649591,24
1530213650849,24
1530213652217,24
1530213653683,24
1530213654961,24
1530213656860,24
1530213658448,24
1530213659673,24
1530213660975,24
1530213662384,24
1530213663835,24
1530213665172,24
1530213666473,24
1530213667810,24
1530213669117,24
1530213670405,24
1530213671709,24
1530213673036,24
1530213674326,24
1530213675593,24
1530213676829,24
1530213678205,24
1530213679644,24
1530213680977,24
1530213682339,24
1530213683696,24
1530213684971,24
1530213686287,24
1530213687601,24
1530213688914,24
1530213690230,24
1530213691530,24
1530213692987,24
1530213694413,24
1530213695776,24
1530213697078,24
1530213698405,24
1530213699732,24
1530213701063,24
1530213702337,24
1530213703761,24
1530213705155,24
1530213706532,24
1530213707979,24
1530213709262,24
1530213711042,24
1530213712608,24
1530213714039,24
1530213715469,24
1530213716840,24
1530213718206,24
1530213719907,24
1530213721364,24
1530213722710,24
1530213724156,24
1530213725580,24
1530213726998,24
1530213728749,24
1530213730074,24
1530213731463,24
1530213732951,24
1530213734267,22
1530213735957,18
1530213737048,18
1530213738154,18
1530213739333,18
1530213740460,18
1530213741589,18
1530213742802,18
1530213743946,18
1530213744980,18
1530213745998,18
1530213747006,18
1530213748103,18
1530213749258,18
1530213750368,18
1530213751491,18
1530213752623,18
1530213753744,20
1530213754973,24
1530213756801,24
1530213759999,24
1530213761724,24
1530213763206,24
1530213764592,24
1530213767066,24
1530213769058,24
1530213770377,24
1530213771607,24
1530213772933,24
1530213774359,24
1530213775625,24
1530213776880,24
1530213778120,24
1530213779401,24
1530213780725,24
1530213782103,24
1530213783455,24
1530213784718,24
1530213786051,24
1530213787343,24
1530213788680,24
1530213790016,24
1530213791290,24
1530213792577,24
1530213793807,24
1530213795070,24
1530213796372,24
1530213797668,24
1530213798952,24
1530213800579,24
1530213801984,24
1530213803443,24
1530213805043,24
1530213806376,24
1530213807668,24
1530213809033,24
1530213810343,24
1530213811663,24
1530213813002,24
1530213814358,24
1530213815715,24
1530213817059,24
1530213818514,24
1530213820129,24
1530213821471,24
1530213822810,24
1530213824180,24
1530213825607,24
1530213826984,24
1530213828357,24
1530213829704,24
1530213831168,24
1530213832474,24
1530213833793,24
1530213835240,24
1530213836501,24
1530213837885,24
1530213839378,24
1530213840722,24
1530213842076,24
1530213843326,24
1530213844597,24
1530213846014,24
1530213847437,24
1530213848806,24
1530213850095,24
1530213851393,24
1530213852812,24
1530213854253,24
1530213855566,24
1530213856869,24
1530213858167,24
1530213859544,24
1530213860954,24
1530213862387,24
1530213863807,24
1530213865218,24
1530213866615,24
1530213867967,24
1530213869317,24
1530213870603,24
1530213871892,24
1530213873323,24
1530213874753,24
1530213876076,24
1530213877347,24
1530213878643,24
1530213879956,24
1530213881341,24
1530213882714,24
1530213884167,24
1530213885520,24
1530213886949,24
1530213888279,24
1530213889639,24
1530213891017,24
1530213892475,24
1530213893862,24
1530213895337,24
1530213896708,24
1530213898040,24
1530213899351,24
1530213900731,24
1530213902044,24
1530213903333,24
1530213904729,24
1530213906057,24
1530213907318,24
1530213908626,24
1530213910022,24
1530213911378,24
1530213912680,24
1530213913972,24
1530213915377,24
1530213916814,24
1530213918148,24
1530213919436,24
1530213920786,24
1530213922075,24
1530213923459,24
1530213924908,24
1530213926310,24
1530213927551,24
1530213928847,24
1530213930192,24
1530213931494,24
1530213932796,24
1530213934111,24
1530213935435,24
1530213936722,24
1530213938109,24
1530213939478,24
1530213940820,24
1530213942110,24
1530213943393,24
1530213944719,24
1530213946028,24
1530213947380,24
1530213948670,24
1530213949916,24
1530213951176,24
1530213952443,24
1530213953801,24
1530213955217,24
1530213956615,24
1530213957914,24
1530213959206,24
1530213960598,24
1530213961929,24
1530213963229,24
1530213964582,24
1530213965901,24
1530213967197,24
1530213968468,24
1530213969780,24
1530213971094,24
1530213972412,24
1530213973705,24
1530213975055,24
1530213976333,24
1530213977636,24
1530213978972,24
1530213980304,24
1530213981623,24
1530213982960,24
1530213984316,24
1530213985648,24
1530213987049,24
1530213988397,24
1530213989625,24
1530213990942,24
1530213992177,24
1530213993498,24
1530213994781,24
1530213996124,24
1530213997424,24
1530213998751,24
1530214000087,24
1530214001387,24
1530214002734,24
1530214004254,24
1530214005589,24
1530214007083,24
1530214008521,24
1530214009831,24
1530214011522,24
1530214012865,24
1530214014322,24
1530214015810,24
1530214017211,24
1530214018779,24
1530214020254,24
1530214021548,24
1530214023044,24
1530214024474,24
1530214025823,24
1530214027525,24
1530214028993,24
1530214030303,24
1530214031766,24
1530214033168,24
1530214034811,18
1530214036712,18
1530214037748,18
1530214038899,18
1530214040056,18
1530214041100,18
1530214042197,18
1530214043201,18
1530214044298,18
1530214045386,18
1530214046486,18
1530214047660,18
1530214048783,18
1530214049891,18
1530214050947,18
1530214052084,18
1530214053174,20
1530214054433,24
1530214056204,24
1530214057827,24
1530214059395,24
1530214061106,24
1530214062837,24
1530214064092,24
1530214066570,24
1530214069035,24
1530214070334,24
1530214071551,24
1530214072776,24
1530214074083,24
1530214075369,24
1530214076751,24
1530214078161,24
1530214079408,24
1530214080741,24
1530214082056,24
1530214083371,24
1530214084702,24
1530214086024,24
1530214087309,24
1530214088548,24
1530214089872,24
1530214091170,24
1530214092416,24
1530214093736,24
1530214094977,24
1530214096270,24
1530214097646,24
1530214099019,24
1530214100551,24
1530214102072,24
1530214104608,24
1530214106090,24
1530214107424,24
1530214109296,24
1530214110711,24
1530214113247,24
1530214114762,24
1530214116089,24
1530214117354,24
1530214118602,24
1530214119908,24
1530214121300,24
1530214122727,24
1530214124044,24
1530214125309,24
1530214126631,24
1530214127984,24
1530214129310,24
1530214130697,24
1530214132063,24
1530214133371,24
1530214134723,24
1530214136021,24
1530214137257,24
1530214138579,24
1530214140013,24
1530214141533,24
1530214142815,24
1530214144165,24
1530214145429,24
1530214146819,24
1530214150302,24
1530214151626,24
1530214153048,24
1530214154396,24
1530214155728,24
1530214157117,24
1530214158502,24
1530214159831,24
1530214161172,24
1530214162480,24
1530214163754,24
1530214165036,24
1530214166334,24
1530214167721,24
1530214169235,24
1530214170661,24
1530214171989,24
1530214173353,24
1530214174704,24
1530214176153,24
1530214177590,24
1530214178944,24
1530214180246,24
1530214181625,24
1530214182915,24
1530214184214,24
1530214185602,24
1530214187010,24
1530214188287,24
1530214189610,24
1530214190920,24
1530214192209,24
1530214193540,24
1530214194829,24
1530214196233,24
1530214197580,24
1530214198971,24
1530214200262,24
1530214201555,24
1530214202968,24
1530214204310,24
1530214205570,24
1530214206991,24
1530214208271,24
1530214209563,24
1530214210820,24
1530214212142,24
1530214213496,24
1530214214830,24
1530214216164,24
1530214217400,24
1530214218704,24
1530214220077,24
1530214221365,24
1530214222681,24
1530214224020,24
1530214225355,24
1530214226763,24
1530214228208,24
1530214229563,24
1530214230891,24
1530214232150,24
1530214233427,24
1530214234707,24
1530214235989,24
1530214237370,24
1530214238694,24
1530214240050,24
1530214241338,24
1530214242575,24
1530214243839,24
1530214245124,24
1530214246452,24
1530214247823,24
1530214249157,24
1530214250431,24
1530214251735,24
1530214253064,24
1530214254348,24
1530214255653,24
1530214257222,24
1530214258727,24
1530214260121,24
1530214261429,24
1530214263333,24
1530214264798,24
1530214266190,24
1530214267589,24
1530214269092,24
1530214270397,24
1530214271946,24
1530214273394,24
1530214274697,24
1530214276200,24
1530214277596,24
1530214278916,24
1530214280683,24
1530214282067,24
1530214283426,24
1530214284959,24
1530214286325,24
1530214288098,24
1530214289598,24
1530214290991,24
1530214292375,24
1530214293809,24
1530214295109,22
1530214296953,18
1530214298033,18
1530214299110,18
1530214300279,18
1530214301421,18
1530214302548,18
1530214303631,18
1530214304666,18
1530214305700,18
1530214306756,18
1530214307785,18
1530214308872,18
1530214310067,18
1530214311234,18
1530214312317,18
1530214313402,18
1530214314546,20
1530214315861,24
1530214317813,24
1530214319430,24
1530214321065,24
1530214322723,24
1530214324102,24
1530214325374,24
1530214327975,24
1530214329995,24
1530214331465,24
1530214332700,24
1530214333919,24
1530214335231,24
1530214336578,24
1530214337918,24
1530214339190,24
1530214340474,24
1530214342736,24
1530214344090,24
1530214345409,24
1530214346731,24
1530214348167,24
1530214349589,24
1530214350937,24
1530214352179,24
1530214353486,24
1530214354860,24
1530214356339,24
1530214357645,24
1530214359003,24
1530214360342,24
1530214361831,24
1530214363285,24
1530214364931,24
1530214366509,24
1530214368359,24
1530214369670,24
1530214371055,24
1530214372453,24
1530214373836,24
1530214375134,24
1530214376405,24
1530214377727,24
1530214379074,24
1530214380566,24
1530214381970,24
1530214383281,24
1530214384632,24
1530214385885,24
1530214387162,24
1530214388490,24
1530214389924,24
1530214391220,24
1530214392592,24
1530214393896,24
1530214395230,24
1530214396665,24
1530214398028,24
1530214399375,24
1530214400683,24
1530214402011,24
1530214403429,24
1530214404850,24
1530214406193,24
1530214407463,24
1530214408773,24
1530214410157,24
1530214411680,24
1530214413052,24
1530214414470,24
1530214415834,24
1530214417179,24
1530214418682,24
1530214420025,24
1530214421323,24
1530214422700,24
1530214424006,24
1530214425415,24
1530214426839,24
1530214428125,24
1530214429481,24
1530214430799,24
1530214432170,24
1530214433513,24
1530214434878,24
1530214436219,24
1530214437498,24
1530214438931,24
1530214440322,24
1530214441736,24
1530214443129,24
1530214444447,24
1530214445745,24
1530214446983,24
1530214448466,24
1530214449937,24
1530214451206,24
1530214452475,24
1530214453830,24
1530214455197,24
1530214456676,24
1530214458057,24
1530214459351,24
1530214460644,24
1530214461952,24
1530214463243,24
1530214464574,24
1530214465872,24
1530214467190,24
1530214468581,24
1530214469911,24
1530214471256,24
1530214472742,24
1530214474081,24
1530214475417,24
1530214476773,24
1530214478078,24
1530214479474,24
1530214480799,24
1530214482137,24
1530214483471,24
1530214484763,24
1530214486023,24
1530214487375,24
1530214488638,24
1530214489950,24
1530214491300,24
1530214492618,24
1530214493927,24
1530214495221,24
1530214496496,24
1530214497808,24
1530214499144,24
1530214500386,24
1530214501686,24
1530214503204,24
1530214504549,24
1530214505846,24
1530214507211,24
1530214508506,24
1530214509799,24
1530214511081,24
1530214512360,24
1530214513687,24
1530214515081,24
1530214516358,24
1530214517799,24
1530214519171,24
1530214520644,24
1530214522440,24
1530214523931,24
1530214525406,24
1530214526795,24
1530214528103,23
1530214529677,24
1530214531133,24
1530214532468,24
1530214533883,24
1530214535373,24
1530214536888,24
1530214538779,24
1530214540243,24
1530214541595,24
1530214543029,24
1530214544396,24
1530214545753,20
1530214547370,18
1530214548477,18
1530214549679,18
1530214550775,18
1530214551919,18
1530214552982,18
1530214554608,18
1530214555654,18
1530214556706,18
1530214557748,18
1530214558863,18
1530214560055,18
1530214561436,18
1530214562575,18
1530214563835,18
1530214565137,18
1530214566221,22
1530214567835,24
1530214569591,24
1530214571139,24
1530214572782,24
1530214574254,24
1530214575563,24
1530214576956,24
1530214578833,24
1530214580449,24
1530214582215,24
1530214583445,24
1530214584820,24
1530214586152,24
1530214587449,24
1530214588763,24
1530214590036,24
1530214591467,24
1530214592795,24
1530214594278,24
1530214595621,24
1530214596841,24
1530214598076,24
1530214599316,24
1530214600585,24
1530214601863,24
1530214603136,24
1530214604402,24
1530214605785,24
1530214607089,24
1530214608420,24
1530214609865,24
1530214611340,24
1530214612758,24
1530214614275,24
1530214616328,24
1530214617973,24
1530214619415,24
1530214621054,24
1530214622550,24
1530214623894,24
1530214625350,24
1530214626795,24
1530214628264,24
1530214629555,24
1530214630880,24
1530214632320,24
1530214633632,24
1530214635026,24
1530214636558,24
1530214638003,24
1530214639276,24
1530214640597,24
1530214642001,24
1530214643461,24
1530214644775,24
1530214646175,24
1530214647447,24
1530214648788,24
1530214650142,24
1530214651512,24
1530214653488,24
1530214654826,24
1530214656436,24
1530214657765,24
1530214659167,24
1530214660614,24
1530214661967,24
1530214663277,24
1530214664675,24
1530214666142,24
1530214667544,24
1530214669101,24
1530214670583,24
1530214671961,24
1530214674706,24
1530214676153,24
1530214677538,24
1530214678903,24
1530214680195,24
1530214681520,24
1530214683048,24
1530214684455,24
1530214685928,24
1530214687357,24
1530214688689,24
1530214690003,24
1530214691465,24
1530214692858,24
1530214694256,24
1530214708037,24
1530214709307,24
1530214710581,24
1530214711922,24
1530214713486,24
1530214714741,24
1530214716142,24
1530214717500,24
1530214718826,24
1530214720188,24
1530214721503,24
1530214722787,24
1530214724048,24
1530214725330,24
1530214726605,24
1530214727968,24
1530214729252,24
1530214730551,24
1530214731905,24
1530214733223,24
1530214734499,24
1530214735748,24
1530214737045,24
1530214738318,24
1530214739624,24
1530214740998,24
1530214742337,24
1530214743696,24
1530214744955,24
1530214746293,24
1530214747706,24
1530214749037,24
1530214750337,24
1530214751603,24
1530214752901,24
1530214754189,24
1530214755552,24
1530214756860,24
1530214758392,24
1530214759696,24
1530214761076,24
1530214762731,24
1530214764132,24
1530214765436,24
1530214766830,24
1530214768176,24
1530214769535,24
1530214771358,24
1530214772678,24
1530214774125,24
1530214775545,24
1530214776849,24
1530214778636,24
1530214780095,24
1530214781418,24
1530214782762,24
1530214784262,24
1530214785583,22
1530214787274,18
1530214788306,18
1530214789405,18
1530214790576,18
1530214791724,18
1530214792813,18
1530214793900,18
1530214794907,18
1530214795895,18
1530214796948,18
1530214797946,18
1530214799036,18
1530214800158,18
1530214801254,18
1530214802440,18
1530214803488,18
1530214804620,18
1530214805742,24
1530214807624,24
1530214809313,24
1530214810865,24
1530214812289,24
1530214813752,24
1530214815120,24
1530214816410,24
1530214818432,24
1530214819911,24
1530214821775,24
1530214823031,24
1530214824337,24
1530214825609,24
1530214826875,24
1530214828192,24
1530214829477,24
1530214830764,24
1530214832012,24
1530214833284,24
1530214834684,24
1530214835963,24
1530214837237,24
1530214838598,24
1530214839794,24
1530214841058,24
1530214842371,24
1530214843592,24
1530214844867,24
1530214846234,24
1530214847570,24
1530214849007,24
1530214850583,24
1530214851912,24
1530214853213,24
1530214854507,24
1530214855895,24
1530214858380,24
1530214859819,24
1530214861198,24
1530214862675,24
1530214863988,24
1530214865430,24
1530214866736,24
1530214868070,24
1530214869395,24
1530214870712,24
1530214872080,24
1530214873442,24
1530214874793,24
1530214876082,24
1530214877383,24
1530214878668,24
1530214880073,24
1530214881440,24
1530214882795,24
1530214884046,24
1530214885335,24
1530214886597,24
1530214887846,24
1530214889177,24
1530214890655,24
1530214892087,24
1530214893323,24
1530214894601,24
1530214895820,24
1530214897239,24
1530214898608,24
1530214899952,24
1530214901331,24
1530214902624,24
1530214904036,24
1530214905342,24
1530214906639,24
1530214907975,24
1530214909256,24
1530214910517,24
1530214911797,24
1530214913307,24
1530214914728,24
1530214916122,24
1530214917389,24
1530214918697,24
1530214919957,24
1530214921268,24
1530214922643,24
1530214924061,24
1530214925340,24
1530214926603,24
1530214928041,24
1530214929339,24
1530214930597,24
1530214931969,24
1530214933393,24
1530214934760,24
1530214936117,24
1530214937409,24
1530214938713,24
1530214940065,24
1530214941447,24
1530214942790,24
1530214944140,24
1530214945430,24
1530214946716,24
1530214948043,24
1530214949390,24
1530214950668,24
1530214951990,24
1530214953333,24
1530214954731,24
1530214956041,24
1530214957468,24
1530214958824,24
1530214960165,24
1530214961413,24
1530214962740,24
1530214964079,24
1530214965437,24
1530214966721,24
1530214968017,24
1530214969265,24
1530214970595,24
1530214971877,24
1530214973161,24
1530214974467,24
1530214975826,24
1530214977225,24
1530214978490,24
1530214979782,24
1530214981108,24
1530214982460,24
1530214983729,24
1530214985066,24
1530214986381,24
1530214987807,24
1530214989153,24
1530214990582,24
1530214991969,24
1530214993287,24
1530214994775,24
1530214996122,24
1530214997466,24
1530214999061,24
1530215000397,24
1530215001655,24
1530215003073,24
1530215004443,24
1530215005743,24
1530215007442,24
1530215008754,24
1530215010157,24
1530215011615,24
1530215012912,24
1530215014543,24
1530215015983,24
1530215017217,24
1530215018732,24
1530215020155,24
1530215021468,22
1530215023091,18
1530215024187,18
1530215025268,18
1530215026378,18
1530215027475,18
1530215028540,18
1530215029633,18
1530215030742,18
1530215031769,18
1530215032804,18
1530215033817,18
1530215034840,18
1530215036019,18
1530215037159,18
1530215038247,18
1530215039319,18
1530215040466,18
1530215041552,24
1530215043324,24
1530215045030,24
1530215046551,24
1530215048047,24
1530215049503,24
1530215050838,24
1530215052401,24
1530215054443,24
1530215056443,24
1530215057706,24
1530215058971,24
1530215060207,24
1530215061441,24
1530215062690,24
1530215064043,24
1530215065325,24
1530215066631,24
1530215067870,24
1530215069153,24
1530215070370,24
1530215071585,24
1530215074036,24
1530215075316,24
1530215076547,24
1530215077757,24
1530215079127,24
1530215080410,24
1530215081700,24
1530215082974,24
1530215084268,24
1530215085583,24
1530215087160,24
1530215088557,24
1530215089936,24
1530215091268,24
1530215092602,24
1530215094137,24
1530215095660,24
1530215096932,24
1530215098314,24
1530215099790,24
1530215101110,24
1530215104120,24
1530215105522,24
1530215106849,24
1530215108113,24
1530215109563,24
1530215110954,24
1530215112293,24
1530215113818,24
1530215115136,24
1530215116482,24
1530215117800,24
1530215119094,24
1530215120572,24
1530215122116,24
1530215123544,24
1530215124848,24
1530215126112,24
1530215127442,24
1530215128843,24
1530215130258,24
1530215131543,24
1530215132862,24
1530215134139,24
1530215135408,24
1530215136666,24
1530215138531,24
1530215139838,24
1530215141201,24
1530215142507,24
1530215144018,24
1530215145495,24
1530215146861,24
1530215148184,24
1530215149494,24
1530215150766,24
1530215152110,24
1530215153470,24
1530215154821,24
1530215156092,24
1530215157455,24
1530215158770,24
1530215160112,24
1530215161506,24
1530215164019,24
1530215165340,24
1530215166642,24
1530215167956,24
1530215169343,24
1530215170658,24
1530215172018,24
1530215173435,24
1530215174861,24
1530215176187,24
1530215177563,24
1530215178819,24
1530215180122,24
1530215181383,24
1530215182776,24
1530215184085,24
1530215185540,24
1530215186987,24
1530215188307,24
1530215189597,24
1530215191012,24
1530215192439,24
1530215193781,24
1530215195087,24
1530215196386,24
1530215197725,24
1530215199025,24
1530215200392,24
1530215201779,24
1530215203028,24
1530215204311,24
1530215205703,24
1530215207018,24
1530215208276,24
1530215209563,24
1530215210808,24
1530215212082,24
1530215213362,24
1530215214610,24
1530215215892,24
1530215217221,24
1530215218543,24
1530215219841,24
1530215221094,24
1530215222448,24
1530215223750,24
1530215225066,24
1530215226354,24
1530215227642,24
1530215228985,24
1530215230271,24
1530215231625,24
1530215232986,24
1530215234304,24
1530215235774,24
1530215237201,24
1530215238519,24
1530215239802,24
1530215241089,24
1530215242392,24
1530215243696,24
1530215245002,24
1530215246251,24
1530215247614,24
1530215248935,24
1530215250256,24
1530215251531,24
1530215252840,24
1530215254129,24
1530215255370,24
1530215256694,24
1530215258012,24
1530215259341,24
1530215260665,24
1530215262027,24
1530215263361,24
1530215264702,24
1530215266128,24
1530215267409,24
1530215268699,24
1530215270053,24
1530215271409,24
1530215272671,24
1530215273945,24
1530215275242,24
1530215276541,24
1530215277833,24
1530215279177,24
1530215280449,24
1530215281698,24
1530215283030,24
1530215284469,24
1530215285776,24
1530215287199,24
1530215288551,24
1530215289850,24
1530215291432,24
1530215292788,24
1530215294061,24
1530215295507,24
1530215297024,24
1530215298385,24
1530215300113,24
1530215301443,24
1530215302816,24
1530215304193,24
1530215305531,24
1530215307132,24
1530215308591,24
1530215309845,24
1530215311241,24
1530215312673,24
1530215313949,20
1530215315551,18
1530215316546,18
1530215317632,18
1530215318814,18
1530215319924,18
1530215320963,18
1530215322158,18
1530215323131,18
1530215324197,18
1530215325187,18
1530215326209,18
1530215327342,18
1530215328455,18
1530215329581,18
1530215330703,18
1530215331993,18
1530215333123,18
1530215334142,24
1530215335936,24
1530215337639,24
1530215339457,24
1530215340902,24
1530215342304,24
1530215343551,24
1530215344903,24
1530215347117,24
1530215349262,24
1530215350604,24
1530215351944,24
1530215353242,24
1530215354612,24
1530215355881,24
1530215357212,24
1530215358526,24
1530215359820,24
1530215361112,24
1530215362384,24
1530215363644,24
1530215364904,24
1530215366108,24
1530215367357,24
1530215368652,24
1530215369856,24
1530215371121,24
1530215372408,24
1530215373686,24
1530215375042,24
1530215376305,24
1530215377634,24
1530215378951,24
1530215380244,24
1530215381636,24
1530215383011,24
1530215384347,24
1530215385735,24
1530215387338,24
1530215388716,24
1530215390072,24
1530215391652,24
1530215393076,24
1530215394530,24
1530215395800,24
1530215397102,24
1530215398371,24
1530215399693,24
1530215401012,24
1530215402329,24
1530215403710,24
1530215405082,24
1530215406335,24
1530215407595,24
1530215408861,24
1530215410108,24
1530215411441,24
1530215412736,24
1530215414032,24
1530215415492,24
1530215416943,24
1530215418367,24
1530215419625,24
1530215420977,24
1530215422345,24
1530215423752,24
1530215425123,24
1530215426464,24
1530215427739,24
1530215429159,24
1530215430447,24
1530215431694,24
1530215433016,24
1530215434355,24
1530215435754,24
1530215437137,24
1530215438388,24
1530215439635,24
1530215440875,24
1530215442161,24
1530215443511,24
1530215444901,24
1530215446390,24
1530215447804,24
1530215449151,24
1530215450442,24
1530215451753,24
1530215453149,24
1530215454558,24
1530215455902,24
1530215457178,24
1530215458720,24
1530215460096,24
1530215461547,24
1530215462909,24
1530215464264,24
1530215465566,24
1530215466915,24
1530215468321,24
1530215469664,24
1530215470922,24
1530215472263,24
1530215473613,24
1530215474968,24
1530215476388,24
1530215477736,24
1530215479090,24
1530215480346,24
1530215481594,24
1530215482967,24
1530215484323,24
1530215485643,24
1530215486900,24
1530215488159,24
1530215489486,24
1530215490780,24
1530215492124,24
1530215493455,24
1530215494818,24
1530215496084,24
1530215497372,24
1530215498703,24
1530215499980,24
1530215501262,24
1530215502632,24
1530215504007,24
1530215505292,24
1530215506636,24
1530215507970,24
1530215509399,24
1530215510752,24
1530215512003,24
1530215513300,24
1530215514530,24
1530215515820,24
1530215517126,24
1530215518420,24
1530215519750,24
1530215521018,24
1530215522235,24
1530215523517,24
1530215524812,24
1530215526085,24
1530215527436,24
1530215528691,24
1530215529992,24
1530215531293,24
1530215532690,24
1530215534147,24
1530215535539,24
1530215536957,24
1530215538262,24
1530215539651,24
1530215540893,24
1530215542170,24
1530215543469,24
1530215544852,24
1530215546246,24
1530215547545,24
1530215548840,24
1530215550104,24
1530215551546,24
1530215552862,24
1530215554146,24
1530215555499,24
1530215556777,24
1530215558231,24
1530215559538,24
1530215560799,24
1530215562210,24
1530215563584,24
1530215564916,24
1530215566258,24
1530215567674,24
1530215569066,24
1530215570342,24
1530215571711,24
1530215572993,24
1530215574274,24
1530215575599,24
1530215576901,24
1530215578455,24
1530215579759,24
1530215581138,24
1530215582554,24
1530215583844,24
1530215585442,24
1530215586815,24
1530215588107,24
1530215589599,24
1530215591050,24
1530215592387,24
1530215594035,24
1530215595497,24
1530215596819,24
1530215598261,24
1530215599735,24
1530215601364,24
1530215602833,24
1530215604246,24
1530215605663,24
1530215607116,24
1530215608524,20
1530215610227,18
1530215611251,18
1530215612321,18
1530215613433,18
1530215614612,18
1530215615710,18
1530215616879,18
1530215617884,18
1530215618910,18
1530215619920,18
1530215621013,18
1530215622079,18
1530215623206,18
1530215624542,18
1530215625703,18
1530215626746,18
1530215627875,18
1530215628948,22
1530215630583,24
1530215632405,24
1530215634084,24
1530215635676,24
1530215637346,24
1530215638587,24
1530215639945,24
1530215642057,24
1530215644307,24
1530215645588,24
1530215646816,24
1530215648115,24
1530215649371,24
1530215650681,24
1530215652027,24
1530215653253,24
1530215654639,24
1530215655919,24
1530215657207,24
1530215658645,24
1530215659982,24
1530215661396,24
1530215662669,24
1530215663891,24
1530215665191,24
1530215666417,24
1530215667763,24
1530215669215,24
1530215670745,24
1530215672030,24
1530215673406,24
1530215675090,24
1530215676463,24
1530215677947,24
1530215679561,24
1530215680946,24
1530215682732,24
1530215684218,24
1530215685668,24
1530215686950,24
1530215688306,24
1530215689778,24
1530215691147,24
1530215692441,24
1530215693706,24
1530215694973,24
1530215696267,24
1530215697651,24
1530215699045,24
1530215700296,24
1530215701617,24
1530215702889,24
1530215704196,24
1530215705541,24
1530215706850,24
1530215708233,24
1530215709528,24
1530215710838,24
1530215712105,24
1530215713376,24
1530215714776,24
1530215716227,24
1530215717533,24
1530215718874,24
1530215720213,24
1530215721548,24
1530215722990,24
1530215724429,24
1530215725705,24
1530215726951,24
1530215728281,24
1530215729585,24
1530215730985,24
1530215732467,24
1530215733763,24
1530215735049,24
1530215736371,24
1530215737752,24
1530215739146,24
1530215740510,24
1530215741758,24
1530215743042,24
1530215744468,24
1530215746035,24
1530215747352,24
1530215748642,24
1530215749901,24
1530215751235,24
1530215752604,24
1530215753957,24
1530215755469,24
1530215756757,24
1530215758087,24
1530215759524,24
1530215760841,24
1530215762274,24
1530215763710,24
1530215765069,24
1530215766331,24
1530215767684,24
1530215768991,24
1530215770315,24
1530215771621,24
1530215772936,24
1530215774268,24
1530215775549,24
1530215776867,24
1530215778179,24
1530215779504,24
1530215780916,24
1530215782235,24
1530215783488,24
1530215784736,24
1530215786001,24
1530215787262,24
1530215788500,24
1530215789820,24
1530215791178,24
1530215792448,24
1530215793744,24
1530215795016,24
1530215796319,24
1530215797622,24
1530215798999,24
1530215800304,24
1530215801596,24
1530215802903,24
1530215804260,24
1530215805521,24
1530215806889,24
1530215808220,24
1530215809531,24
1530215810982,24
1530215812276,24
1530215813632,24
1530215814924,24
1530215816263,24
1530215817573,24
1530215818879,24
1530215820242,24
1530215821552,24
1530215822845,24
1530215824105,24
1530215825473,24
1530215826755,24
1530215833064,24
1530215834341,24
1530215835645,24
1530215837268,24
1530215838598,24
1530215839932,24
1530215841503,24
1530215842796,24
1530215844257,24
1530215845691,24
1530215847069,24
1530215848647,24
1530215850048,24
1530215851335,24
1530215854048,24
1530215855414,24
1530215856749,24
1530215858486,24
1530215859880,24
1530215861227,24
1530215862575,24
1530215864027,24
1530215865701,24
1530215867174,24
1530215868561,24
1530215869982,24
1530215871415,24
1530215872700,24
1530215874403,18
1530215875522,18
1530215876612,18
1530215877737,18
1530215878879,18
1530215880047,18
1530215881125,18
1530215882122,18
1530215883157,18
1530215884209,18
1530215885253,18
1530215886368,18
1530215887567,18
1530215888639,18
1530215889757,18
1530215890854,18
1530215891952,18
1530215893057,24
1530215894892,24
1530215896667,24
1530215898428,24
1530215900062,24
1530215901561,24
1530215902822,24
1530215905017,24
1530215906539,24
1530215908740,24
1530215909992,24
1530215911256,24
1530215912566,24
1530215913909,24
1530215915198,24
1530215916423,24
1530215917674,24
1530215918983,24
1530215920272,24
1530215921538,24
1530215922842,24
1530215924162,24
1530215925443,24
1530215926693,24
1530215928119,24
1530215929348,24
1530215930647,24
1530215931894,24
1530215933145,24
1530215934631,24
1530215935967,24
1530215937495,24
1530215939239,24
1530215940630,24
1530215942044,24
1530215943662,24
1530215945115,24
1530215947098,24
1530215948435,24
1530215949756,24
1530215951207,24
1530215952608,24
1530215954026,24
1530215955371,24
1530215956691,24
1530215958022,24
1530215959297,24
1530215960621,24
1530215962186,24
1530215963502,24
1530215964795,24
1530215966065,24
1530215967297,24
1530215968617,24
1530215970078,24
1530215971597,24
1530215972963,24
1530215974311,24
1530215975579,24
1530215976917,24
1530215978286,24
1530215979651,24
1530215980964,24
1530215982276,24
1530215983560,24
1530215984940,24
1530215986342,24
1530215987798,24
1530215989155,24
1530215990525,24
1530215991835,24
1530215993216,24
1530215994655,24
1530215996091,24
1530215997436,24
1530215998726,24
1530216000068,24
1530216001473,24
1530216002917,24
1530216004353,24
1530216005617,24
1530216006927,24
1530216008233,24
1530216009516,24
1530216010873,24
1530216012323,24
1530216013744,24
1530216015080,24
1530216016453,24
1530216017807,24
1530216019266,24
1530216020693,24
1530216022061,24
1530216023323,24
1530216024766,24
1530216026211,24
1530216027491,24
1530216028834,24
1530216030184,24
1530216031506,24
1530216032810,24
1530216034172,24
1530216035490,24
1530216036824,24
1530216038149,24
1530216039463,24
1530216040799,24
1530216042149,24
1530216043462,24
1530216044818,24
1530216046115,24
1530216047362,24
1530216048653,24
1530216049938,24
1530216051286,24
1530216052793,24
1530216054116,24
1530216055499,24
1530216056843,24
1530216058680,24
1530216060079,24
1530216061468,24
1530216062833,24
1530216064142,24
1530216065486,24
1530216066803,24
1530216068088,24
1530216069370,24
1530216070646,24
1530216071923,24
1530216073189,24
1530216074498,24
1530216075783,24
1530216077219,24
1530216078508,24
1530216079810,24
1530216081146,24
1530216082690,24
1530216084007,24
1530216085339,24
1530216086741,24
1530216088033,24
1530216089696,24
1530216091138,24
1530216092501,24
1530216093948,24
1530216095347,24
1530216096672,24
1530216098380,24
1530216099758,24
1530216101049,24
1530216102468,24
1530216103812,24
1530216105218,24
1530216106974,24
1530216108367,24
1530216109816,24
1530216111323,24
1530216112626,22
1530216114416,18
1530216115573,18
1530216116614,18
1530216117811,18
1530216118991,18
1530216120093,18
1530216121160,18
1530216122214,18
1530216123247,18
1530216124240,18
1530216125238,18
1530216126215,18
1530216127407,18
1530216128567,18
1530216129689,18
1530216130671,18
1530216131824,18
1530216132852,22
1530216134495,24
1530216136320,24
1530216137867,24
1530216139310,24
1530216140833,24
1530216142278,24
1530216143576,24
1530216145508,24
1530216148035,24
1530216149435,24
1530216150724,24
1530216151996,24
1530216153309,24
1530216154668,24
1530216155980,24
1530216157328,24
1530216158973,24
1530216160305,24
1530216161738,24
1530216162935,24
1530216164191,24
1530216165411,24
1530216166723,24
1530216168038,24
1530216169334,24
1530216170650,24
1530216171913,24
1530216173170,24
1530216174509,24
1530216175887,24
1530216177405,24
1530216178916,24
1530216180316,24
1530216182409,24
1530216183801,24
1530216185241,24
1530216187028,24
1530216188359,24
1530216189662,24
1530216191091,24
1530216192455,24
1530216193802,24
1530216195174,24
1530216196491,24
1530216197881,24
1530216199204,24
1530216200591,24
1530216201887,24
1530216203205,24
1530216204623,24
1530216206158,24
1530216207500,24
1530216208836,24
1530216210146,24
1530216211513,24
1530216212883,24
1530216214231,24
1530216215503,24
1530216216819,24
1530216218130,24
1530216219539,24
1530216220933,24
1530216222325,24
1530216223618,24
1530216224902,24
1530216226308,24
1530216227730,24
1530216229067,24
1530216230327,24
1530216231673,24
1530216232925,24
1530216234371,24
1530216235729,24
1530216237126,24
1530216238408,24
1530216239702,24
1530216241002,24
1530216242344,24
1530216243633,24
1530216244985,24
1530216246320,24
1530216247634,24
1530216248930,24
1530216250226,24
1530216251571,24
1530216252890,24
1530216254283,24
1530216255697,24
1530216257023,24
1530216258440,24
1530216259778,24
1530216261188,24
1530216262544,24
1530216263888,24
1530216265182,24
1530216266581,24
1530216268108,24
1530216269402,24
1530216270791,24
1530216272144,24
1530216273430,24
1530216274731,24
1530216276101,24
1530216277451,24
1530216278761,24
1530216280070,24
1530216281373,24
1530216282757,24
1530216284207,24
1530216285535,24
1530216286795,24
1530216288101,24
1530216289426,24
1530216290737,24
1530216292051,24
1530216293333,24
1530216294698,24
1530216296107,24
1530216297492,24
1530216298799,24
1530216300052,24
1530216301452,24
1530216302796,24
1530216304137,24
1530216305501,24
1530216306790,24
1530216308025,24
1530216309285,24
1530216310621,24
1530216311983,24
1530216313280,24
1530216314562,24
1530216315874,24
1530216317125,24
1530216318384,24
1530216319726,24
1530216321036,24
1530216322447,24
1530216323839,24
1530216325226,24
1530216326593,24
1530216328023,24
1530216329509,24
1530216331133,24
1530216332497,24
1530216333879,24
1530216335285,24
1530216336578,24
1530216338287,24
1530216339749,24
1530216341054,24
1530216342478,24
1530216343974,24
1530216345265,24
1530216347157,24
1530216348531,24
1530216349875,24
1530216351264,24
1530216352689,24
1530216354266,18
1530216355605,18
1530216356606,18
1530216357775,18
1530216358931,18
1530216360155,18
1530216361284,18
1530216364044,18
1530216365085,18
1530216366124,18
1530216367191,18
1530216368337,18
1530216369382,18
1530216370461,18
1530216371484,18
1530216372598,18
1530216373690,24
1530216375497,24
1530216377222,24
1530216378830,24
1530216380321,24
1530216381598,24
1530216382959,24
1530216384232,24
1530216386319,24
1530216388661,24
1530216389983,24
1530216391278,24
1530216392553,24
1530216393793,24
1530216395188,24
1530216396528,24
1530216397823,24
1530216399144,24
1530216400416,24
1530216401755,24
1530216403072,24
1530216404370,24
1530216405650,24
1530216406910,24
1530216408187,24
1530216409497,24
1530216410740,24
1530216412028,24
1530216413366,24
1530216414644,24
1530216415998,24
1530216417331,24
1530216418888,24
1530216420365,24
1530216421993,24
1530216423587,24
1530216424899,24
1530216426455,24
1530216427841,24
1530216429224,24
1530216430562,24
1530216431855,24
1530216433190,24
1530216434479,24
1530216435866,24
1530216437357,24
1530216438666,24
1530216440050,24
1530216441412,24
1530216442797,24
1530216444185,24
1530216445494,24
1530216446857,24
1530216448267,24
1530216449581,24
1530216451115,24
1530216452571,24
1530216453843,24
1530216455170,24
1530216456452,24
1530216457841,24
1530216459230,24
1530216460624,24
1530216461965,24
1530216463263,24
1530216464546,24
1530216465909,24
1530216467275,24
1530216468612,24
1530216470087,24
1530216471352,24
1530216472653,24
1530216473968,24
1530216475304,24
1530216476641,24
1530216477958,24
1530216479506,24
1530216480930,24
1530216482342,24
1530216483630,24
1530216484949,24
1530216486382,24
1530216487835,24
1530216489134,24
1530216490414,24
1530216491697,24
1530216492991,24
1530216494350,24
1530216495690,24
1530216497048,24
1530216498325,24
1530216499710,24
1530216501095,24
1530216502423,24
1530216503825,24
1530216505159,24
1530216506442,24
1530216507789,24
1530216509140,24
1530216510529,24
1530216511836,24
1530216513183,24
1530216514442,24
1530216515784,24
1530216517134,24
1530216518495,24
1530216519827,24
1530216521110,24
1530216522360,24
1530216523586,24
1530216524905,24
1530216526226,24
1530216527509,24
1530216528802,24
1530216530125,24
1530216531420,24
1530216532696,24
1530216534077,24
1530216535376,24
1530216536827,24
1530216538194,24
1530216539490,24
1530216540780,24
1530216542071,24
1530216543516,24
1530216544768,24
1530216546096,24
1530216547329,24
1530216548973,24
1530216550275,24
1530216551555,24
1530216552846,24
1530216554140,24
1530216555462,24
1530216556793,24
1530216558147,24
1530216559474,24
1530216560803,24
1530216562143,24
1530216563433,24
1530216564803,24
1530216566086,24
1530216567383,24
1530216568687,24
1530216569978,24
1530216571448,24
1530216572738,24
1530216574054,24
1530216575347,24
1530216576673,24
1530216578022,24
1530216579376,24
1530216580633,24
1530216582078,24
1530216583361,24
1530216584772,24
1530216586191,24
1530216587498,24
1530216589104,24
1530216590553,24
1530216591854,24
1530216593245,24
1530216594612,24
1530216596007,24
1530216597691,24
1530216599081,24
1530216600558,24
1530216602119,24
1530216603570,24
1530216605213,24
1530216606646,24
1530216608756,24
1530216610178,24
1530216611455,22
1530216612986,18
1530216614018,18
1530216615126,18
1530216616279,18
1530216617439,18
1530216618616,18
1530216619691,18
1530216620756,18
1530216621829,18
1530216622901,18
1530216623921,18
1530216624956,18
1530216626197,18
1530216627358,18
1530216628482,18
1530216629639,18
1530216630789,18
1530216631919,24
1530216633573,24
1530216635287,24
1530216636867,24
1530216638395,24
1530216640267,24
1530216641509,24
1530216642840,24
1530216645520,24
1530216647595,24
1530216648856,24
1530216650119,24
1530216651411,24
1530216652615,24
1530216653857,24
1530216655139,24
1530216656484,24
1530216657849,24
1530216659180,24
1530216660411,24
1530216661664,24
1530216662921,24
1530216664305,24
1530216665544,24
1530216666811,24
1530216668097,24
1530216669316,24
1530216670566,24
1530216671884,24
1530216673190,24
1530216674510,24
1530216675952,24
1530216677606,24
1530216679148,24
1530216680542,24
1530216681975,24
1530216683911,24
1530216685541,24
1530216686918,24
1530216688379,24
1530216689717,24
1530216691101,24
1530216692482,24
1530216693798,24
1530216695219,24
1530216696545,24
1530216697891,24
1530216699236,24
1530216700573,24
1530216701925,24
1530216703352,24
1530216704786,24
1530216706106,24
1530216707415,24
1530216708724,24
1530216710038,24
1530216711410,24
1530216712794,24
1530216714152,24
1530216715471,24
1530216716851,24
1530216718185,24
1530216719573,24
1530216720939,24
1530216722406,24
1530216723777,24
1530216725104,24
1530216726408,24
1530216729040,24
1530216730471,24
1530216731814,24
1530216733067,24
1530216734396,24
1530216735643,24
1530216736936,24
1530216738208,24
1530216739597,24
1530216741021,24
1530216742358,24
1530216743663,24
1530216744913,24
1530216746174,24
1530216747564,24
1530216749058,24
1530216750430,24
1530216751689,24
1530216752950,24
1530216754237,24
1530216755610,24
1530216756971,24
1530216758351,24
1530216759724,24
1530216761032,24
1530216762328,24
1530216763620,24
1530216764971,24
1530216766240,24
1530216767549,24
1530216768832,24
1530216770168,24
1530216771458,24
1530216772696,24
1530216774079,24
1530216775394,24
1530216776694,24
1530216778042,24
1530216779296,24
1530216780622,24
1530216781950,24
1530216783350,24
1530216784674,24
1530216796672,24
1530216797944,24
1530216799265,24
1530216800538,24
1530216801788,24
1530216803017,24
1530216804333,24
1530216805589,24
1530216806872,24
1530216808287,24
1530216809588,24
1530216810861,24
1530216812174,24
1530216813507,24
1530216814882,24
1530216816267,24
1530216817610,24
1530216819018,24
1530216820370,24
1530216821894,24
1530216823400,24
1530216824748,24
1530216826098,24
1530216827500,24
1530216828785,24
1530216830393,24
1530216831815,24
1530216833202,24
1530216834602,24
1530216835989,24
1530216837307,24
1530216839046,24
1530216840468,24
1530216841758,24
1530216843126,24
1530216844484,24
1530216845876,20
1530216848180,18
1530216849262,18
1530216850470,18
1530216851701,18
1530216852745,18
1530216853855,18
1530216854872,18
1530216855887,18
1530216856947,18
1530216857985,18
1530216859029,18
1530216860268,18
1530216861479,18
1530216862616,18
1530216863779,18
1530216864931,18
1530216865987,24
1530216867700,24
1530216869257,24
1530216871073,24
1530216872626,24
1530216874253,24
1530216875515,24
1530216877161,24
1530216880201,24
1530216881579,24
1530216882836,24
1530216884145,24
1530216885400,24
1530216886720,24
1530216888080,24
1530216889513,24
1530216890813,24
1530216892062,24
1530216893335,24
1530216894576,24
1530216895849,24
1530216897135,24
1530216898441,24
1530216899703,24
1530216901116,24
1530216902342,24
1530216903643,24
1530216904908,24
1530216906192,24
1530216907571,24
1530216908912,24
1530216910236,24
1530216911714,24
1530216913106,24
1530216914428,24
1530216915789,24
1530216917017,24
1530216918308,24
1530216919695,24
1530216920973,24
1530216922292,24
1530216923799,24
1530216925234,24
1530216926527,24
1530216927844,24
1530216929182,24
1530216930509,24
1530216931861,24
1530216933219,24
1530216934625,24
1530216935897,24
1530216937275,24
1530216938557,24
1530216939887,24
1530216941271,24
1530216942505,24
1530216943754,24
1530216945133,24
1530216946613,24
1530216947999,24
1530216949343,24
1530216950683,24
1530216952017,24
1530216953387,24
1530216954826,24
1530216956257,24
1530216957573,24
1530216958912,24
1530216960466,24
1530216961854,24
1530216963181,24
1530216964560,24
1530216965872,24
1530216967250,24
1530216968549,24
1530216969875,24
1530216971241,24
1530216972617,24
1530216973966,24
1530216975307,24
1530216976585,24
1530216977909,24
1530216979284,24
1530216980683,24
1530216982015,24
1530216983304,24
1530216984661,24
1530216985945,24
1530216987187,24
1530216988505,24
1530216989829,24
1530216991302,24
1530216992670,24
1530216994037,24
1530216995531,24
1530216996969,24
1530216999287,24
1530217000543,24
1530217001810,24
1530217003057,24
1530217004354,24
1530217005731,24
1530217007047,24
1530217008388,24
1530217009696,24
1530217010957,24
1530217012204,24
1530217013461,24
1530217014798,24
1530217016126,24
1530217017428,24
1530217018786,24
1530217020039,24
1530217021448,24
1530217022778,24
1530217024103,24
1530217025564,24
1530217026885,24
1530217028182,24
1530217029551,24
1530217030830,24
1530217032086,24
1530217033336,24
1530217034586,24
1530217035918,24
1530217037343,24
1530217038648,24
1530217039937,24
1530217041238,24
1530217042523,24
1530217043838,24
1530217045108,24
1530217046394,24
1530217047697,24
1530217048965,24
1530217050251,24
1530217051652,24
1530217052910,24
1530217054218,24
1530217055507,24
1530217056807,24
1530217058167,24
1530217059433,24
1530217060682,24
1530217062012,24
1530217063453,24
1530217064846,24
1530217066283,24
1530217067723,24
1530217069070,24
1530217070696,24
1530217072005,24
1530217073320,24
1530217074713,24
1530217076119,24
1530217077461,24
1530217079062,24
1530217080540,24
1530217081970,24
1530217083412,24
1530217084813,24
1530217086127,24
1530217087926,24
1530217089390,24
1530217090784,24
1530217092160,24
1530217093528,24
1530217095089,18
1530217096424,18
1530217097473,18
1530217098587,18
1530217099708,18
1530217100841,18
1530217101927,18
1530217102925,18
1530217103914,18
1530217105002,18
1530217105997,18
1530217106958,18
1530217108064,18
1530217109188,18
1530217110333,18
1530217111393,18
1530217112643,18
1530217113772,22
1530217115247,24
1530217116966,24
1530217118753,24
1530217120419,24
1530217122014,24
1530217123237,24
1530217124565,24
1530217126927,24
1530217129240,24
1530217130506,24
1530217131785,24
1530217133127,24
1530217134450,24
1530217135823,24
1530217137234,24
1530217138558,24
1530217139832,24
1530217141138,24
1530217142495,24
1530217143761,24
1530217145102,24
1530217146374,24
1530217147680,24
1530217149008,24
1530217150324,24
1530217151612,24
1530217152870,24
1530217154235,24
1530217155509,24
1530217156836,24
1530217158147,24
1530217160110,24
1530217161547,24
1530217162956,24
1530217164269,24
1530217166556,24
1530217168164,24
1530217169486,24
1530217170823,24
1530217172151,24
1530217173519,24
1530217174928,24
1530217176267,24
1530217177578,24
1530217179013,24
1530217180412,24
1530217181867,24
1530217183193,24
1530217184469,24
1530217185812,24
1530217187163,24
1530217188603,24
1530217189898,24
1530217191180,24
1530217192439,24
1530217193772,24
1530217195072,24
1530217196448,24
1530217197859,24
1530217199117,24
1530217200432,24
1530217201888,24
1530217203340,24
1530217204689,24
1530217205998,24
1530217207321,24
1530217208711,24
1530217210153,24
1530217211626,24
1530217213050,24
1530217214406,24
1530217215748,24
1530217217025,24
1530217218360,24
1530217219621,24
1530217220968,24
1530217222359,24
1530217223676,24
1530217224968,24
1530217226370,24
1530217227645,24
1530217228956,24
1530217230296,24
1530217231641,24
1530217233056,24
1530217234351,24
1530217235682,24
1530217236910,24
1530217238282,24
1530217239558,24
1530217240952,24
1530217242332,24
1530217243784,24
1530217245090,24
1530217246422,24
1530217247646,24
1530217248898,24
1530217250194,24
1530217251474,24
1530217252801,24
1530217254156,24
1530217255414,24
1530217256694,24
1530217257940,24
1530217259449,24
1530217260737,24
1530217262031,24
1530217263414,24
1530217264677,24
1530217266003,24
1530217267241,24
1530217268524,24
1530217269815,24
1530217271295,24
1530217272516,24
1530217273768,24
1530217275055,24
1530217276322,24
1530217277578,24
1530217278871,24
1530217280262,24
1530217281569,24
1530217282945,24
1530217284188,24
1530217285489,24
1530217286763,24
1530217288065,24
1530217289345,24
1530217290752,24
1530217292127,24
1530217293361,24
1530217294762,24
1530217296063,24
1530217297363,24
1530217298632,24
1530217299910,24
1530217301288,24
1530217302557,24
1530217303865,24
1530217305120,24
1530217306362,24
1530217307625,24
1530217308914,24
1530217310225,24
1530217311484,24
1530217312783,24
1530217314070,24
1530217315521,24
1530217316892,24
1530217318345,24
1530217319725,24
1530217321090,24
1530217322687,24
1530217324037,24
1530217325413,24
1530217326846,24
1530217328172,24
1530217329533,23
1530217331383,24
1530217332822,24
1530217334139,24
1530217335479,24
1530217336772,24
1530217338423,24
1530217339921,24
1530217341274,24
1530217342672,24
1530217344011,24
1530217345354,20
1530217347009,18
1530217348002,18
1530217349030,18
1530217350131,18
1530217351324,18
1530217352385,18
1530217353444,18
1530217354484,18
1530217355589,18
1530217356628,18
1530217357636,18
1530217358709,18
1530217359829,18
1530217360909,18
1530217362027,18
1530217363206,18
1530217364383,18
1530217365478,24
1530217367225,24
1530217368925,24
1530217370463,24
1530217371958,24
1530217373431,24
1530217374931,24
1530217376190,24
1530217378305,24
1530217379810,24
1530217381667,24
1530217382928,24
1530217384146,24
1530217385567,24
1530217386908,24
1530217388174,24
1530217389443,24
1530217390720,24
1530217392118,24
1530217393405,24
1530217394644,24
1530217395946,24
1530217397245,24
1530217398541,24
1530217399771,24
1530217401119,24
1530217402407,24
1530217403634,24
1530217404913,24
1530217406148,24
1530217407528,24
1530217408957,24
1530217410325,24
1530217411772,24
1530217413203,24
1530217414547,24
1530217416504,24
1530217418162,24
1530217419665,24
1530217421098,24
1530217422657,24
1530217423945,24
1530217425347,24
1530217426639,24
1530217427977,24
1530217429447,24
1530217430716,24
1530217432011,24
1530217433322,24
1530217434617,24
1530217435922,24
1530217437341,24
1530217438693,24
1530217440004,24
1530217441311,24
1530217442592,24
1530217443957,24
1530217445396,24
1530217446820,24
1530217448212,24
1530217449460,24
1530217450837,24
1530217452184,24
1530217453662,24
1530217455024,24
1530217456285,24
1530217457608,24
1530217458912,24
1530217460231,24
1530217461519,24
1530217462971,24
1530217464412,24
1530217465767,24
1530217467042,24
1530217468362,24
1530217469675,24
1530217470934,24
1530217472175,24
1530217473491,24
1530217474882,24
1530217476307,24
1530217477633,24
1530217478880,24
1530217480213,24
1530217481536,24
1530217482854,24
1530217484352,24
1530217485676,24
1530217486973,24
1530217488288,24
1530217489600,24
1530217490845,24
1530217492207,24
1530217493541,24
1530217494914,24
1530217496276,24
1530217497742,24
1530217499145,24
1530217500474,24
1530217501834,24
1530217503310,24
1530217504747,24
1530217506099,24
1530217507445,24
1530217508824,24
1530217510156,24
1530217511494,24
1530217512876,24
1530217514299,24
1530217515657,24
1530217516986,24
1530217518275,24
1530217519557,24
1530217520878,24
1530217522196,24
1530217523539,24
1530217524880,24
1530217526155,24
1530217527424,24
1530217528761,24
1530217530101,24
1530217531471,24
1530217532760,24
1530217534089,24
1530217535397,24
1530217536754,24
1530217538151,24
1530217539421,24
1530217540714,24
1530217542024,24
1530217543291,24
1530217544736,24
1530217546037,24
1530217547331,24
1530217548673,24
1530217549954,24
1530217551277,24
1530217552561,24
1530217553863,24
1530217555191,24
1530217556478,24
1530217557786,24
1530217559080,24
1530217560374,24
1530217561640,24
1530217562916,24
1530217564224,24
1530217565526,24
1530217566839,24
1530217568237,24
1530217569531,24
1530217570872,24
1530217572157,24
1530217573599,24
1530217575051,24
1530217576472,24
1530217577860,24
1530217579186,24
1530217580707,24
1530217582195,24
1530217583531,24
1530217584888,24
1530217586307,24
1530217587608,24
1530217589345,24
1530217590804,24
1530217592116,24
1530217593471,24
1530217594830,24
1530217596152,24
1530217597921,24
1530217599341,24
1530217600672,24
1530217602033,24
1530217603352,24
1530217604797,20
1530217606388,18
1530217607444,18
1530217608542,18
1530217609736,18
1530217610874,18
1530217611935,18
1530217613071,18
1530217614123,18
1530217615179,18
1530217616244,18
1530217617332,18
1530217618441,18
1530217619584,18
1530217620801,18
1530217621968,18
1530217623077,18
1530217624264,18
1530217625320,24
1530217627214,24
1530217628849,24
1530217630440,24
1530217632002,24
1530217633443,24
1530217634783,24
1530217636956,24
1530217639592,24
1530217640994,24
1530217642264,24
1530217643578,24
1530217644828,24
1530217646107,24
1530217647355,24
1530217648608,24
1530217649914,24
1530217651149,24
1530217652411,24
1530217653777,24
1530217655066,24
1530217656332,24
1530217657639,24
1530217658994,24
1530217660292,24
1530217661558,24
1530217662788,24
1530217664059,24
1530217665325,24
1530217666791,24
1530217668330,24
1530217669817,24
1530217671162,24
1530217672586,24
1530217674070,24
1530217675601,24
1530217676916,24
1530217678520,24
1530217679947,24
1530217681344,24
1530217682774,24
1530217684166,24
1530217685548,24
1530217686906,24
1530217688268,24
1530217689617,24
1530217690905,24
1530217692254,24
1530217693671,24
1530217695137,24
1530217696657,24
1530217697999,24
1530217699350,24
1530217700779,24
1530217702124,24
1530217703451,24
1530217704764,24
1530217706119,24
1530217707391,24
1530217708752,24
1530217710112,24
1530217711464,24
1530217712793,24
1530217714107,24
1530217715396,24
1530217716722,24
1530217718136,24
1530217719532,24
1530217720935,24
1530217722228,24
1530217723562,24
1530217724813,24
1530217726134,24
1530217727546,24
1530217728859,24
1530217730195,24
1530217731508,24
1530217732781,24
1530217734171,24
1530217735561,24
1530217736869,24
1530217738125,24
1530217739490,24
1530217740844,24
1530217742237,24
1530217743562,24
1530217744922,24
1530217746243,24
1530217747773,24
1530217749136,24
1530217750454,24
1530217751838,24
1530217753170,24
1530217754649,24
1530217755973,24
1530217757280,24
1530217758621,24
1530217759905,24
1530217761273,24
1530217762540,24
1530217763889,24
1530217765196,24
1530217766449,24
1530217767749,24
1530217769071,24
1530217770424,24
1530217771764,24
1530217773090,24
1530217774369,24
1530217780640,24
1530217781948,24
1530217783256,24
1530217784601,24
1530217785967,24
1530217787287,24
1530217788666,24
1530217789914,24
1530217791168,24
1530217792489,24
1530217793822,24
1530217795123,24
1530217796468,24
1530217797713,24
1530217798944,24
1530217800213,24
1530217801526,24
1530217802824,24
1530217804135,24
1530217805538,24
1530217806771,24
1530217808027,24
1530217809300,24
1530217810660,24
1530217811996,24
1530217813261,24
1530217814586,24
1530217815890,24
1530217817205,24
1530217818635,24
1530217819932,24
1530217821214,24
1530217822537,24
1530217823826,24
1530217825238,24
1530217826573,24
1530217827917,24
1530217829328,24
1530217830656,24
1530217832292,24
1530217833780,24
1530217835129,24
1530217836641,24
1530217838024,24
1530217839398,24
1530217841123,24
1530217842547,24
1530217843844,24
1530217845278,24
1530217846586,23
1530217848169,24
1530217849691,24
1530217851000,24
1530217852446,24
1530217853836,24
1530217855112,22
1530217856839,18
1530217857889,18
1530217858928,18
1530217860207,18
1530217861258,18
1530217862381,18
1530217863456,18
1530217864455,18
1530217865466,18
1530217866478,18
1530217867581,18
1530217868736,18
1530217869964,18
1530217871206,18
1530217872355,18
1530217873399,18
1530217874614,18
1530217875728,22
1530217877272,24
1530217879068,24
1530217880771,24
1530217882327,24
1530217883842,24
1530217885277,24
1530217886890,24
1530217888939,24
1530217891102,24
1530217892386,24
1530217893683,24
1530217894901,24
1530217896113,24
1530217897486,24
1530217898796,24
1530217900182,24
1530217901499,24
1530217902759,24
1530217904056,24
1530217905459,24
1530217906763,24
1530217908185,24
1530217909462,24
1530217910891,24
1530217912117,24
1530217913432,24
1530217914708,24
1530217915977,24
1530217917331,24
1530217918667,24
1530217920049,24
1530217921746,24
1530217923188,24
1530217924539,24
1530217926108,24
1530217927454,24
1530217928921,24
1530217930309,24
1530217931739,24
1530217932977,24
1530217934267,24
1530217935492,24
1530217936839,24
1530217938320,24
1530217939647,24
1530217941026,24
1530217942349,24
1530217943682,24
1530217945092,24
1530217946459,24
1530217947751,24
1530217949092,24
1530217950449,24
1530217951801,24
1530217953282,24
1530217955697,24
1530217957018,24
1530217958390,24
1530217959909,24
1530217961317,24
1530217962637,24
1530217963961,24
1530217965300,24
1530217966743,24
1530217968150,24
1530217969535,24
1530217970961,24
1530217972335,24
1530217973725,24
1530217975097,24
1530217976411,24
1530217977726,24
1530217979064,24
1530217980470,24
1530217981960,24
1530217983285,24
1530217984671,24
1530217985986,24
1530217987223,24
1530217988630,24
1530217990027,24
1530217991323,24
1530217992772,24
1530217994087,24
1530217995472,24
1530217996769,24
1530217998090,24
1530217999398,24
1530218000739,24
1530218002255,24
1530218003607,24
1530218004902,24
1530218006298,24
1530218007676,24
1530218009080,24
1530218010367,24
1530218011651,24
1530218012972,24
1530218014259,24
1530218015642,24
1530218017033,24
1530218018369,24
1530218019752,24
1530218021113,24
1530218022514,24
1530218023832,24
1530218025233,24
1530218026576,24
1530218027935,24
1530218029230,24
1530218030539,24
1530218031833,24
1530218033172,24
1530218034497,24
1530218035770,24
1530218037100,24
1530218038428,24
1530218039692,24
1530218041021,24
1530218042568,24
1530218043834,24
1530218045146,24
1530218046464,24
1530218047881,24
1530218049170,24
1530218050603,24
1530218051931,24
1530218053298,24
1530218054547,24
1530218055817,24
1530218057095,24
1530218058427,24
1530218059729,24
1530218061263,24
1530218062520,24
1530218063886,24
1530218065194,24
1530218066594,24
1530218067889,24
1530218069284,24
1530218070563,24
1530218071877,24
1530218073210,24
1530218074491,24
1530218075790,24
1530218077091,24
1530218078356,24
1530218079633,24
1530218081004,24
1530218082290,24
1530218083677,24
1530218084978,24
1530218086302,24
1530218087574,24
1530218088916,24
1530218090195,24
1530218091745,24
1530218093038,24
1530218094600,24
1530218095945,24
1530218097316,24
1530218098955,24
1530218100350,24
1530218101800,24
1530218103207,24
1530218104466,24
1530218105735,24
1530218107017,24
1530218108743,24
1530218110113,24
1530218111539,24
1530218112921,24
1530218114348,24
1530218115930,24
1530218117484,24
1530218118802,24
1530218120165,24
1530218121723,24
1530218123006,22
1530218124721,18
1530218125773,18
1530218126946,18
1530218128149,18
1530218129277,18
1530218130332,18
1530218131481,18
1530218132576,18
1530218133597,18
1530218134682,18
1530218135746,18
1530218136856,18
1530218138031,18
1530218139157,18
1530218140262,18
1530218141478,18
1530218142603,20
1530218143877,24
1530218145600,24
1530218147184,24
1530218148746,24
1530218150305,24
1530218151760,24
1530218153167,24
1530218155040,24
1530218156440,24
1530218158758,24
1530218159995,24
1530218161260,24
1530218162525,24
1530218163850,24
1530218165101,24
1530218166419,24
1530218167723,24
1530218168996,24
1530218170273,24
1530218171636,24
1530218172922,24
1530218174281,24
1530218175522,24
1530218176770,24
1530218177975,24
1530218179234,24
1530218180512,24
1530218181763,24
1530218183095,24
1530218184396,24
1530218185712,24
1530218187256,24
1530218188551,24
1530218189913,24
1530218191226,24
1530218193288,24
1530218194697,24
1530218196015,24
1530218197738,24
1530218199109,24
1530218200461,24
1530218202057,24
1530218203434,24
1530218204773,24
1530218206122,24
1530218207425,24
1530218208704,24
1530218210020,24
1530218211320,24
1530218212611,24
1530218213886,24
1530218215443,24
1530218216754,24
1530218218174,24
1530218219403,24
1530218220682,24
1530218221971,24
1530218223262,24
1530218224584,24
1530218225937,24
1530218227349,24
1530218228636,24
1530218229941,24
1530218231219,24
1530218232550,24
1530218233839,24
1530218235356,24
1530218236633,24
1530218238239,24
1530218239537,24
1530218240876,24
1530218242337,24
1530218243721,24
1530218244992,24
1530218246333,24
1530218247625,24
1530218248934,24
1530218250227,24
1530218251570,24
1530218252931,24
1530218254260,24
1530218255537,24
1530218256880,24
1530218258171,24
1530218259440,24
1530218260810,24
1530218262182,24
1530218263513,24
1530218264876,24
1530218266160,24
1530218267461,24
1530218268824,24
1530218270136,24
1530218271410,24
1530218272765,24
1530218274061,24
1530218275346,24
1530218276643,24
1530218277970,24
1530218279368,24
1530218280721,24
1530218281978,24
1530218283246,24
1530218284533,24
1530218285833,24
1530218287057,24
1530218288383,24
1530218289726,24
1530218291091,24
1530218292421,24
1530218293742,24
1530218294995,24
1530218296389,24
1530218297718,24
1530218299023,24
1530218300343,24
1530218301636,24
1530218302909,24
1530218304249,24
1530218305605,24
1530218306987,24
1530218308251,24
1530218309538,24
1530218310875,24
1530218312117,24
1530218313433,24
1530218314842,24
1530218316155,24
1530218317460,24
1530218318762,24
1530218320028,24
1530218321293,24
1530218322702,24
1530218324086,24
1530218325404,24
1530218326819,24
1530218328137,24
1530218329354,24
1530218330660,24
1530218331986,24
1530218333266,24
1530218334728,24
1530218336025,24
1530218337361,24
1530218338600,24
1530218339898,24
1530218341229,24
1530218342525,24
1530218343899,24
1530218345182,24
1530218346480,24
1530218347762,24
1530218349021,24
1530218350286,24
1530218351578,24
1530218352862,24
1530218354266,24
1530218355563,24
1530218356931,24
1530218358180,24
1530218359449,24
1530218360730,24
1530218361997,24
1530218363338,24
1530218364711,24
1530218365973,24
1530218367312,24
1530218368661,24
1530218369915,24
1530218371193,24
1530218372540,24
1530218373836,24
1530218375098,24
1530218376379,24
1530218377666,24
1530218378930,24
1530218380250,24
1530218381558,24
1530218382878,24
1530218384175,24
1530218385422,24
1530218386673,24
1530218388050,24
1530218389483,24
1530218390852,24
1530218392197,24
1530218393671,24
1530218395052,24
1530218396772,24
1530218398214,24
1530218399513,24
1530218400964,24
1530218402359,24
1530218403665,24
1530218405382,24
1530218406804,24
1530218408089,24
1530218409558,24
1530218410939,24
1530218412369,24
1530218413984,24
1530218415338,24
1530218416723,24
1530218418095,24
1530218419430,22
1530218421155,18
1530218422307,18
1530218423372,18
1530218424546,18
1530218425655,18
1530218426768,18
1530218427849,18
1530218428918,18
1530218429930,18
1530218430940,18
1530218431924,18
1530218432982,18
1530218434104,18
1530218435225,18
1530218436262,18
1530218437350,18
1530218438487,18
1530218439535,20
1530218440931,24
1530218442717,24
1530218444334,24
1530218445935,24
1530218447400,24
1530218448778,24
1530218450104,24
1530218452211,24
1530218454473,24
1530218455874,24
1530218457206,24
1530218458539,24
1530218459936,24
1530218461220,24
1530218462555,24
1530218463817,24
1530218465088,24
1530218466380,24
1530218467659,24
1530218469011,24
1530218470256,24
1530218471535,24
1530218472797,24
1530218474177,24
1530218475404,24
1530218476698,24
1530218477927,24
1530218479158,24
1530218480403,24
1530218481642,24
1530218482950,24
1530218484261,24
1530218485928,24
1530218487306,24
1530218488734,24
1530218490198,24
1530218491535,24
1530218493260,24
1530218494640,24
1530218496003,24
1530218497409,24
1530218498745,24
1530218500156,24
1530218501545,24
1530218502822,24
1530218504111,24
1530218505466,24
1530218506838,24
1530218508357,24
1530218509857,24
1530218511101,24
1530218512415,24
1530218513727,24
1530218515162,24
1530218516625,24
1530218518072,24
1530218519464,24
1530218520752,24
1530218522053,24
1530218523409,24
1530218524859,24
1530218526297,24
1530218527626,24
1530218528925,24
1530218530233,24
1530218531610,24
1530218533090,24
1530218534565,24
1530218535832,24
1530218537096,24
1530218538379,24
1530218540253,24
1530218541605,24
1530218542912,24
1530218544275,24
1530218545592,24
1530218546992,24
1530218548323,24
1530218549739,24
1530218551027,24
1530218552400,24
1530218553710,24
1530218555078,24
1530218556328,24
1530218557674,24
1530218558982,24
1530218560382,24
1530218561743,24
1530218563063,24
1530218564319,24
1530218565583,24
1530218566900,24
1530218568279,24
1530218569622,24
1530218571031,24
1530218572297,24
1530218573630,24
1530218574864,24
1530218576206,24
1530218577601,24
1530218578878,24
1530218580289,24
1530218581647,24
1530218583861,24
1530218585109,24
1530218586390,24
1530218587703,24
1530218588985,24
1530218590259,24
1530218591565,24
1530218592842,24
1530218594230,24
1530218595663,24
1530218596939,24
1530218598194,24
1530218599543,24
1530218600881,24
1530218607183,24
1530218608428,24
1530218609715,24
1530218611098,24
1530218612383,24
1530218613672,24
1530218615007,24
1530218616309,24
1530218617628,24
1530218618919,24
1530218620172,24
1530218621469,24
1530218622781,24
1530218624106,24
1530218625384,24
1530218626650,24
1530218628030,24
1530218629343,24
1530218630669,24
1530218632053,24
1530218633310,24
1530218634617,24
1530218635906,24
1530218637117,24
1530218638479,24
1530218639839,24
1530218641223,24
1530218642583,24
1530218643826,24
1530218645111,24
1530218646408,24
1530218647841,24
1530218649181,24
1530218650454,24
1530218651763,24
1530218653025,24
1530218654284,24
1530218655653,24
1530218656955,24
1530218658269,24
1530218659534,24
1530218660815,24
1530218662198,24
1530218663478,24
1530218664766,24
1530218666070,24
1530218667392,24
1530218668760,24
1530218670013,24
1530218671483,24
1530218672800,24
1530218674152,24
1530218675450,24
1530218676812,24
1530218678068,24
1530218679322,24
1530218680623,24
1530218681898,24
1530218683168,24
1530218684498,24
1530218685844,24
1530218687136,24
1530218688424,24
1530218689704,24
1530218691009,24
1530218692382,24
1530218693753,24
1530218695071,24
1530218696386,24
1530218697672,24
1530218699061,24
1530218700382,24
1530218701890,24
1530218703229,24
1530218704548,24
1530218705837,24
1530218707150,24
1530218708467,24
1530218709769,24
1530218711133,24
1530218712418,24
1530218713668,24
1530218714932,24
1530218716323,24
1530218717721,24
1530218719072,24
1530218720355,24
1530218721632,24
1530218723032,24
1530218724304,24
1530218725578,24
1530218726896,24
1530218728171,24
1530218729477,24
1530218730738,24
1530218732153,24
1530218733434,24
1530218734728,24
1530218736014,24
1530218737333,24
1530218738678,24
1530218739976,24
1530218741253,24
1530218742528,24
1530218743822,24
1530218745140,24
1530218746514,24
1530218747815,24
1530218749062,24
1530218750304,24
1530218751577,24
1530218752939,24
1530218754310,24
1530218755559,24
1530218756841,24
1530218758112,24
1530218759493,24
1530218760819,24
1530218762284,24
1530218763639,24
1530218765087,24
1530218766509,24
1530218767849,24
1530218769369,24
1530218770852,24
1530218772215,24
1530218773587,24
1530218775061,24
1530218776370,24
1530218778169,24
1530218779609,24
1530218780913,24
1530218782494,24
1530218783864,24
1530218785222,24
1530218786884,24
1530218788251,24
1530218789681,24
1530218791124,24
1530218792489,24
1530218794144,18
1530218795470,18
1530218796506,18
1530218797653,18
1530218798758,18
1530218799979,18
1530218801073,18
1530218802143,18
1530218803165,18
1530218804152,18
1530218805135,18
1530218806177,18
1530218807211,18
1530218808357,18
1530218809540,18
1530218810681,18
1530218811734,18
1530218812865,18
1530218813914,22
1530218815540,24
1530218817325,24
1530218818922,24
1530218820452,24
1530218821926,24
1530218823526,24
1530218824795,24
1530218827668,24
1530218829940,24
1530218831214,24
1530218832530,24
1530218833761,24
1530218835136,24
1530218836472,24
1530218837845,24
1530218839232,24
1530218840563,24
1530218841870,24
1530218843247,24
1530218844594,24
1530218845884,24
1530218847089,24
1530218848375,24
1530218849719,24
1530218851095,24
1530218852325,24
1530218853786,24
1530218855084,24
1530218856299,24
1530218857702,24
1530218860155,24
1530218861713,24
1530218863264,24
1530218864885,24
1530218866245,24
1530218867876,24
1530218869320,24
1530218870688,24
1530218872005,24
1530218873361,24
1530218874731,24
1530218876243,24
1530218877614,24
1530218878916,24
1530218880189,24
1530218881493,24
1530218882866,24
1530218884278,24
1530218885661,24
1530218886949,24
1530218888281,24
1530218889600,24
1530218890939,24
1530218892303,24
1530218893672,24
1530218894920,24
1530218896263,24
1530218897580,24
1530218898956,24
1530218900279,24
1530218901643,24
1530218902936,24
1530218904263,24
1530218905575,24
1530218907042,24
1530218908382,24
1530218909666,24
1530218911022,24
1530218912254,24
1530218913584,24
1530218915070,24
1530218916379,24
1530218917664,24
1530218918944,24
1530218920221,24
1530218921533,24
1530218922906,24
1530218924248,24
1530218925523,24
1530218926809,24
1530218928075,24
1530218929393,24
1530218930703,24
1530218932068,24
1530218933449,24
1530218934727,24
1530218936031,24
1530218937322,24
1530218938648,24
1530218940061,24
1530218941653,24
1530218942976,24
1530218944288,24
1530218945563,24
1530218946850,24
1530218948207,24
1530218949529,24
1530218950824,24
1530218952047,24
1530218953287,24
1530218954538,24
1530218955866,24
1530218957254,24
1530218958671,24
1530218959925,24
1530218961219,24
1530218962471,24
1530218963786,24
1530218965040,24
1530218966357,24
1530218967706,24
1530218969000,24
1530218970309,24
1530218971707,24
1530218973033,24
1530218974361,24
1530218975773,24
1530218977133,24
1530218978487,24
1530218979781,24
1530218981063,24
1530218982361,24
1530218983692,24
1530218984980,24
1530218986225,24
1530218987528,24
1530218988845,24
1530218990147,24
1530218991446,24
1530218992760,24
1530218994212,24
1530218995512,24
1530218996796,24
1530218998029,24
1530218999322,24
1530219000621,24
1530219002053,24
1530219003425,24
1530219004662,24
1530219006052,24
1530219007313,24
1530219008660,24
1530219009993,24
1530219011331,24
1530219012598,24
1530219013889,24
1530219015188,24
1530219016504,24
1530219017851,24
1530219019206,24
1530219020568,24
1530219021933,24
1530219024245,24
1530219025599,24
1530219027122,24
1530219028510,24
1530219029840,24
1530219031495,24
1530219032957,24
1530219034301,24
1530219035701,24
1530219037121,24
1530219038514,24
1530219040288,24
1530219041688,24
1530219043063,24
1530219044538,24
1530219045895,24
1530219047626,24
1530219049060,24
1530219050304,24
1530219051734,24
1530219053087,24
1530219054494,20
1530219055978,18
1530219057035,18
1530219058076,18
1530219059299,18
1530219060465,18
1530219061615,18
1530219062721,18
1530219063807,18
1530219064879,18
1530219065927,18
1530219067030,18
1530219068199,18
1530219069399,18
1530219070489,18
1530219071581,18
1530219072690,18
1530219073807,22
1530219075553,24
1530219077226,24
1530219078869,24
1530219080387,24
1530219082197,24
1530219083482,24
1530219084881,24
1530219086639,24
1530219088695,24
1530219090036,24
1530219091276,24
1530219092544,24
1530219093931,24
1530219095224,24
1530219096511,24
1530219097845,24
1530219099162,24
1530219100485,24
1530219101818,24
1530219103081,24
1530219104386,24
1530219105639,24
1530219106920,24
1530219108210,24
1530219109541,24
1530219110786,24
1530219112104,24
1530219113374,24
1530219114694,24
1530219116009,24
1530219117343,24
1530219118753,24
1530219120627,24
1530219122037,24
1530219123679,24
1530219125384,24
1530219127086,24
1530219128599,24
1530219130020,24
1530219131351,24
1530219132756,24
1530219134181,24
1530219135657,24
1530219136976,24
1530219138290,24
1530219139567,24
1530219140883,24
1530219142253,24
1530219144537,24
1530219145797,24
1530219147128,24
1530219148650,24
1530219149931,24
1530219151285,24
1530219152674,24
1530219154081,24
1530219155401,24
1530219156751,24
1530219158157,24
1530219159616,24
1530219160996,24
1530219162298,24
1530219163634,24
1530219164913,24
1530219166197,24
1530219167452,24
1530219168880,24
1530219170457,24
1530219171707,24
1530219172956,24
1530219174265,24
1530219175608,24
1530219177176,24
1530219178595,24
1530219179971,24
1530219181322,24
1530219182695,24
1530219184151,24
1530219185645,24
1530219186919,24
1530219188374,24
1530219189674,24
1530219191082,24
1530219192481,24
1530219193811,24
1530219195042,24
1530219196361,24
1530219197622,24
1530219199003,24
1530219200354,24
1530219201788,24
1530219204367,24
1530219205776,24
1530219207145,24
1530219208474,24
1530219209751,24
1530219211113,24
1530219212554,24
1530219213825,24
1530219215193,24
1530219216504,24
1530219217846,24
1530219219281,24
1530219220652,24
1530219222030,24
1530219223370,24
1530219224754,24
1530219226117,24
1530219227504,24
1530219228805,24
1530219230092,24
1530219231507,24
1530219232821,24
1530219234097,24
1530219235423,24
1530219236724,24
1530219238110,24
1530219239411,24
1530219240700,24
1530219241977,24
1530219243263,24
1530219244719,24
1530219246011,24
1530219247329,24
1530219249213,24
1530219250552,24
1530219252022,24
1530219253471,24
1530219254808,24
1530219256420,24
1530219257796,24
1530219259184,24
1530219260607,24
1530219262004,24
1530219263647,24
1530219265069,24
1530219266442,24
1530219267768,24
1530219269144,24
1530219270436,24
1530219272130,24
1530219273580,24
1530219275044,24
1530219276455,24
1530219277824,24
1530219279155,22
1530219280812,18
1530219281882,18
1530219283014,18
1530219284131,18
1530219285274,18
1530219286370,18
1530219287442,18
1530219288488,18
1530219289489,18
1530219290533,18
1530219291620,18
1530219292721,18
1530219293967,18
1530219295068,18
1530219296217,18
1530219297267,18
1530219298415,18
1530219299450,22
1530219301304,24
1530219303213,24
1530219304831,24
1530219306500,24
1530219307880,24
1530219309150,24
1530219310541,24
1530219312538,24
1530219314302,24
1530219315666,24
1530219317022,24
1530219318250,24
1530219319506,24
1530219320768,24
1530219322127,24
1530219324565,24
1530219325866,24
1530219327164,24
1530219328516,24
1530219329798,24
1530219331107,24
1530219332403,24
1530219333713,24
1530219335014,24
1530219336388,24
1530219337691,24
1530219338931,24
1530219340318,24
1530219341598,24
1530219343032,24
1530219344488,24
1530219345898,24
1530219347163,24
1530219348510,24
1530219350016,24
1530219351507,24
1530219352847,24
1530219354195,24
1530219355508,24
1530219356895,24
1530219358230,24
1530219359681,24
1530219360998,24
1530219362409,24
1530219363876,24
1530219365212,24
1530219366706,24
1530219368053,24
1530219369429,24
1530219370824,24
1530219372194,24
1530219373538,24
1530219374859,24
1530219376092,24
1530219377349,24
1530219378757,24
1530219380133,24
1530219381428,24
1530219382848,24
1530219384128,24
1530219385424,24
1530219386764,24
1530219388025,24
1530219389517,24
1530219390846,24
1530219392107,24
1530219393450,24
1530219394760,24
1530219396135,24
1530219397512,24
1530219398964,24
1530219400249,24
1530219401521,24
1530219402794,24
1530219404020,24
1530219405286,24
1530219406646,24
1530219407994,24
1530219409341,24
1530219410680,24
1530219412062,24
1530219413390,24
1530219414694,24
1530219415992,24
1530219417364,24
1530219418663,24
1530219420093,24
1530219421454,24
1530219422846,24
1530219424202,24
1530219425598,24
1530219426958,24
1530219428369,24
1530219429713,24
1530219431062,24
1530219432470,24
1530219433970,24
1530219435245,24
1530219436560,24
1530219437941,24
1530219439410,24
1530219440730,24
1530219442126,24
1530219443517,24
1530219444798,24
1530219446050,24
1530219447332,24
1530219448606,24
1530219450046,24
1530219451439,24
1530219452728,24
1530219454036,24
1530219455311,24
1530219456666,24
1530219457965,24
1530219459348,24
1530219460703,24
1530219462077,24
1530219463345,24
1530219464654,24
1530219465937,24
1530219467293,24
1530219468575,24
1530219469849,24
1530219471119,24
1530219472404,24
1530219473681,24
1530219475019,24
1530219476374,24
1530219477716,24
1530219479351,24
1530219480771,24
1530219482179,24
1530219483559,24
1530219484969,24
1530219486396,24
1530219488021,24
1530219489405,24
1530219490783,24
1530219492263,24
1530219493505,24
1530219495221,24
1530219496729,24
1530219498023,24
1530219499495,24
1530219500884,24
1530219502236,24
1530219503918,24
1530219505287,24
1530219506626,24
1530219508049,24
1530219509408,24
1530219511088,18
1530219512374,18
1530219513427,18
1530219514543,18
1530219515687,18
1530219516929,18
1530219518086,18
1530219519072,18
1530219520119,18
1530219521178,18
1530219522289,18
1530219523323,18
1530219524507,18
1530219525657,18
1530219526809,18
1530219527901,18
1530219529033,18
1530219530091,24
1530219531935,24
1530219533629,24
1530219535261,24
1530219536874,24
1530219538939,24
1530219540241,24
1530219542312,24
1530219544780,24
1530219546082,24
1530219547412,24
1530219548645,24
1530219549979,24
1530219551290,24
1530219552636,24
1530219553903,24
1530219555220,24
1530219556570,24
1530219557859,24
1530219559098,24
1530219560370,24
1530219561691,24
1530219563019,24
1530219564388,24
1530219565727,24
1530219567054,24
1530219568278,24
1530219569593,24
1530219570867,24
1530219572204,24
1530219573533,24
1530219574968,24
1530219576516,24
1530219577971,24
1530219579658,24
1530219581044,24
1530219582902,24
1530219584240,24
1530219585528,24
1530219586888,24
1530219588268,24
1530219589586,24
1530219590867,24
1530219592171,24
1530219593489,24
1530219594840,24
1530219596354,24
1530219597607,24
1530219598924,24
1530219600147,24
1530219601402,24
1530219602755,24
1530219604120,24
1530219605482,24
1530219606752,24
1530219608096,24
1530219609425,24
1530219610716,24
1530219612061,24
1530219613464,24
1530219614768,24
1530219616135,24
1530219617458,24
1530219618785,24
1530219620038,24
1530219621346,24
1530219622635,24
1530219623904,24
1530219625308,24
1530219626712,24
1530219628028,24
1530219629316,24
1530219630567,24
1530219631873,24
1530219633180,24
1530219634455,24
1530219635925,24
1530219637387,24
1530219638729,24
1530219640071,24
1530219641428,24
1530219642864,24
1530219644254,24
1530219645573,24
1530219646975,24
1530219648285,24
1530219649605,24
1530219650916,24
1530219652314,24
1530219653680,24
1530219655116,24
1530219656521,24
1530219657813,24
1530219659465,24
1530219660869,24
1530219662215,24
1530219663683,24
1530219664963,24
1530219666328,24
1530219667641,24
1530219669065,24
1530219670371,24
1530219671774,24
1530219673138,24
1530219674480,24
1530219675737,24
1530219677060,24
1530219678332,24
1530219679610,24
1530219680894,24
1530219682190,24
1530219683472,24
1530219684815,24
1530219686134,24
1530219687781,24
1530219689090,24
1530219690366,24
1530219691656,24
1530219692958,24
1530219694346,24
1530219695626,24
1530219696950,24
1530219698212,24
1530219699587,24
1530219700850,24
1530219702177,24
1530219703450,24
1530219704826,24
1530219706066,24
1530219707326,24
1530219708569,24
1530219709824,24
1530219711132,24
1530219712393,24
1530219713712,24
1530219715054,24
1530219716322,24
1530219717576,24
1530219718886,24
1530219720144,24
1530219721514,24
1530219722837,24
1530219724210,24
1530219725488,24
1530219726768,24
1530219728028,24
1530219729287,24
1530219730546,24
1530219731829,24
1530219733104,24
1530219734408,24
1530219735747,24
1530219736974,24
1530219738262,24
1530219739556,24
1530219740843,24
1530219742108,24
1530219743498,24
1530219744821,24
1530219746260,24
1530219747713,24
1530219748975,24
1530219750562,24
1530219751844,24
1530219753188,24
1530219754675,24
1530219756092,24
1530219757427,24
1530219759208,24
1530219760639,24
1530219761977,24
1530219763389,24
1530219764793,24
1530219766511,24
1530219768009,24
1530219769358,24
1530219770717,24
1530219772140,24
1530219773479,22
1530219775117,18
1530219776192,18
1530219777276,18
1530219778459,18
1530219779599,18
1530219780758,18
1530219781896,18
1530219782954,18
1530219784019,18
1530219785167,18
1530219786240,18
1530219787282,18
1530219788437,18
1530219789619,18
1530219790810,18
1530219791847,18
1530219792998,18
1530219794085,24
1530219795850,24
1530219797516,24
1530219799195,24
1530219800769,24
1530219802199,24
1530219803478,24
1530219805329,24
1530219807457,24
1530219809603,24
1530219810863,24
1530219812172,24
1530219813449,24
1530219814768,24
1530219816008,24
1530219817306,24
1530219818544,24
1530219819803,24
1530219821170,24
1530219822502,24
1530219823746,24
1530219825047,24
1530219826499,24
1530219827827,24
1530219829102,24
1530219830329,24
1530219831606,24
1530219832943,24
1530219834159,24
1530219835373,24
1530219836721,24
1530219838084,24
1530219839514,24
1530219840844,24
1530219842245,24
1530219843586,24
1530219844933,24
1530219846772,24
1530219848542,24
1530219849984,24
1530219851540,24
1530219852977,24
1530219854363,24
1530219855639,24
1530219857035,24
1530219858477,24
1530219859724,24
1530219861108,24
1530219862533,24
1530219863863,24
1530219865148,24
1530219866507,24
1530219867901,24
1530219869200,24
1530219870588,24
1530219871902,24
1530219873238,24
1530219874553,24
1530219875918,24
1530219877450,24
1530219878839,24
1530219880153,24
1530219881542,24
1530219882905,24
1530219884197,24
1530219885609,24
1530219886959,24
1530219888505,24
1530219889809,24
1530219891127,24
1530219892442,24
1530219893919,24
1530219895349,24
1530219896733,24
1530219898061,24
1530219899425,24
1530219900847,24
1530219902316,24
1530219903725,24
1530219905024,24
1530219906384,24
1530219907694,24
1530219909063,24
1530219910365,24
1530219911699,24
1530219913174,24
1530219914488,24
1530219915763,24
1530219917274,24
1530219918710,24
1530219920040,24
1530219921468,24
1530219922784,24
1530219924142,24
1530219925500,24
1530219926943,24
1530219928288,24
1530219929735,24
1530219931074,24
1530219932330,24
1530219933735,24
1530219935106,24
1530219936625,24
1530219938026,24
1530219939321,24
1530219940693,24
1530219942143,24
1530219943482,24
1530219944831,24
1530219946124,24
1530219947478,24
1530219948802,24
1530219950138,24
1530219951435,24
1530219952696,24
1530219953998,24
1530219955303,24
1530219956604,24
1530219957961,24
1530219959286,24
1530219960595,24
1530219961878,24
1530219963375,24
1530219964701,24
1530219966015,24
1530219967394,24
1530219968632,24
1530219969936,24
1530219971246,24
1530219972519,24
1530219973824,24
1530219975096,24
1530219976511,24
1530219977969,24
1530219979389,24
1530219980821,24
1530219982113,24
1530219983696,24
1530219985090,24
1530219986418,24
1530219987756,24
1530219989181,24
1530219990543,24
1530219992299,24
1530219993789,24
1530219995106,24
1530219996493,24
1530219997939,24
1530219999661,24
1530220001006,24
1530220002388,24
1530220003720,24
1530220005199,24
1530220006542,22
1530220008317,18
1530220009339,18
1530220010442,18
1530220011537,18
1530220012669,18
1530220013762,18
1530220014843,18
1530220015854,18
1530220016882,18
1530220017947,18
1530220019067,18
1530220020085,18
1530220021289,18
1530220022443,18
1530220023514,18
1530220024643,18
1530220025747,18
1530220026785,22
1530220028593,24
1530220030303,24
1530220031892,24
1530220033521,24
1530220034779,24
1530220036100,24
1530220037625,24
1530220039745,24
1530220041967,24
1530220043241,24
1530220044522,24
1530220045745,24
1530220047009,24
1530220048281,24
1530220049613,24
1530220050916,24
1530220052208,24
1530220053434,24
1530220054676,24
1530220055936,24
1530220057219,24
1530220058643,24
1530220059941,24
1530220061205,24
1530220062504,24
1530220063853,24
1530220065139,24
1530220066482,24
1530220067827,24
1530220069151,24
1530220070602,24
1530220071960,24
1530220073209,24
1530220074930,24
1530220076282,24
1530220077607,24
1530220079389,24
1530220081283,24
1530220082615,24
1530220083931,24
1530220085344,24
1530220086710,24
1530220088027,24
1530220089340,24
1530220090676,24
1530220092023,24
1530220093408,24
1530220094861,24
1530220096101,24
1530220097388,24
1530220098716,24
1530220100076,24
1530220101436,24
1530220102853,24
1530220104274,24
1530220105549,24
1530220106814,24
1530220108062,24
1530220109392,24
1530220110783,24
1530220112213,24
1530220113540,24
1530220114873,24
1530220116273,24
1530220117535,24
1530220118904,24
1530220120271,24
1530220121681,24
1530220123042,24
1530220124321,24
1530220125632,24
1530220126923,24
1530220128227,24
1530220129580,24
1530220131048,24
1530220132463,24
1530220133753,24
1530220135061,24
1530220136329,24
1530220137601,24
1530220138930,24
1530220140396,24
1530220141811,24
1530220143073,24
1530220144332,24
1530220145635,24
1530220146968,24
1530220148313,24
1530220149737,24
1530220151052,24
1530220152359,24
1530220153638,24
1530220155065,24
1530220156304,24
1530220157604,24
1530220159045,24
1530220160435,24
1530220161768,24
1530220163046,24
1530220164377,24
1530220165689,24
1530220167036,24
1530220168427,24
1530220169769,24
1530220171022,24
1530220172349,24
1530220173614,24
1530220174937,24
1530220176219,24
1530220177537,24
1530220178890,24
1530220180177,24
1530220181524,24
1530220182801,24
1530220184055,24
1530220185405,24
1530220186691,24
1530220187990,24
1530220189247,24
1530220190613,24
1530220191900,24
1530220194669,24
1530220195945,24
1530220197220,24
1530220198525,24
1530220199838,24
1530220201132,24
1530220202391,24
1530220203740,24
1530220205030,24
1530220206387,24
1530220207709,24
1530220209042,24
1530220210407,24
1530220211706,24
1530220212988,24
1530220214249,24
1530220215546,24
1530220216833,24
1530220218134,24
1530220219517,24
1530220220825,24
1530220222119,24
1530220224941,24
1530220226252,24
1530220227528,24
1530220228761,24
1530220230081,24
1530220231400,24
1530220232710,24
1530220234114,24
1530220235481,24
1530220236867,24
1530220238308,24
1530220239564,24
1530220241255,24
1530220242649,24
1530220243991,24
1530220245379,24
1530220246812,24
1530220248062,24
1530220249738,24
1530220251307,24
1530220252597,24
1530220254018,24
1530220255381,24
1530220256729,24
1530220258458,24
1530220259945,24
1530220261260,24
1530220262626,24
1530220263964,24
1530220265455,18
1530220266788,18
1530220267811,18
1530220268898,18
1530220270018,18
1530220271180,18
1530220272277,18
1530220273328,18
1530220274395,18
1530220275482,18
1530220276511,18
1530220277506,18
1530220278569,18
1530220279703,18
1530220280833,18
1530220281977,18
1530220283077,18
1530220284134,20
1530220285298,24
1530220287132,24
1530220288695,24
1530220290275,24
1530220291735,24
1530220293223,24
1530220294477,24
1530220296967,24
1530220298492,24
1530220300685,24
1530220301967,24
1530220303272,24
1530220304531,24
1530220305920,24
1530220307226,24
1530220308581,24
1530220309842,24
1530220311116,24
1530220312448,24
1530220313705,24
1530220314988,24
1530220316327,24
1530220317601,24
1530220318819,24
1530220320052,24
1530220321314,24
1530220322660,24
1530220323981,24
1530220325251,24
1530220326557,24
1530220328044,24
1530220329530,24
1530220330825,24
1530220332070,24
1530220333599,24
1530220335060,24
1530220336665,24
1530220338103,24
1530220339485,24
1530220340866,24
1530220342405,24
1530220343820,24
1530220345109,24
1530220346429,24
1530220347718,24
1530220349039,24
1530220350355,24
1530220351678,24
1530220352992,24
1530220354484,24
1530220355796,24
1530220357189,24
1530220358593,24
1530220359968,24
1530220361266,24
1530220362530,24
1530220363900,24
1530220365212,24
1530220366645,24
1530220367992,24
1530220369333,24
1530220370796,24
1530220372116,24
1530220373515,24
1530220374865,24
1530220376163,24
1530220377501,24
1530220378865,24
1530220380268,24
1530220381637,24
1530220382995,24
1530220384340,24
1530220385601,24
1530220386889,24
1530220388282,24
1530220389656,24
1530220390995,24
1530220392249,24
1530220393637,24
1530220395029,24
1530220396346,24
1530220397713,24
1530220399041,24
1530220400413,24
1530220401736,24
1530220403120,24
1530220404466,24
1530220405721,24
1530220407043,24
1530220408419,24
1530220409797,24
1530220411187,24
1530220412525,24
1530220413870,24
1530220415234,24
1530220416682,24
1530220418043,24
1530220419377,24
1530220420662,24
1530220422047,24
1530220423310,24
1530220424622,24
1530220425931,24
1530220427286,24
1530220428648,24
1530220429960,24
1530220431318,24
1530220432612,24
1530220434080,24
1530220435357,24
1530220436646,24
1530220437973,24
1530220440835,24
1530220442172,24
1530220443467,24
1530220444740,24
1530220446045,24
1530220447342,24
1530220448679,24
1530220450106,24
1530220451359,24
1530220452739,24
1530220454022,24
1530220455428,24
1530220456728,24
1530220458162,24
1530220459451,24
1530220460913,24
1530220462246,24
1530220463662,24
1530220465091,24
1530220466421,24
1530220468016,24
1530220469412,24
1530220470752,24
1530220472277,24
1530220473661,24
1530220474937,24
1530220476668,24
1530220477993,24
1530220479319,24
1530220480744,24
1530220482122,24
1530220483925,24
1530220485439,24
1530220486671,24
1530220488116,24
1530220489531,24
1530220490820,22
1530220492534,18
1530220493554,18
1530220494744,18
1530220495979,18
1530220498002,18
1530220499110,18
1530220500131,18
1530220501172,18
1530220502357,18
1530220503371,18
1530220504409,18
1530220505624,18
1530220506722,18
1530220507880,18
1530220508982,18
1530220510150,18
1530220511229,24
1530220513027,24
1530220514645,24
1530220516241,24
1530220517672,24
1530220519417,24
1530220520692,24
1530220522031,24
1530220525470,24
1530220527064,24
1530220528299,24
1530220529594,24
1530220530855,24
1530220532233,24
1530220533600,24
1530220534912,24
1530220536210,24
1530220537569,24
1530220538987,24
1530220540313,24
1530220541573,24
1530220542816,24
1530220544062,24
1530220545320,24
1530220546595,24
1530220547886,24
1530220549268,24
1530220550547,24
1530220551817,24
1530220553127,24
1530220554477,24
1530220555832,24
1530220557153,24
1530220558616,24
1530220559999,24
1530220561339,24
1530220562582,24
1530220564061,24
1530220565544,24
1530220566900,24
1530220568308,24
1530220569646,24
1530220570958,24
1530220572277,24
1530220573807,24
1530220575240,24
1530220576591,24
1530220577917,24
1530220579335,24
1530220580754,24
1530220582152,24
1530220583442,24
1530220584702,24
1530220586073,24
1530220587326,24
1530220588729,24
1530220590100,24
1530220591455,24
1530220592781,24
1530220594050,24
1530220595369,24
1530220596726,24
1530220598109,24
1530220599471,24
1530220600886,24
1530220602201,24
1530220603568,24
1530220604978,24
1530220606313,24
1530220607610,24
1530220608933,24
1530220610489,24
1530220611800,24
1530220613116,24
1530220614387,24
1530220615772,24
1530220617123,24
1530220618568,24
1530220619891,24
1530220621133,24
1530220622434,24
1530220623819,24
1530220625186,24
1530220626540,24
1530220627868,24
1530220629297,24
1530220630644,24
1530220631947,24
1530220633330,24
1530220634580,24
1530220635836,24
1530220637098,24
1530220638417,24
1530220639983,24
1530220641332,24
1530220642705,24
1530220644013,24
1530220645316,24
1530220646697,24
1530220649554,24
1530220650828,24
1530220652268,24
1530220653674,24
1530220654990,24
1530220656244,24
1530220657545,24
1530220658905,24
1530220660184,24
1530220661488,24
1530220662794,24
1530220664091,24
1530220665391,24
1530220666635,24
1530220667967,24
1530220669282,24
1530220670660,24
1530220671958,24
1530220673242,24
1530220674553,24
1530220675834,24
1530220677195,24
1530220678537,24
1530220679839,24
1530220681176,24
1530220682464,24
1530220683914,24
1530220685246,24
1530220686606,24
1530220688035,24
1530220689372,24
1530220691193,24
1530220692665,24
1530220694014,24
1530220695441,24
1530220696807,24
1530220698132,24
1530220699795,24
1530220701175,24
1530220702558,24
1530220704000,24
1530220705363,24
1530220706706,25
1530220708379,24
1530220709769,24
1530220711139,24
1530220712511,24
1530220713885,24
1530220715524,18
1530220716946,18
1530220718005,18
1530220719134,18
1530220720266,18
1530220721393,18
1530220722539,18
1530220723624,18
1530220724651,18
1530220725704,18
1530220726786,