time,instances
1530448794709,18
1530448797043,18
1530448799477,18
1530448801222,18
1530448802429,18
1530448804015,18
1530448805402,24
1530448807298,24
1530448809714,24
1530448811330,24
1530448813157,24
1530448814821,24
1530448816445,24
1530448818224,24
1530448820320,24
1530448822625,24
1530448824052,24
1530448825402,24
1530448826749,24
1530448828176,24
1530448829655,24
1530448831107,24
1530448832425,24
1530448833828,24
1530448835265,24
1530448836789,24
1530448838126,24
1530448839400,24
1530448840711,24
1530448842173,24
1530448843700,24
1530448845188,24
1530448846513,24
1530448847909,24
1530448849465,24
1530448851179,24
1530448852649,24
1530448854172,24
1530448855670,24
1530448857448,24
1530448858786,24
1530448860323,24
1530448861659,24
1530448863013,24
1530448864491,24
1530448865891,24
1530448867358,24
1530448868761,24
1530448870193,24
1530448871546,24
1530448872939,24
1530448874374,24
1530448875730,24
1530448877139,24
1530448878571,24
1530448879900,24
1530448881195,24
1530448882543,24
1530448883948,24
1530448885375,24
1530448886732,24
1530448888012,24
1530448889283,24
1530448890609,24
1530448891900,24
1530448893211,24
1530448894502,24
1530448895796,24
1530448897098,24
1530448898450,24
1530448899774,24
1530448901047,24
1530448902368,24
1530448903735,24
1530448905140,24
1530448906382,24
1530448907696,24
1530448908978,24
1530448910243,24
1530448911490,24
1530448912817,24
1530448914127,24
1530448915423,24
1530448916721,24
1530448918051,24
1530448919329,24
1530448920613,24
1530448921967,24
1530448923234,24
1530448924549,24
1530448925807,24
1530448927057,24
1530448928373,24
1530448929616,24
1530448930889,24
1530448932186,24
1530448933523,24
1530448934910,24
1530448936265,24
1530448937575,24
1530448938828,24
1530448940155,24
1530448941414,24
1530448942722,24
1530448944033,24
1530448945360,24
1530448946662,24
1530448948011,24
1530448949287,24
1530448950545,24
1530448951823,24
1530448953052,24
1530448954316,24
1530448955601,24
1530448956886,24
1530448958260,24
1530448959525,24
1530448960811,24
1530448962132,24
1530448963399,24
1530448964731,24
1530448966173,24
1530448967453,24
1530448968708,24
1530448969990,24
1530448971229,24
1530448972488,24
1530448973763,24
1530448975076,24
1530448976345,24
1530448977607,24
1530448978928,24
1530448980197,24
1530448981532,24
1530448982790,24
1530448984043,24
1530448985349,24
1530448986573,24
1530448987880,24
1530448989191,24
1530448990395,24
1530448991663,24
1530448992960,24
1530448994229,24
1530448995653,24
1530448997006,24
1530448998241,24
1530448999505,24
1530449000771,24
1530449002018,24
1530449003262,24
1530449004516,24
1530449005763,24
1530449007038,24
1530449008363,24
1530449009742,24
1530449010995,24
1530449012454,24
1530449013742,24
1530449015042,24
1530449016372,24
1530449017657,24
1530449019000,24
1530449020268,24
1530449021541,24
1530449022761,24
1530449024008,24
1530449025266,24
1530449026683,24
1530449028110,24
1530449029388,24
1530449030650,24
1530449031928,24
1530449033224,24
1530449034507,24
1530449035808,24
1530449037149,24
1530449038401,24
1530449039724,24
1530449040971,24
1530449042255,24
1530449043523,24
1530449044844,24
1530449046126,24
1530449047384,24
1530449048646,24
1530449049904,24
1530449051186,24
1530449052473,24
1530449053702,24
1530449054944,24
1530449056212,24
1530449057535,24
1530449058921,24
1530449060176,24
1530449061493,24
1530449062782,24
1530449064034,24
1530449065288,24
1530449066614,24
1530449067892,24
1530449069191,24
1530449070488,24
1530449071761,24
1530449073069,24
1530449074308,24
1530449075596,24
1530449076899,24
1530449078351,24
1530449079904,24
1530449081253,24
1530449082566,24
1530449083872,24
1530449085184,24
1530449086548,24
1530449087937,24
1530449089294,24
1530449090544,24
1530449091810,24
1530449093067,24
1530449094384,24
1530449095724,24
1530449097024,24
1530449098296,24
1530449099645,24
1530449101025,24
1530449102331,24
1530449103607,24
1530449104890,24
1530449106218,24
1530449107488,24
1530449108828,24
1530449110150,24
1530449111487,24
1530449112743,24
1530449114055,24
1530449115355,24
1530449116664,24
1530449118080,24
1530449119462,24
1530449120751,24
1530449122034,24
1530449123377,24
1530449124677,24
1530449126034,24
1530449127374,24
1530449128701,24
1530449130051,24
1530449131409,24
1530449132657,24
1530449134002,24
1530449135257,24
1530449136515,24
1530449137772,24
1530449139031,24
1530449140375,24
1530449141702,24
1530449142990,24
1530449144281,24
1530449145606,24
1530449146924,24
1530449148340,24
1530449149690,24
1530449151004,24
1530449152337,24
1530449153618,24
1530449154900,24
1530449156148,24
1530449157418,24
1530449158695,24
1530449159985,24
1530449161372,24
1530449162624,24
1530449163889,24
1530449165125,24
1530449166435,24
1530449167720,24
1530449169009,24
1530449170236,24
1530449171499,24
1530449172806,24
1530449174124,24
1530449175454,24
1530449176741,24
1530449178049,24
1530449179383,24
1530449180753,24
1530449182086,24
1530449183363,24
1530449184658,24
1530449185938,24
1530449187180,24
1530449188439,24
1530449189724,24
1530449190960,24
1530449192319,24
1530449193592,24
1530449194838,24
1530449196100,24
1530449197399,24
1530449198727,24
1530449199974,24
1530449201264,24
1530449203911,24
1530449205195,24
1530449206434,24
1530449207732,24
1530449208993,24
1530449210374,24
1530449211798,24
1530449213280,24
1530449214738,24
1530449216138,24
1530449217447,24
1530449218838,24
1530449220268,24
1530449221601,24
1530449223275,24
1530449224680,24
1530449226095,24
1530449227468,24
1530449228963,24
1530449230267,24
1530449232096,24
1530449233576,24
1530449234919,24
1530449236351,24
1530449237718,24
1530449239075,24
1530449240780,24
1530449242343,24
1530449243680,24
1530449245064,24
1530449246461,24
1530449247781,22
1530449249507,18
1530449250524,18
1530449251612,18
1530449252812,18
1530449253985,18
1530449255063,18
1530449256178,18
1530449257178,18
1530449258279,18
1530449259326,18
1530449260320,18
1530449261404,18
1530449262585,18
1530449263666,18
1530449264759,18
1530449265815,18
1530449266927,18
1530449267931,22
1530449269568,24
1530449271385,24
1530449273057,24
1530449274744,24
1530449276004,24
1530449277297,24
1530449278615,24
1530449280623,24
1530449283056,24
1530449284269,24
1530449285561,24
1530449286929,24
1530449288173,24
1530449289448,24
1530449290765,24
1530449292090,24
1530449294052,24
1530449295405,24
1530449296724,24
1530449297974,24
1530449299252,24
1530449300508,24
1530449301947,24
1530449303196,24
1530449304451,24
1530449305717,24
1530449306979,24
1530449308347,24
1530449309686,24
1530449311174,24
1530449312550,24
1530449313973,24
1530449315456,24
1530449317004,24
1530449318365,24
1530449319731,24
1530449321467,24
1530449322837,24
1530449324166,24
1530449325413,24
1530449326825,24
1530449328208,24
1530449329590,24
1530449330951,24
1530449332258,24
1530449333706,24
1530449335052,24
1530449336404,24
1530449337705,24
1530449339051,24
1530449340324,24
1530449341604,24
1530449342933,24
1530449344328,24
1530449345617,24
1530449346947,24
1530449348281,24
1530449349674,24
1530449351629,24
1530449352888,24
1530449354217,24
1530449355516,24
1530449356931,24
1530449358340,24
1530449359659,24
1530449361158,24
1530449362547,24
1530449364027,24
1530449365383,24
1530449366698,24
1530449367932,24
1530449369218,24
1530449370454,24
1530449371725,24
1530449373024,24
1530449374324,24
1530449375571,24
1530449376817,24
1530449378082,24
1530449379340,24
1530449380661,24
1530449381918,24
1530449383198,24
1530449384463,24
1530449385699,24
1530449386975,24
1530449388241,24
1530449389565,24
1530449390854,24
1530449392070,24
1530449393460,24
1530449394788,24
1530449396271,24
1530449397562,24
1530449398797,24
1530449400025,24
1530449401270,24
1530449402520,24
1530449403847,24
1530449405239,24
1530449406532,24
1530449407870,24
1530449409141,24
1530449410441,24
1530449411751,24
1530449412996,24
1530449414267,24
1530449415558,24
1530449416900,24
1530449418189,24
1530449419514,24
1530449420781,24
1530449422035,24
1530449423372,24
1530449424799,24
1530449426108,24
1530449427397,24
1530449428685,24
1530449429967,24
1530449431268,24
1530449432557,24
1530449433872,24
1530449435261,24
1530449436558,24
1530449437870,24
1530449439166,24
1530449440446,24
1530449441736,24
1530449443000,24
1530449444277,24
1530449445517,24
1530449446788,24
1530449448050,24
1530449449308,24
1530449450657,24
1530449451984,24
1530449453248,24
1530449454612,24
1530449455974,24
1530449457324,24
1530449458627,24
1530449459877,24
1530449461185,24
1530449462465,24
1530449463779,24
1530449465071,24
1530449466416,24
1530449467706,24
1530449468997,24
1530449470278,24
1530449471583,24
1530449472901,24
1530449474173,24
1530449475459,24
1530449476799,24
1530449478094,24
1530449479371,24
1530449480632,24
1530449481886,24
1530449483154,24
1530449484501,24
1530449485840,24
1530449487118,24
1530449488391,24
1530449489646,24
1530449490915,24
1530449492201,24
1530449493506,24
1530449494811,24
1530449496077,24
1530449497461,24
1530449498766,24
1530449500020,24
1530449501318,24
1530449502565,24
1530449503819,24
1530449505078,24
1530449506326,24
1530449507645,24
1530449508928,24
1530449510147,24
1530449511475,24
1530449512747,24
1530449514074,24
1530449515445,24
1530449516755,24
1530449518059,24
1530449519314,24
1530449520601,24
1530449521860,24
1530449523086,24
1530449524402,24
1530449525689,24
1530449526988,24
1530449528362,24
1530449529677,24
1530449531678,24
1530449532947,24
1530449534197,24
1530449535437,24
1530449536691,24
1530449538032,24
1530449539329,24
1530449540604,24
1530449541933,24
1530449543200,24
1530449544533,24
1530449545858,24
1530449547219,24
1530449548494,24
1530449549758,24
1530449551063,24
1530449552398,24
1530449553663,24
1530449554938,24
1530449556236,24
1530449557529,24
1530449558938,24
1530449560225,24
1530449561503,24
1530449562807,24
1530449564084,24
1530449565353,24
1530449566663,24
1530449567946,24
1530449569221,24
1530449570511,24
1530449571895,24
1530449573116,24
1530449574387,24
1530449575739,24
1530449577092,24
1530449578395,24
1530449579664,24
1530449580966,24
1530449582224,24
1530449583543,24
1530449584842,24
1530449586125,24
1530449587406,24
1530449588798,24
1530449590217,24
1530449591608,24
1530449593047,24
1530449594409,24
1530449595748,24
1530449597119,24
1530449598424,24
1530449599969,24
1530449601557,24
1530449602924,24
1530449604370,24
1530449605740,24
1530449607172,24
1530449608771,24
1530449610188,24
1530449611510,24
1530449612868,24
1530449614253,24
1530449615543,24
1530449617241,24
1530449618656,24
1530449620129,24
1530449621559,24
1530449622895,24
1530449624277,20
1530449625775,18
1530449626781,18
1530449627902,18
1530449629085,18
1530449630290,18
1530449631362,18
1530449632496,18
1530449633517,18
1530449634570,18
1530449635544,18
1530449636633,18
1530449637823,18
1530449638923,18
1530449640012,18
1530449641083,18
1530449642165,18
1530449643220,20
1530449644528,24
1530449646410,24
1530449647891,24
1530449649377,24
1530449650758,24
1530449652320,24
1530449653677,24
1530449655390,24
1530449657839,24
1530449659234,24
1530449660492,24
1530449661783,24
1530449663051,24
1530449664302,24
1530449665679,24
1530449666980,24
1530449668224,24
1530449669432,24
1530449670712,24
1530449672089,24
1530449673513,24
1530449674842,24
1530449676063,24
1530449677310,24
1530449678609,24
1530449679917,24
1530449681164,24
1530449682384,24
1530449683609,24
1530449684932,24
1530449686306,24
1530449688171,24
1530449689775,24
1530449691033,24
1530449692388,24
1530449693858,24
1530449695240,24
1530449696688,24
1530449698393,24
1530449699721,24
1530449701028,24
1530449702368,24
1530449703735,24
1530449705084,24
1530449706494,24
1530449707774,24
1530449709028,24
1530449710358,24
1530449711821,24
1530449713166,24
1530449714510,24
1530449715786,24
1530449717110,24
1530449718329,24
1530449719605,24
1530449720993,24
1530449722447,24
1530449723860,24
1530449725204,24
1530449726605,24
1530449728091,24
1530449729369,24
1530449730715,24
1530449732010,24
1530449733390,24
1530449734825,24
1530449736206,24
1530449737534,24
1530449738900,24
1530449740254,24
1530449741614,24
1530449742895,24
1530449744163,24
1530449745414,24
1530449746715,24
1530449748035,24
1530449749300,24
1530449750589,24
1530449751866,24
1530449753147,24
1530449754418,24
1530449755723,24
1530449757006,24
1530449758373,24
1530449759771,24
1530449761064,24
1530449762331,24
1530449763597,24
1530449764907,24
1530449766226,24
1530449767567,24
1530449768842,24
1530449770111,24
1530449771455,24
1530449772804,24
1530449774041,24
1530449775345,24
1530449776695,24
1530449778043,24
1530449779315,24
1530449780604,24
1530449781948,24
1530449783281,24
1530449784633,24
1530449785861,24
1530449787146,24
1530449788494,24
1530449789849,24
1530449791093,24
1530449792367,24
1530449793665,24
1530449794995,24
1530449796300,24
1530449797631,24
1530449798934,24
1530449800205,24
1530449801567,24
1530449802947,24
1530449804206,24
1530449805480,24
1530449806793,24
1530449808088,24
1530449809435,24
1530449810781,24
1530449812042,24
1530449813385,24
1530449814682,24
1530449816025,24
1530449817360,24
1530449818702,24
1530449820010,24
1530449821328,24
1530449822583,24
1530449823844,24
1530449825153,24
1530449826533,24
1530449827789,24
1530449829103,24
1530449830364,24
1530449831626,24
1530449833015,24
1530449834264,24
1530449835600,24
1530449836926,24
1530449838178,24
1530449839444,24
1530449840760,24
1530449842051,24
1530449843321,24
1530449844731,24
1530449845994,24
1530449847293,24
1530449848669,24
1530449850023,24
1530449851281,24
1530449852563,24
1530449853810,24
1530449855112,24
1530449856374,24
1530449857625,24
1530449858912,24
1530449860185,24
1530449861482,24
1530449862757,24
1530449864139,24
1530449865393,24
1530449866720,24
1530449868016,24
1530449869290,24
1530449870538,24
1530449871803,24
1530449873118,24
1530449874454,24
1530449875715,24
1530449876996,24
1530449878324,24
1530449879655,24
1530449881022,24
1530449882336,24
1530449883639,24
1530449884888,24
1530449886165,24
1530449887496,24
1530449888825,24
1530449890180,24
1530449891487,24
1530449892772,24
1530449894150,24
1530449895481,24
1530449896826,24
1530449898133,24
1530449899412,24
1530449900730,24
1530449902025,24
1530449903329,24
1530449904622,24
1530449905975,24
1530449907308,24
1530449908570,24
1530449910423,24
1530449911811,24
1530449913066,24
1530449914378,24
1530449915697,24
1530449916995,24
1530449918282,24
1530449919583,24
1530449920960,24
1530449922237,24
1530449923523,24
1530449924871,24
1530449926128,24
1530449927435,24
1530449928720,24
1530449930117,24
1530449931420,24
1530449932722,24
1530449934015,24
1530449935267,24
1530449936598,24
1530449937905,24
1530449939210,24
1530449940586,24
1530449941951,24
1530449943276,24
1530449944592,24
1530449945863,24
1530449947180,24
1530449948513,24
1530449949792,24
1530449951062,24
1530449952308,24
1530449953624,24
1530449954981,24
1530449956258,24
1530449957673,24
1530449959117,24
1530449960529,24
1530449962188,24
1530449963598,24
1530449965138,24
1530449966497,24
1530449967857,24
1530449969497,24
1530449970909,24
1530449972189,24
1530449973538,24
1530449974974,24
1530449976281,24
1530449977976,24
1530449979498,24
1530449980810,24
1530449982185,24
1530449983640,24
1530449985009,24
1530449986830,24
1530449988322,24
1530449989566,24
1530449991005,24
1530449992389,24
1530449993682,20
1530449995319,18
1530449996583,18
1530449997721,18
1530449998765,18
1530449999870,18
1530450001042,18
1530450002142,18
1530450003211,18
1530450004254,18
1530450005296,18
1530450006349,18
1530450007494,18
1530450008623,18
1530450009717,18
1530450010775,18
1530450011926,18
1530450012963,22
1530450014575,24
1530450016347,24
1530450017854,24
1530450019536,24
1530450020921,24
1530450022256,24
1530450023625,24
1530450025895,24
1530450028205,24
1530450029483,24
1530450030717,24
1530450032095,24
1530450033487,24
1530450034794,24
1530450036072,24
1530450037373,24
1530450038694,24
1530450040033,24
1530450041298,24
1530450042562,24
1530450043849,24
1530450045090,24
1530450046356,24
1530450047670,24
1530450048999,24
1530450050176,24
1530450051478,24
1530450052796,24
1530450054061,24
1530450055431,24
1530450056992,24
1530450058342,24
1530450059926,24
1530450061403,24
1530450062812,24
1530450064242,24
1530450065715,24
1530450067374,24
1530450068708,24
1530450070063,24
1530450071441,24
1530450072861,24
1530450074218,24
1530450075601,24
1530450077000,24
1530450078312,24
1530450079596,24
1530450080934,24
1530450082249,24
1530450083545,24
1530450084906,24
1530450086360,24
1530450087675,24
1530450088978,24
1530450090312,24
1530450091664,24
1530450093017,24
1530450094291,24
1530450095572,24
1530450096841,24
1530450098121,24
1530450099379,24
1530450100697,24
1530450101991,24
1530450103226,24
1530450104525,24
1530450105909,24
1530450107203,24
1530450108515,24
1530450109783,24
1530450111056,24
1530450112322,24
1530450113598,24
1530450114885,24
1530450116192,24
1530450117518,24
1530450118728,24
1530450120040,24
1530450121311,24
1530450122687,24
1530450124096,24
1530450125414,24
1530450126720,24
1530450127997,24
1530450129297,24
1530450130603,24
1530450131917,24
1530450133225,24
1530450134559,24
1530450135885,24
1530450137161,24
1530450138405,24
1530450139701,24
1530450140968,24
1530450142245,24
1530450143549,24
1530450144780,24
1530450146051,24
1530450147422,24
1530450148738,24
1530450149989,24
1530450151279,24
1530450152641,24
1530450154032,24
1530450155359,24
1530450156641,24
1530450157932,24
1530450159232,24
1530450160509,24
1530450161796,24
1530450163176,24
1530450164492,24
1530450165831,24
1530450167178,24
1530450168498,24
1530450169886,24
1530450171218,24
1530450172605,24
1530450173923,24
1530450175247,24
1530450176478,24
1530450177839,24
1530450179161,24
1530450180409,24
1530450181989,24
1530450183318,24
1530450184716,24
1530450185966,24
1530450187959,24
1530450189296,24
1530450190591,24
1530450191936,24
1530450193246,24
1530450194640,24
1530450195958,24
1530450197285,24
1530450198560,24
1530450199943,24
1530450201227,24
1530450202508,24
1530450203838,24
1530450205073,24
1530450206324,24
1530450207685,24
1530450208937,24
1530450210234,24
1530450211505,24
1530450212806,24
1530450214147,24
1530450215477,24
1530450216798,24
1530450218123,24
1530450219448,24
1530450220724,24
1530450222061,24
1530450223401,24
1530450224722,24
1530450226005,24
1530450227388,24
1530450228657,24
1530450229882,24
1530450231136,24
1530450232401,24
1530450233675,24
1530450234949,24
1530450236200,24
1530450237517,24
1530450238818,24
1530450240127,24
1530450241429,24
1530450242746,24
1530450244115,24
1530450245457,24
1530450246792,24
1530450248106,24
1530450249384,24
1530450250637,24
1530450251903,24
1530450253212,24
1530450254492,24
1530450255812,24
1530450257077,24
1530450258407,24
1530450259684,24
1530450260978,24
1530450262253,24
1530450263591,24
1530450264897,24
1530450266165,24
1530450267426,24
1530450268889,24
1530450270168,24
1530450271497,24
1530450272737,24
1530450274062,24
1530450275534,24
1530450276839,24
1530450278201,24
1530450279448,24
1530450280773,24
1530450282007,24
1530450283326,24
1530450284704,24
1530450285939,24
1530450287181,24
1530450288579,24
1530450289831,24
1530450291120,24
1530450292433,24
1530450293668,24
1530450295027,24
1530450296351,24
1530450297618,24
1530450298990,24
1530450300272,24
1530450301546,24
1530450302899,24
1530450304367,24
1530450305862,24
1530450307328,24
1530450308687,24
1530450310105,24
1530450311560,24
1530450312852,24
1530450314606,24
1530450316043,24
1530450317393,24
1530450318769,24
1530450320241,24
1530450321607,24
1530450323346,24
1530450324845,24
1530450326159,24
1530450327530,24
1530450329218,24
1530450330541,24
1530450332218,24
1530450333648,24
1530450334946,24
1530450336532,24
1530450337926,24
1530450339316,20
1530450340900,18
1530450341905,18
1530450342995,18
1530450344135,18
1530450345238,18
1530450346308,18
1530450347315,18
1530450348440,18
1530450349432,18
1530450350492,18
1530450351475,18
1530450352616,18
1530450353731,18
1530450354881,18
1530450355974,18
1530450357107,18
1530450358147,20
1530450359508,24
1530450361259,24
1530450362779,24
1530450364232,24
1530450365897,24
1530450367606,24
1530450369651,24
1530450371040,24
1530450373474,24
1530450374766,24
1530450376014,24
1530450377258,24
1530450378545,24
1530450379909,24
1530450381333,24
1530450382650,24
1530450383938,24
1530450385182,24
1530450386452,24
1530450387718,24
1530450389063,24
1530450390359,24
1530450392076,24
1530450393363,24
1530450394622,24
1530450395860,24
1530450397156,24
1530450398409,24
1530450399650,24
1530450400937,24
1530450402443,24
1530450403758,24
1530450405139,24
1530450406626,24
1530450408064,24
1530450409497,24
1530450410836,24
1530450412289,24
1530450413675,24
1530450414991,24
1530450416559,24
1530450417883,24
1530450419275,24
1530450420602,24
1530450422006,24
1530450423408,24
1530450424731,24
1530450426004,24
1530450427248,24
1530450428601,24
1530450429877,24
1530450431157,24
1530450432414,24
1530450433626,24
1530450434875,24
1530450436119,24
1530450437402,24
1530450438626,24
1530450439981,24
1530450441266,24
1530450442512,24
1530450443800,24
1530450445098,24
1530450446364,24
1530450447610,24
1530450448852,24
1530450450180,24
1530450451449,24
1530450452717,24
1530450454017,24
1530450455278,24
1530450456533,24
1530450457853,24
1530450459355,24
1530450460634,24
1530450461906,24
1530450463140,24
1530450464386,24
1530450465690,24
1530450466958,24
1530450468231,24
1530450469522,24
1530450470866,24
1530450472139,24
1530450473381,24
1530450474656,24
1530450475900,24
1530450477168,24
1530450478456,24
1530450479721,24
1530450481009,24
1530450482240,24
1530450483480,24
1530450484738,24
1530450485982,24
1530450487265,24
1530450488495,24
1530450489892,24
1530450491122,24
1530450492420,24
1530450493728,24
1530450494977,24
1530450496300,24
1530450497675,24
1530450498991,24
1530450500280,24
1530450501656,24
1530450502917,24
1530450504145,24
1530450505361,24
1530450506671,24
1530450507958,24
1530450509245,24
1530450510597,24
1530450511908,24
1530450513352,24
1530450514685,24
1530450515968,24
1530450517239,24
1530450518498,24
1530450519956,24
1530450521226,24
1530450522534,24
1530450523842,24
1530450525104,24
1530450526378,24
1530450527693,24
1530450529034,24
1530450530309,24
1530450531681,24
1530450532997,24
1530450534319,24
1530450535647,24
1530450536915,24
1530450538204,24
1530450539487,24
1530450540873,24
1530450542127,24
1530450543418,24
1530450544746,24
1530450546018,24
1530450547328,24
1530450548627,24
1530450549899,24
1530450551367,24
1530450552667,24
1530450554002,24
1530450555290,24
1530450556541,24
1530450557988,24
1530450559239,24
1530450560545,24
1530450562091,24
1530450563375,24
1530450564658,24
1530450565911,24
1530450567215,24
1530450568502,24
1530450569811,24
1530450571116,24
1530450572387,24
1530450573678,24
1530450575040,24
1530450576282,24
1530450577604,24
1530450578901,24
1530450580197,24
1530450581635,24
1530450582879,24
1530450584123,24
1530450585436,24
1530450586709,24
1530450587968,24
1530450589253,24
1530450590528,24
1530450591947,24
1530450593269,24
1530450594560,24
1530450596002,24
1530450597410,24
1530450598673,24
1530450599921,24
1530450601303,24
1530450602614,24
1530450603897,24
1530450605150,24
1530450606509,24
1530450607852,24
1530450609201,24
1530450610542,24
1530450611957,24
1530450613265,24
1530450614545,24
1530450615883,24
1530450617188,24
1530450618521,24
1530450619820,24
1530450621098,24
1530450622520,24
1530450623819,24
1530450625088,24
1530450626346,24
1530450627641,24
1530450628920,24
1530450630224,24
1530450631639,24
1530450632946,24
1530450634238,24
1530450635507,24
1530450636806,24
1530450638117,24
1530450639438,24
1530450640752,24
1530450642204,24
1530450643471,24
1530450644836,24
1530450646260,24
1530450647659,24
1530450649064,24
1530450650381,24
1530450651835,24
1530450653268,24
1530450654536,24
1530450656261,24
1530450657727,24
1530450659025,24
1530450660396,24
1530450662034,24
1530450663415,24
1530450665091,24
1530450666507,24
1530450668997,24
1530450670287,24
1530450672241,24
1530450673582,24
1530450674925,24
1530450676782,24
1530450678143,24
1530450679531,24
1530450680910,24
1530450682142,24
1530450683740,18
1530450685020,18
1530450686021,18
1530450687047,18
1530450688144,18
1530450689273,18
1530450690300,18
1530450691306,18
1530450692467,18
1530450693505,18
1530450694519,18
1530450695516,18
1530450696672,18
1530450699007,18
1530450700069,18
1530450701189,18
1530450702457,24
1530450704357,24
1530450706169,24
1530450707787,24
1530450709273,24
1530450710665,24
1530450711999,24
1530450713463,24
1530450715550,24
1530450717823,24
1530450719048,24
1530450720737,24
1530450721926,24
1530450723242,24
1530450724504,24
1530450725802,24
1530450727073,24
1530450728351,24
1530450729631,24
1530450730858,24
1530450732132,24
1530450733363,24
1530450734617,24
1530450735873,24
1530450737083,24
1530450738383,24
1530450739792,24
1530450740990,24
1530450742227,24
1530450743619,24
1530450745002,24
1530450746318,24
1530450747611,24
1530450748965,24
1530450750665,24
1530450752920,24
1530450754385,24
1530450756315,24
1530450757685,24
1530450759043,24
1530450760397,24
1530450761734,24
1530450763085,24
1530450764452,24
1530450765744,24
1530450767186,24
1530450768514,24
1530450769844,24
1530450771123,24
1530450772406,24
1530450773768,24
1530450775027,24
1530450776294,24
1530450777598,24
1530450778932,24
1530450780215,24
1530450781487,24
1530450782813,24
1530450784069,24
1530450785364,24
1530450786642,24
1530450787952,24
1530450789257,24
1530450790530,24
1530450791801,24
1530450793256,24
1530450794551,24
1530450795831,24
1530450797137,24
1530450798453,24
1530450799774,24
1530450801036,24
1530450802339,24
1530450803668,24
1530450805070,24
1530450806333,24
1530450807585,24
1530450808892,24
1530450810189,24
1530450811465,24
1530450812750,24
1530450814049,24
1530450815322,24
1530450816624,24
1530450817907,24
1530450819234,24
1530450820511,24
1530450821745,24
1530450823149,24
1530450824415,24
1530450825669,24
1530450827015,24
1530450828322,24
1530450829583,24
1530450830849,24
1530450832106,24
1530450833344,24
1530450834611,24
1530450835986,24
1530450837320,24
1530450838628,24
1530450839906,24
1530450841176,24
1530450842494,24
1530450843818,24
1530450845102,24
1530450846320,24
1530450847689,24
1530450848937,24
1530450850193,24
1530450851427,24
1530450852750,24
1530450854297,24
1530450855582,24
1530450856857,24
1530450858114,24
1530450859392,24
1530450860724,24
1530450862010,24
1530450863335,24
1530450864644,24
1530450865988,24
1530450867251,24
1530450868561,24
1530450869867,24
1530450871124,24
1530450872446,24
1530450873805,24
1530450875059,24
1530450876314,24
1530450877571,24
1530450878885,24
1530450880149,24
1530450882155,24
1530450883435,24
1530450884850,24
1530450886134,24
1530450887367,24
1530450888628,24
1530450889897,24
1530450891197,24
1530450892477,24
1530450893733,24
1530450895011,24
1530450896378,24
1530450897657,24
1530450898958,24
1530450900273,24
1530450901553,24
1530450902994,24
1530450904270,24
1530450905517,24
1530450906771,24
1530450908024,24
1530450909289,24
1530450910596,24
1530450911878,24
1530450913162,24
1530450914442,24
1530450915870,24
1530450917141,24
1530450918437,24
1530450919787,24
1530450921110,24
1530450922377,24
1530450923631,24
1530450924954,24
1530450926339,24
1530450927631,24
1530450928898,24
1530450930231,24
1530450931504,24
1530450932772,24
1530450934108,24
1530450935368,24
1530450936735,24
1530450937994,24
1530450939256,24
1530450940531,24
1530450941847,24
1530450943126,24
1530450944427,24
1530450945831,24
1530450947075,24
1530450948304,24
1530450949565,24
1530450950857,24
1530450952139,24
1530450953488,24
1530450954729,24
1530450956013,24
1530450957340,24
1530450958611,24
1530450959924,24
1530450961216,24
1530450962495,24
1530450963828,24
1530450965212,24
1530450966485,24
1530450967869,24
1530450969162,24
1530450970422,24
1530450971691,24
1530450972923,24
1530450974167,24
1530450975418,24
1530450976841,24
1530450978143,24
1530450979390,24
1530450980688,24
1530450981962,24
1530450983200,24
1530450984499,24
1530450985861,24
1530450987287,24
1530450988814,24
1530450990204,24
1530450991497,24
1530450992963,24
1530450994298,24
1530450995716,24
1530450997417,24
1530450998846,24
1530451000135,24
1530451001593,24
1530451003007,24
1530451004394,24
1530451006058,24
1530451007490,24
1530451008879,24
1530451010272,24
1530451011768,24
1530451013327,24
1530451014819,24
1530451016143,24
1530451017528,24
1530451019014,24
1530451020295,24
1530451021861,18
1530451023767,18
1530451024904,18
1530451026018,18
1530451027195,18
1530451028254,18
1530451029335,18
1530451030387,18
1530451032106,18
1530451033122,18
1530451034212,18
1530451035303,18
1530451036440,18
1530451037559,18
1530451038636,18
1530451039796,18
1530451040936,24
1530451042626,24
1530451044473,24
1530451046007,24
1530451047525,24
1530451049431,24
1530451050678,24
1530451051990,24
1530451054374,24
1530451057240,24
1530451058569,24
1530451059901,24
1530451061149,24
1530451062445,24
1530451063742,24
1530451065080,24
1530451066338,24
1530451067731,24
1530451068990,24
1530451070260,24
1530451071532,24
1530451072809,24
1530451074197,24
1530451075493,24
1530451076813,24
1530451078085,24
1530451079346,24
1530451080688,24
1530451082064,24
1530451083390,24
1530451084811,24
1530451086183,24
1530451087705,24
1530451089062,24
1530451090501,24
1530451092174,24
1530451093670,24
1530451095276,24
1530451096567,24
1530451098635,24
1530451099918,24
1530451101245,24
1530451102566,24
1530451103883,24
1530451105169,24
1530451106592,24
1530451107817,24
1530451109184,24
1530451110457,24
1530451111776,24
1530451113004,24
1530451114262,24
1530451115543,24
1530451116883,24
1530451118123,24
1530451119400,24
1530451120686,24
1530451121971,24
1530451123283,24
1530451124571,24
1530451125838,24
1530451127129,24
1530451128547,24
1530451129837,24
1530451131127,24
1530451132379,24
1530451133633,24
1530451134868,24
1530451136136,24
1530451137417,24
1530451138672,24
1530451140030,24
1530451141269,24
1530451142504,24
1530451143814,24
1530451145060,24
1530451146346,24
1530451147620,24
1530451148920,24
1530451150106,24
1530451151401,24
1530451152680,24
1530451153965,24
1530451155281,24
1530451156541,24
1530451157819,24
1530451159278,24
1530451160556,24
1530451161896,24
1530451163202,24
1530451164480,24
1530451165749,24
1530451167003,24
1530451168257,24
1530451169579,24
1530451170954,24
1530451172245,24
1530451173547,24
1530451174865,24
1530451176200,24
1530451177558,24
1530451178859,24
1530451180162,24
1530451181463,24
1530451182753,24
1530451184113,24
1530451185534,24
1530451186804,24
1530451188093,24
1530451189532,24
1530451190820,24
1530451192103,24
1530451193441,24
1530451194737,24
1530451196137,24
1530451197519,24
1530451198826,24
1530451200093,24
1530451201504,24
1530451202803,24
1530451204127,24
1530451205405,24
1530451206801,24
1530451208040,24
1530451209360,24
1530451210588,24
1530451211868,24
1530451213130,24
1530451214495,24
1530451215763,24
1530451217047,24
1530451218349,24
1530451219819,24
1530451221134,24
1530451222416,24
1530451223668,24
1530451224938,24
1530451226179,24
1530451227475,24
1530451228765,24
1530451230050,24
1530451231409,24
1530451232769,24
1530451234079,24
1530451235413,24
1530451236801,24
1530451238228,24
1530451239495,24
1530451240823,24
1530451242137,24
1530451243434,24
1530451244684,24
1530451245983,24
1530451247244,24
1530451248490,24
1530451249912,24
1530451251225,24
1530451252481,24
1530451253776,24
1530451255067,24
1530451256332,24
1530451257627,24
1530451258923,24
1530451260266,24
1530451261637,24
1530451263026,24
1530451264326,24
1530451265597,24
1530451266923,24
1530451268233,24
1530451269498,24
1530451270776,24
1530451272091,24
1530451273340,24
1530451274649,24
1530451275949,24
1530451277246,24
1530451278539,24
1530451279968,24
1530451281255,24
1530451282509,24
1530451283792,24
1530451285128,24
1530451286449,24
1530451287753,24
1530451289000,24
1530451290384,24
1530451291756,24
1530451293073,24
1530451294340,24
1530451295608,24
1530451296951,24
1530451298341,24
1530451299675,24
1530451300978,24
1530451302292,24
1530451303581,24
1530451304895,24
1530451306150,24
1530451307433,24
1530451308723,24
1530451310154,24
1530451311407,24
1530451312688,24
1530451314009,24
1530451315302,24
1530451316694,24
1530451318143,24
1530451319586,24
1530451320942,24
1530451322325,24
1530451323803,24
1530451325155,24
1530451326586,24
1530451328277,24
1530451329587,24
1530451330897,24
1530451332348,24
1530451333709,24
1530451335096,24
1530451336901,24
1530451338290,24
1530451339672,24
1530451341318,24
1530451342646,24
1530451344237,24
1530451345659,24
1530451346915,24
1530451348297,24
1530451349677,24
1530451350935,22
1530451352751,18
1530451353769,18
1530451354819,18
1530451355903,18
1530451356979,18
1530451358051,18
1530451359124,18
1530451360168,18
1530451361186,18
1530451362205,18
1530451363243,18
1530451364266,18
1530451365378,18
1530451366532,18
1530451367641,18
1530451368635,18
1530451369752,18
1530451370843,23
1530451372450,24
1530451373946,24
1530451375473,24
1530451377077,24
1530451378573,24
1530451379827,24
1530451381281,24
1530451383314,24
1530451385923,24
1530451387132,24
1530451388496,24
1530451389695,24
1530451390852,24
1530451392051,24
1530451393333,24
1530451394559,24
1530451395756,24
1530451397058,24
1530451398348,24
1530451399605,24
1530451400961,24
1530451402207,24
1530451403450,24
1530451404744,24
1530451406039,24
1530451407278,24
1530451408565,24
1530451409835,24
1530451411051,24
1530451412247,24
1530451413477,24
1530451414812,24
1530451416306,24
1530451417752,24
1530451419113,24
1530451420477,24
1530451421846,24
1530451423500,24
1530451424842,24
1530451426281,24
1530451427660,24
1530451428992,24
1530451430235,24
1530451431591,24
1530451432935,24
1530451434171,24
1530451435397,24
1530451436656,24
1530451437902,24
1530451439215,24
1530451440460,24
1530451441761,24
1530451443080,24
1530451444392,24
1530451445672,24
1530451447000,24
1530451448393,24
1530451449704,24
1530451450953,24
1530451452174,24
1530451453409,24
1530451454644,24
1530451455974,24
1530451457244,24
1530451458518,24
1530451459785,24
1530451461023,24
1530451462352,24
1530451463670,24
1530451464957,24
1530451466178,24
1530451467424,24
1530451468745,24
1530451470027,24
1530451471288,24
1530451472543,24
1530451473949,24
1530451475191,24
1530451476463,24
1530451477742,24
1530451479068,24
1530451480468,24
1530451481767,24
1530451483057,24
1530451484396,24
1530451485696,24
1530451486956,24
1530451488229,24
1530451489497,24
1530451490790,24
1530451492083,24
1530451493580,24
1530451494878,24
1530451496256,24
1530451497521,24
1530451498807,24
1530451500085,24
1530451501332,24
1530451503448,24
1530451504837,24
1530451506171,24
1530451507442,24
1530451508798,24
1530451510139,24
1530451511439,24
1530451512699,24
1530451514095,24
1530451515360,24
1530451516644,24
1530451517950,24
1530451519253,24
1530451520559,24
1530451521864,24
1530451523131,24
1530451524554,24
1530451525803,24
1530451527075,24
1530451528326,24
1530451529601,24
1530451530852,24
1530451532083,24
1530451533367,24
1530451534735,24
1530451536043,24
1530451537435,24
1530451538707,24
1530451540174,24
1530451541478,24
1530451542765,24
1530451544044,24
1530451545349,24
1530451546638,24
1530451547915,24
1530451549177,24
1530451550467,24
1530451551752,24
1530451552984,24
1530451554233,24
1530451555658,24
1530451556913,24
1530451558212,24
1530451559469,24
1530451560732,24
1530451562069,24
1530451563303,24
1530451564620,24
1530451565944,24
1530451567234,24
1530451568569,24
1530451569841,24
1530451571152,24
1530451572422,24
1530451573698,24
1530451574950,24
1530451576214,24
1530451577458,24
1530451578774,24
1530451580077,24
1530451581412,24
1530451582684,24
1530451583909,24
1530451585219,24
1530451586635,24
1530451587903,24
1530451589156,24
1530451590465,24
1530451591775,24
1530451593077,24
1530451594334,24
1530451595664,24
1530451597036,24
1530451598327,24
1530451599706,24
1530451600983,24
1530451602265,24
1530451603526,24
1530451604787,24
1530451606083,24
1530451607370,24
1530451608653,24
1530451609909,24
1530451611175,24
1530451612513,24
1530451613769,24
1530451615057,24
1530451616423,24
1530451617808,24
1530451619086,24
1530451620315,24
1530451621652,24
1530451622932,24
1530451624468,24
1530451625724,24
1530451627128,24
1530451628422,24
1530451629704,24
1530451631072,24
1530451632333,24
1530451633610,24
1530451634871,24
1530451636095,24
1530451637334,24
1530451638660,24
1530451639982,24
1530451641270,24
1530451642530,24
1530451643901,24
1530451645291,24
1530451646870,24
1530451648406,24
1530451649738,24
1530451651087,24
1530451652513,24
1530451653926,24
1530451655581,24
1530451657170,24
1530451658665,24
1530451659968,24
1530451661463,24
1530451662892,24
1530451664229,24
1530451666044,24
1530451667434,24
1530451668717,24
1530451670214,24
1530451671596,24
1530451673090,24
1530451674756,24
1530451676122,24
1530451677558,24
1530451679130,24
1530451680418,22
1530451682151,18
1530451683254,18
1530451684293,18
1530451685467,18
1530451686644,18
1530451687813,18
1530451688904,18
1530451689906,18
1530451690932,18
1530451692072,18
1530451693137,18
1530451694250,18
1530451695395,18
1530451696571,18
1530451697606,18
1530451698716,18
1530451699813,20
1530451700953,24
1530451702827,24
1530451704713,24
1530451706171,24
1530451708041,24
1530451709509,24
1530451710762,24
1530451713273,24
1530451714980,24
1530451716847,24
1530451718196,24
1530451719467,24
1530451720826,24
1530451722176,24
1530451723477,24
1530451724759,24
1530451726037,24
1530451727295,24
1530451728519,24
1530451729838,24
1530451731203,24
1530451732567,24
1530451733856,24
1530451735105,24
1530451736397,24
1530451737720,24
1530451738992,24
1530451740216,24
1530451741481,24
1530451742900,24
1530451744233,24
1530451745562,24
1530451746974,24
1530451748575,24
1530451750294,24
1530451751959,24
1530451753410,24
1530451754748,24
1530451756452,24
1530451757898,24
1530451759185,24
1530451760518,24
1530451761805,24
1530451763110,24
1530451764411,24
1530451765698,24
1530451766969,24
1530451768322,24
1530451769630,24
1530451770952,24
1530451772289,24
1530451773614,24
1530451774917,24
1530451776243,24
1530451777510,24
1530451778948,24
1530451780251,24
1530451781564,24
1530451782966,24
1530451784297,24
1530451785513,24
1530451786822,24
1530451788085,24
1530451789367,24
1530451790627,24
1530451791887,24
1530451793168,24
1530451794460,24
1530451795902,24
1530451797299,24
1530451798662,24
1530451799943,24
1530451801332,24
1530451802654,24
1530451803941,24
1530451805240,24
1530451806554,24
1530451807852,24
1530451809202,24
1530451810509,24
1530451811781,24
1530451813108,24
1530451814359,24
1530451815644,24
1530451816923,24
1530451818274,24
1530451819608,24
1530451820893,24
1530451822173,24
1530451823470,24
1530451824754,24
1530451826050,24
1530451827307,24
1530451828654,24
1530451829899,24
1530451831198,24
1530451832479,24
1530451833751,24
1530451835025,24
1530451836339,24
1530451837727,24
1530451839076,24
1530451840372,24
1530451841724,24
1530451843179,24
1530451844644,24
1530451846009,24
1530451847290,24
1530451848564,24
1530451849857,24
1530451851163,24
1530451852428,24
1530451853754,24
1530451855083,24
1530451856384,24
1530451857665,24
1530451858997,24
1530451860329,24
1530451861688,24
1530451863007,24
1530451864299,24
1530451865621,24
1530451866933,24
1530451868235,24
1530451869636,24
1530451870961,24
1530451872302,24
1530451873697,24
1530451874951,24
1530451876233,24
1530451877516,24
1530451878846,24
1530451880123,24
1530451881409,24
1530451882778,24
1530451884054,24
1530451885366,24
1530451886655,24
1530451888015,24
1530451889426,24
1530451890782,24
1530451892141,24
1530451893392,24
1530451894684,24
1530451896003,24
1530451897342,24
1530451898700,24
1530451900082,24
1530451901373,24
1530451902760,24
1530451904147,24
1530451905460,24
1530451906776,24
1530451908097,24
1530451909436,24
1530451910759,24
1530451912050,24
1530451913367,24
1530451914675,24
1530451915937,24
1530451917269,24
1530451918613,24
1530451919963,24
1530451921229,24
1530451922622,24
1530451923903,24
1530451925161,24
1530451926412,24
1530451927688,24
1530451928965,24
1530451930384,24
1530451931663,24
1530451932969,24
1530451934280,24
1530451935581,24
1530451936879,24
1530451938158,24
1530451939466,24
1530451940785,24
1530451942067,24
1530451943371,24
1530451944635,24
1530451945908,24
1530451947211,24
1530451948495,24
1530451949971,24
1530451951224,24
1530451953630,24
1530451954922,24
1530451956249,24
1530451957607,24
1530451958927,24
1530451960323,24
1530451961592,24
1530451962955,24
1530451964293,24
1530451965682,24
1530451966985,24
1530451968280,24
1530451969553,24
1530451970850,24
1530451972134,24
1530451973417,24
1530451974673,24
1530451976048,24
1530451977470,24
1530451978962,24
1530451980420,24
1530451981811,24
1530451983237,24
1530451984676,24
1530451986043,24
1530451987797,24
1530451989263,24
1530451990634,24
1530451992112,24
1530451993563,24
1530451994918,24
1530451996705,24
1530451998125,24
1530451999399,24
1530452000852,24
1530452002235,24
1530452003578,24
1530452005341,24
1530452006699,24
1530452008040,24
1530452009425,24
1530452010845,24
1530452012388,18
1530452013684,18
1530452014724,18
1530452015777,18
1530452016877,18
1530452017979,18
1530452019127,18
1530452020146,18
1530452021213,18
1530452022177,18
1530452023175,18
1530452024192,18
1530452025399,18
1530452026437,18
1530452027566,18
1530452028599,18
1530452029654,18
1530452030732,20
1530452032045,24
1530452033818,24
1530452035298,24
1530452037022,24
1530452038401,24
1530452039807,24
1530452041399,24
1530452042966,24
1530452044524,24
1530452046671,24
1530452047943,24
1530452049288,24
1530452050579,24
1530452051810,24
1530452053095,24
1530452054460,24
1530452055875,24
1530452057120,24
1530452058387,24
1530452059643,24
1530452060916,24
1530452062224,24
1530452063449,24
1530452064668,24
1530452065929,24
1530452067152,24
1530452068414,24
1530452069622,24
1530452071117,24
1530452072321,24
1530452073780,24
1530452075121,24
1530452076467,24
1530452077947,24
1530452079383,24
1530452080905,24
1530452082310,24
1530452084297,24
1530452085734,24
1530452087057,24
1530452088417,24
1530452089775,24
1530452091185,24
1530452092494,24
1530452093723,24
1530452095043,24
1530452096405,24
1530452097701,24
1530452099046,24
1530452100431,24
1530452101701,24
1530452103091,24
1530452104424,24
1530452105777,24
1530452107144,24
1530452108449,24
1530452109777,24
1530452111059,24
1530452112389,24
1530452113667,24
1530452114942,24
1530452116403,24
1530452117706,24
1530452119128,24
1530452120336,24
1530452121561,24
1530452122820,24
1530452124174,24
1530452125418,24
1530452126702,24
1530452128037,24
1530452129398,24
1530452130726,24
1530452132062,24
1530452133347,24
1530452134600,24
1530452135976,24
1530452137334,24
1530452138635,24
1530452139866,24
1530452141129,24
1530452142467,24
1530452143735,24
1530452144975,24
1530452146314,24
1530452147591,24
1530452148873,24
1530452150142,24
1530452151361,24
1530452152626,24
1530452153843,24
1530452155119,24
1530452156396,24
1530452157652,24
1530452158909,24
1530452160149,24
1530452161509,24
1530452162784,24
1530452164084,24
1530452165330,24
1530452166680,24
1530452167998,24
1530452169299,24
1530452170589,24
1530452171865,24
1530452173199,24
1530452174431,24
1530452175665,24
1530452176992,24
1530452178228,24
1530452179514,24
1530452180780,24
1530452182010,24
1530452183302,24
1530452184572,24
1530452185764,24
1530452187013,24
1530452188272,24
1530452189518,24
1530452190805,24
1530452192180,24
1530452193460,24
1530452194733,24
1530452196010,24
1530452197396,24
1530452198665,24
1530452199919,24
1530452201172,24
1530452202409,24
1530452203721,24
1530452205010,24
1530452206332,24
1530452207639,24
1530452208897,24
1530452210267,24
1530452211564,24
1530452212883,24
1530452214182,24
1530452215446,24
1530452216695,24
1530452217984,24
1530452219302,24
1530452220679,24
1530452222089,24
1530452223352,24
1530452224755,24
1530452225997,24
1530452227383,24
1530452228664,24
1530452229933,24
1530452231225,24
1530452232498,24
1530452233875,24
1530452235253,24
1530452236623,24
1530452237875,24
1530452239119,24
1530452240394,24
1530452241685,24
1530452242996,24
1530452244303,24
1530452245576,24
1530452246843,24
1530452248074,24
1530452249371,24
1530452250603,24
1530452251882,24
1530452253192,24
1530452254468,24
1530452255763,24
1530452256989,24
1530452258367,24
1530452259648,24
1530452260962,24
1530452262261,24
1530452263560,24
1530452264932,24
1530452266217,24
1530452267601,24
1530452268880,24
1530452270144,24
1530452271428,24
1530452272736,24
1530452274007,24
1530452275267,24
1530452276583,24
1530452277901,24
1530452279202,24
1530452280469,24
1530452281717,24
1530452283007,24
1530452284406,24
1530452285666,24
1530452286943,24
1530452288345,24
1530452289724,24
1530452291002,24
1530452292233,24
1530452293502,24
1530452294829,24
1530452296080,24
1530452297427,24
1530452298706,24
1530452299953,24
1530452301210,24
1530452302511,24
1530452303835,24
1530452305081,24
1530452306356,24
1530452307650,24
1530452308890,24
1530452310242,24
1530452311472,24
1530452314131,24
1530452315511,24
1530452316828,24
1530452318135,24
1530452319505,24
1530452320796,24
1530452322080,24
1530452323365,24
1530452324620,24
1530452326082,24
1530452327360,24
1530452328647,24
1530452329924,24
1530452331171,24
1530452332486,24
1530452333761,24
1530452335026,24
1530452336289,24
1530452337602,24
1530452338923,24
1530452340169,24
1530452341430,24
1530452342720,24
1530452343983,24
1530452345344,24
1530452346632,24
1530452347918,24
1530452349259,24
1530452350603,24
1530452351944,24
1530452353296,24
1530452354672,24
1530452356043,24
1530452357382,24
1530452358885,24
1530452360304,24
1530452361636,24
1530452363355,24
1530452364691,24
1530452366005,24
1530452367457,24
1530452368858,24
1530452370244,24
1530452372051,24
1530452373484,24
1530452374829,24
1530452376315,24
1530452377648,25
1530452379259,24
1530452380799,24
1530452382109,24
1530452383445,24
1530452384871,24
1530452386155,24
1530452387803,18
1530452388996,18
1530452390161,18
1530452391363,18
1530452392493,18
1530452393623,18
1530452394707,18
1530452395920,18
1530452396993,18
1530452398124,18
1530452399152,