time,instances
1538984610639,18
1538984613742,18
1538984616169,18
1538984617997,18
1538984619577,18
1538984621275,18
1538984622705,18
1538984624089,18
1538984625423,18
1538984626823,18
1538984627993,18
1538984629208,18
1538984630332,18
1538984631570,18
1538984632805,18
1538984634315,18
1538984635371,18
1538984636614,18
1538984637700,18
1538984638899,18
1538984640199,18
1538984641309,18
1538984642464,18
1538984643696,18
1538984644784,18
1538984645902,18
1538984647132,18
1538984648378,18
1538984649537,18
1538984650945,18
1538984652395,18
1538984653768,18
1538984654974,18
1538984656067,18
1538984657396,18
1538984658518,18
1538984659732,18
1538984660876,18
1538984662183,18
1538984663501,18
1538984664690,18
1538984665725,18
1538984666831,18
1538984667893,18
1538984668944,18
1538984670713,18
1538984671800,18
1538984672935,18
1538984674067,18
1538984675122,18
1538984676327,18
1538984677516,18
1538984678552,18
1538984679628,18
1538984680707,18
1538984681991,18
1538984683308,18
1538984684520,18
1538984685591,18
1538984686728,18
1538984687788,18
1538984688944,18
1538984689970,18
1538984691080,18
1538984692138,18
1538984693163,18
1538984694232,18
1538984695536,18
1538984696625,18
1538984697633,18
1538984698723,18
1538984699746,18
1538984701030,18
1538984702079,18
1538984703233,18
1538984704323,18
1538984705344,18
1538984706376,18
1538984707405,18
1538984708458,18
1538984709485,18
1538984710491,18
1538984711539,18
1538984712688,18
1538984713977,18
1538984715141,18
1538984716165,18
1538984717199,18
1538984718196,18
1538984719315,18
1538984720506,18
1538984721533,18
1538984722684,18
1538984723717,18
1538984724868,18
1538984725848,18
1538984726910,18
1538984727936,18
1538984729125,18
1538984730737,18
1538984732093,18
1538984733182,18
1538984734342,18
1538984735437,18
1538984736513,18
1538984737554,18
1538984738739,18
1538984739774,18
1538984740952,18
1538984742129,18
1538984743165,18
1538984744526,18
1538984745567,18
1538984746695,18
1538984747743,18
1538984748756,18
1538984749795,18
1538984750912,18
1538984752213,18
1538984753308,18
1538984754328,18
1538984755527,18
1538984756559,18
1538984757574,18
1538984758708,18
1538984759845,18
1538984760847,18
1538984762237,18
1538984763630,18
1538984764796,18
1538984765887,18
1538984766935,18
1538984767935,18
1538984769045,18
1538984770157,18
1538984771363,18
1538984772549,18
1538984773678,18
1538984775046,18
1538984776170,18
1538984777300,18
1538984778427,18
1538984784629,18
1538984786089,18
1538984787113,18
1538984788089,18
1538984789126,18
1538984790156,18
1538984791153,18
1538984792270,18
1538984793530,18
1538984794833,18
1538984795868,18
1538984796900,18
1538984797899,18
1538984798936,18
1538984800114,18
1538984801152,18
1538984802220,18
1538984803214,18
1538984804413,18
1538984805757,18
1538984806924,18
1538984808045,18
1538984810713,18
1538984811724,18
1538984812768,18
1538984813860,18
1538984815049,18
1538984816260,18
1538984817292,18
1538984818258,18
1538984819267,18
1538984820287,18
1538984821461,18
1538984822483,18
1538984823870,18
1538984824985,18
1538984826031,18
1538984827052,18
1538984828070,18
1538984829062,18
1538984830086,18
1538984831136,18
1538984832186,18
1538984833235,18
1538984834267,18
1538984835337,18
1538984836496,18
1538984837508,18
1538984838587,18
1538984839624,18
1538984840630,18
1538984841680,18
1538984842748,18
1538984843756,18
1538984844729,18
1538984845728,18
1538984846875,18
1538984848018,18
1538984849119,18
1538984850186,18
1538984851295,18
1538984852380,18
1538984853444,18
1538984854864,18
1538984856080,18
1538984857161,18
1538984858169,18
1538984859216,18
1538984860263,18
1538984861328,18
1538984862360,18
1538984863369,18
1538984864425,18
1538984865569,18
1538984866584,18
1538984867928,18
1538984868957,18
1538984869976,18
1538984871011,18
1538984872110,18
1538984873296,18
1538984874377,18
1538984875363,18
1538984876420,18
1538984877452,18
1538984878451,18
1538984879511,18
1538984880589,18
1538984881652,18
1538984882843,18
1538984883837,18
1538984884888,18
1538984886127,18
1538984887109,18
1538984888181,18
1538984889246,18
1538984890242,18
1538984891462,18
1538984892507,18
1538984893551,18
1538984894584,18
1538984896017,18
1538984897200,18
1538984898745,18
1538984899783,18
1538984900839,18
1538984901864,18
1538984902908,18
1538984903972,18
1538984905035,18
1538984906116,18
1538984907204,18
1538984908226,18
1538984909254,18
1538984910299,18
1538984911332,18
1538984912380,18
1538984913514,18
1538984914568,18
1538984915660,18
1538984916845,18
1538984917967,18
1538984919058,18
1538984920153,18
1538984921173,18
1538984922397,18
1538984923473,18
1538984924459,