time,instances
1529341693200,22
1529341695591,24
1529341698221,24
1529341700005,24
1529341701323,24
1529341702654,24
1529341703989,24
1529341705449,24
1529341706973,24
1529341708487,24
1529341709883,24
1529341711230,24
1529341712714,24
1529341714196,24
1529341715504,24
1529341716792,24
1529341718104,24
1529341719431,24
1529341720774,24
1529341722056,24
1529341723368,24
1529341725007,24
1529341726361,24
1529341727655,24
1529341729012,24
1529341730369,24
1529341731708,24
1529341733045,24
1529341734547,24
1529341736155,24
1529341737486,24
1529341738807,24
1529341740179,24
1529341741482,24
1529341742843,24
1529341744279,24
1529341745615,24
1529341747495,24
1529341748903,24
1529341750295,24
1529341751665,24
1529341753033,24
1529341754470,24
1529341755908,24
1529341757224,24
1529341758578,24
1529341760098,24
1529341761468,24
1529341762911,24
1529341764322,24
1529341765735,24
1529341767124,24
1529341768397,24
1529341769836,24
1529341771223,24
1529341772563,24
1529341773961,24
1529341775318,24
1529341776811,24
1529341778199,24
1529341779633,24
1529341781014,24
1529341782334,24
1529341783678,24
1529341785019,24
1529341786521,24
1529341787828,24
1529341789220,24
1529341790558,24
1529341791895,24
1529341793198,24
1529341794508,24
1529341795891,24
1529341797225,24
1529341798550,24
1529341799840,24
1529341801252,24
1529341802634,24
1529341803991,24
1529341805403,24
1529341806741,24
1529341808152,24
1529341809447,24
1529341810757,24
1529341812075,24
1529341813463,24
1529341814840,24
1529341816380,24
1529341817770,24
1529341819055,24
1529341820398,24
1529341821824,24
1529341823624,26
1529341825241,22
1529341826683,22
1529341827891,22
1529341829136,22
1529341830412,22
1529341831649,22
1529341832852,22
1529341834088,22
1529341835289,22
1529341836514,22
1529341837733,22
1529341839124,22
1529341840337,22
1529341841574,22
1529341842830,22
1529341844119,22
1529341845368,22
1529341846827,22
1529341848052,22
1529341849293,22
1529341850583,22
1529341851772,22
1529341852960,22
1529341854232,22
1529341855451,22
1529341856652,22
1529341857835,22
1529341859067,22
1529341860325,22
1529341861540,22
1529341862780,22
1529341863996,22
1529341865228,22
1529341866438,22
1529341867757,22
1529341868982,22
1529341870396,22
1529341871621,22
1529341872848,22
1529341874076,22
1529341875283,22
1529341876752,22
1529341877944,22
1529341879128,22
1529341880342,22
1529341881518,22
1529341882724,22
1529341883935,22
1529341885165,22
1529341886395,22
1529341887601,22
1529341888793,22
1529341890045,22
1529341891286,22
1529341892534,22
1529341893768,22
1529341895016,22
1529341896197,22
1529341897447,22
1529341898674,22
1529341899919,22
1529341901135,22
1529341902290,22
1529341903492,22
1529341904690,22
1529341905878,22
1529341907283,22
1529341908457,22
1529341909640,22
1529341910873,22
1529341912281,24
1529341913827,24
1529341915311,20
1529341916869,20
1529341918016,20
1529341919076,20
1529341920173,20
1529341921275,20
1529341922377,20
1529341923448,20
1529341924532,20
1529341925712,20
1529341926806,20
1529341927971,20
1529341929043,20
1529341930116,20
1529341931212,20
1529341932336,20
1529341933433,20
1529341934503,20
1529341935584,20
1529341936721,20
1529341938090,20
1529341939200,20
1529341940256,20
1529341941339,20
1529341942484,20
1529341943639,20
1529341944775,20
1529341945883,20
1529341947018,20
1529341948139,20
1529341949215,20
1529341950312,20
1529341951435,20
1529341952555,20
1529341953652,20
1529341954759,20
1529341955833,20
1529341956919,20
1529341958019,20
1529341959103,20
1529341960231,20
1529341961461,20
1529341962633,20
1529341963798,20
1529341964884,20
1529341966023,20
1529341967090,20
1529341968422,20
1529341969532,20
1529341970645,20
1529341971731,20
1529341972901,20
1529341974099,20
1529341975233,20
1529341976339,20
1529341977474,20
1529341978578,20
1529341979703,20
1529341980813,20
1529341981904,20
1529341983072,20
1529341984232,20
1529341985357,20
1529341986453,20
1529341987595,20
1529341988691,20
1529341989814,20
1529341990948,20
1529341992046,20
1529341993112,20
1529341994230,20
1529341995302,20
1529341996466,20
1529341997595,20
1529341998951,20
1529342000100,20
1529342001228,20
1529342002409,20
1529342003504,20
1529342004621,20
1529342005690,20
1529342006779,20
1529342007891,20
1529342009027,20
1529342010113,20
1529342011188,20
1529342012261,20
1529342013368,20
1529342014444,20
1529342015513,20
1529342016613,20
1529342017704,20
1529342018838,20
1529342019990,20
1529342021071,20
1529342022164,20
1529342023280,20
1529342024386,20
1529342025496,20
1529342026607,20
1529342027708,20
1529342029079,20
1529342030216,20
1529342031363,20
1529342032432,20
1529342033545,20
1529342034672,20
1529342035739,20
1529342036866,20
1529342037940,20
1529342039013,20
1529342040153,20
1529342041272,20
1529342042378,20
1529342043490,20
1529342044565,20
1529342045664,20
1529342046792,20
1529342047959,20
1529342049065,20
1529342050212,20
1529342051369,20
1529342052545,20
1529342053712,20
1529342054888,20
1529342056033,20
1529342057177,20
1529342058255,20
1529342059600,20
1529342060719,20
1529342061842,20
1529342062960,20
1529342064075,20
1529342065213,20
1529342066315,20
1529342067451,20
1529342068624,20
1529342069821,20
1529342070995,20
1529342072085,20
1529342073221,20
1529342074387,20
1529342075552,20
1529342076713,20
1529342077846,20
1529342079043,20
1529342080161,20
1529342081339,20
1529342082467,20
1529342083627,20
1529342084768,20
1529342085920,20
1529342087045,20
1529342088197,20
1529342089584,20
1529342090752,20
1529342091888,20
1529342093046,20
1529342094160,20
1529342095303,20
1529342096437,20
1529342097580,20
1529342098771,20
1529342099930,20
1529342101052,20
1529342102242,20
1529342103411,20
1529342104559,20
1529342105687,20
1529342106806,20
1529342107963,20
1529342109064,20
1529342110225,20
1529342111386,20
1529342112648,20
1529342113838,20
1529342114968,20
1529342116092,20
1529342117231,20
1529342118368,20
1529342119726,20
1529342120909,20
1529342122057,20
1529342123260,20
1529342124460,20
1529342125590,20
1529342126716,20
1529342127875,20
1529342129055,20
1529342130238,20
1529342131329,20
1529342132452,20
1529342133607,20
1529342134759,20
1529342135863,20
1529342136969,20
1529342138078,20
1529342139395,20
1529342140810,20
1529342142301,20
1529342143743,18
1529342144838,18
1529342145920,18
1529342147012,18
1529342148048,18
1529342149147,22
1529342150730,24
1529342152574,24
1529342153848,24
1529342155117,24
1529342156424,24
1529342157700,24
1529342158970,24
1529342160203,24
1529342161510,24
1529342163191,24
1529342164475,24
1529342165765,24
1529342167037,24
1529342168559,24
1529342169836,24
1529342171174,24
1529342172524,24
1529342173830,24
1529342175128,24
1529342176388,24
1529342177642,24
1529342178888,24
1529342180199,24
1529342181633,24
1529342182944,24
1529342184260,24
1529342185557,24
1529342186812,24
1529342188097,24
1529342189572,24
1529342190888,24
1529342192337,24
1529342193697,24
1529342195123,24
1529342196466,24
1529342197971,24
1529342199364,24
1529342200730,24
1529342202034,24
1529342203360,24
1529342204738,24
1529342206053,24
1529342207303,24
1529342208571,24
1529342209836,24
1529342211223,24
1529342212651,24
1529342214034,24
1529342215677,24
1529342216983,24
1529342218332,24
1529342219811,24
1529342221124,24
1529342222437,24
1529342223744,24
1529342225030,24
1529342226578,24
1529342227905,24
1529342229200,24
1529342230425,24
1529342231706,24
1529342232968,24
1529342234273,24
1529342235622,24
1529342236922,24
1529342238255,24
1529342239521,24
1529342240852,24
1529342242291,24
1529342243653,24
1529342244895,24
1529342246183,24
1529342247474,24
1529342248758,24
1529342250036,24
1529342251320,24
1529342252652,24
1529342253921,24
1529342255196,24
1529342256488,24
1529342257849,24
1529342259147,24
1529342260468,24
1529342262207,26
1529342263771,26
1529342265525,22
1529342266927,22
1529342268276,22
1529342269502,22
1529342270730,22
1529342272084,22
1529342273386,22
1529342274679,22
1529342275878,22
1529342277115,22
1529342278392,22
1529342279584,22
1529342280800,22
1529342282043,22
1529342283295,22
1529342284544,22
1529342285768,22
1529342286988,22
1529342288218,22
1529342289491,22
1529342290737,22
1529342291971,22
1529342293320,22
1529342294820,22
1529342296392,22
1529342298033,20
1529342299193,20
1529342300308,20
1529342301462,20
1529342302655,20
1529342303883,20
1529342305067,20
1529342306133,20
1529342307232,20
1529342308385,20
1529342309519,20
1529342310618,20
1529342311762,20
1529342312856,20
1529342313959,20
1529342315103,20
1529342316225,20
1529342317315,20
1529342318381,20
1529342319506,20
1529342320589,20
1529342321727,20
1529342322873,20
1529342323995,20
1529342325133,20
1529342326278,20
1529342327380,20
1529342328495,20
1529342329642,20
1529342330809,20
1529342331894,20
1529342333096,20
1529342334305,20
1529342335525,20
1529342336661,20
1529342337797,20
1529342338935,20
1529342340062,20
1529342341227,20
1529342342369,20
1529342343548,20
1529342344645,20
1529342345756,20
1529342346857,20
1529342347977,20
1529342349091,20
1529342350184,20
1529342351290,20
1529342352397,20
1529342353468,20
1529342354541,20
1529342355621,20
1529342356710,20
1529342357824,20
1529342358947,20
1529342360118,20
1529342361302,20
1529342362452,20
1529342363656,20
1529342365362,20
1529342366524,20
1529342367645,20
1529342368781,20
1529342369936,20
1529342371088,20
1529342372235,20
1529342373387,20
1529342374594,20
1529342375782,20
1529342376928,20
1529342378059,20
1529342379183,20
1529342380342,20
1529342381492,20
1529342382641,20
1529342383736,20
1529342384842,20
1529342385956,20
1529342387089,20
1529342388170,20
1529342389270,20
1529342390368,20
1529342391472,20
1529342392595,20
1529342393802,20
1529342394972,20
1529342396106,20
1529342397356,20
1529342398436,20
1529342399583,20
1529342400685,20
1529342401811,20
1529342403009,20
1529342404186,20
1529342405299,20
1529342406403,20
1529342407539,20
1529342408659,20
1529342409752,20
1529342410872,20
1529342411997,20
1529342413189,20
1529342414319,20
1529342415475,20
1529342416662,20
1529342417796,20
1529342418951,20
1529342420074,20
1529342421195,20
1529342422369,20
1529342423889,21
1529342425419,20
1529342426932,18
1529342428112,18
1529342429162,18
1529342430196,18
1529342431271,18
1529342432308,20
1529342433723,24
1529342435338,24
1529342436697,24
1529342437951,24
1529342439216,24
1529342440607,24
1529342441866,24
1529342443160,24
1529342444448,24
1529342445994,24
1529342447261,24
1529342448522,24
1529342449754,24
1529342451316,24
1529342452594,24
1529342453909,24
1529342455253,24
1529342456546,24
1529342457866,24
1529342459243,24
1529342460554,24
1529342461817,24
1529342463073,24
1529342464331,24
1529342465637,24
1529342466896,24
1529342468177,24
1529342469457,24
1529342470792,24
1529342472120,24
1529342473555,24
1529342474833,24
1529342476188,24
1529342477710,24
1529342479438,24
1529342480858,24
1529342482288,24
1529342483608,24
1529342484986,24
1529342486427,24
1529342487743,24
1529342489159,24
1529342490478,24
1529342491715,24
1529342493318,24
1529342494706,24
1529342496110,24
1529342497513,24
1529342498842,24
1529342500097,24
1529342501405,24
1529342502685,24
1529342504065,24
1529342505461,24
1529342506750,24
1529342508033,24
1529342509389,24
1529342510680,24
1529342511972,24
1529342513294,24
1529342514576,24
1529342515876,24
1529342517270,24
1529342518594,24
1529342519962,24
1529342521220,24
1529342522514,24
1529342523782,24
1529342525053,24
1529342526333,24
1529342527655,24
1529342528969,24
1529342530266,24
1529342531775,24
1529342533113,24
1529342534637,24
1529342536210,24
1529342537697,24
1529342539088,24
1529342540573,24
1529342542025,24
1529342543754,24
1529342545242,24
1529342546560,24
1529342547982,24
1529342549267,24
1529342550697,24
1529342551976,24
1529342553269,24
1529342554527,24
1529342555822,24
1529342557137,24
1529342558445,24
1529342559797,24
1529342561128,24
1529342562438,24
1529342563680,24
1529342564980,24
1529342566354,24
1529342567682,24
1529342568932,24
1529342570268,24
1529342571550,24
1529342572871,24
1529342574190,24
1529342575590,24
1529342576879,24
1529342578281,24
1529342579633,24
1529342581005,24
1529342582263,24
1529342583507,24
1529342584791,24
1529342586092,24
1529342587391,24
1529342588764,24
1529342590067,24
1529342591407,24
1529342592768,24
1529342594107,24
1529342595836,24
1529342597176,24
1529342598661,26
1529342600240,24
1529342601815,22
1529342603067,22
1529342604264,22
1529342605542,22
1529342606773,22
1529342608061,22
1529342609269,22
1529342610515,22
1529342611833,22
1529342613062,22
1529342614284,22
1529342615764,22
1529342617363,22
1529342618925,20
1529342620027,20
1529342621176,20
1529342622287,20
1529342623426,20
1529342624505,20
1529342625591,20
1529342626714,20
1529342627793,20
1529342628927,20
1529342629987,20
1529342631084,20
1529342632212,20
1529342633329,20
1529342634461,20
1529342635669,20
1529342636763,20
1529342637868,20
1529342639050,20
1529342640169,20
1529342641353,20
1529342642560,20
1529342643672,20
1529342644814,20
1529342645921,20
1529342647001,20
1529342648141,20
1529342649245,20
1529342650351,20
1529342651509,20
1529342652667,20
1529342653791,20
1529342654915,20
1529342656020,20
1529342657105,20
1529342658218,20
1529342659330,20
1529342660460,20
1529342661572,20
1529342662685,20
1529342664209,20
1529342665359,20
1529342666529,20
1529342667631,20
1529342668720,20
1529342669955,20
1529342671077,20
1529342672186,20
1529342673346,20
1529342674436,20
1529342675516,20
1529342676678,20
1529342677801,20
1529342678913,20
1529342680015,20
1529342681138,20
1529342682247,20
1529342683388,20
1529342684495,20
1529342685627,20
1529342686757,20
1529342687869,20
1529342688987,20
1529342690119,20
1529342691173,20
1529342692317,20
1529342693471,20
1529342694607,20
1529342695833,20
1529342697163,22
1529342698453,20
1529342699616,20
1529342700856,20
1529342701983,20
1529342703142,20
1529342704396,20
1529342705578,20
1529342706734,20
1529342707832,20
1529342708996,20
1529342710406,18
1529342711437,18
1529342712545,18
1529342713607,18
1529342714654,18
1529342715714,20
1529342717072,24
1529342718649,24
1529342719964,24
1529342721255,24
1529342722565,24
1529342723912,24
1529342725188,24
1529342726420,24
1529342727742,24
1529342729993,24
1529342731363,24
1529342732675,24
1529342734047,24
1529342735444,24
1529342736770,24
1529342738053,24
1529342739394,24
1529342740748,24
1529342741985,24
1529342743254,24
1529342744518,24
1529342745836,24
1529342747069,24
1529342748368,24
1529342749643,24
1529342750945,24
1529342752228,24
1529342753509,24
1529342754821,24
1529342756198,24
1529342757882,24
1529342759499,24
1529342760928,24
1529342762443,24
1529342763807,24
1529342765296,24
1529342766669,24
1529342768168,24
1529342769481,24
1529342770771,24
1529342772027,24
1529342773330,24
1529342774630,24
1529342775951,24
1529342777297,24
1529342778585,24
1529342779895,24
1529342781220,24
1529342782499,24
1529342783836,24
1529342785126,24
1529342786451,24
1529342787803,24
1529342789056,24
1529342790297,24
1529342791686,24
1529342792992,24
1529342794341,24
1529342795688,24
1529342797015,24
1529342798349,24
1529342799639,24
1529342800949,24
1529342802280,24
1529342803654,24
1529342804899,24
1529342806235,24
1529342807645,24
1529342808994,24
1529342810284,24
1529342811635,24
1529342812987,24
1529342814412,24
1529342815708,24
1529342817011,24
1529342818432,24
1529342819779,24
1529342821068,24
1529342822501,24
1529342823764,24
1529342825100,24
1529342826499,24
1529342827983,24
1529342829455,26
1529342831147,22
1529342833315,22
1529342834573,22
1529342835767,22
1529342836968,22
1529342838179,22
1529342840765,22
1529342841979,22
1529342843174,22
1529342844489,22
1529342845777,22
1529342846991,22
1529342848286,22
1529342849525,22
1529342850715,22
1529342851929,22
1529342853227,22
1529342854459,22
1529342855696,22
1529342856934,22
1529342858179,22
1529342859421,22
1529342860688,22
1529342861905,22
1529342863091,22
1529342864294,22
1529342865496,22
1529342866729,22
1529342867988,22
1529342869179,22
1529342870423,22
1529342871671,22
1529342872852,22
1529342874054,22
1529342875274,22
1529342876565,22
1529342877830,22
1529342879171,22
1529342880484,22
1529342881701,22
1529342882946,22
1529342884195,22
1529342885378,22
1529342886678,22
1529342887855,22
1529342889090,22
1529342890293,22
1529342891549,22
1529342892815,22
1529342894045,22
1529342895324,22
1529342896535,22
1529342897708,22
1529342898927,22
1529342900126,22
1529342901335,22
1529342902570,22
1529342903863,22
1529342905084,22
1529342906292,22
1529342907466,22
1529342908700,22
1529342909984,22
1529342911354,22
1529342912836,22
1529342914357,22
1529342915895,20
1529342917089,20
1529342918237,20
1529342919363,20
1529342920454,20
1529342921510,20
1529342922614,20
1529342923712,20
1529342924805,20
1529342926001,20
1529342927122,20
1529342928294,20
1529342929458,20
1529342930596,20
1529342931706,20
1529342932844,20
1529342933957,20
1529342935062,20
1529342936177,20
1529342937339,20
1529342938465,20
1529342939628,20
1529342940816,20
1529342941933,20
1529342943038,20
1529342944168,20
1529342945396,20
1529342946499,20
1529342947770,20
1529342948945,20
1529342950029,20
1529342951144,20
1529342952269,20
1529342953436,20
1529342954586,20
1529342955749,20
1529342956871,20
1529342957978,20
1529342964230,18
1529342970273,18
1529342971379,18
1529342972423,18
1529342973489,18
1529342974616,18
1529342975757,18
1529342976838,18
1529342978059,18
1529342979148,18
1529342980177,18
1529342981195,18
1529342982219,18
1529342983244,18
1529342984285,18
1529342985309,18
1529342986336,18
1529342987335,18
1529342988342,18
1529342989347,18
1529342990375,18
1529342991408,18
1529342992443,18
1529342993469,18
1529342994482,18
1529342995503,18
1529342996527,18
1529342997524,18
1529342998537,18
1529342999587,18
1529343000656,18
1529343001758,18
1529343002808,18
1529343003831,18
1529343004854,18
1529343005964,18
1529343007014,18
1529343008161,18
1529343009187,18
1529343010236,18
1529343011218,18
1529343012249,18
1529343013285,18
1529343014337,18
1529343015405,18
1529343016429,18
1529343017431,18
1529343018504,18
1529343019602,18
1529343020629,18
1529343021672,18
1529343037165,18
1529343038329,18
1529343039381,18
1529343040441,18
1529343041543,18
1529343042583,18
1529343043645,18
1529343044745,18
1529343045804,18
1529343046808,18
1529343047836,18
1529343048934,18
1529343049969,18
1529343051021,18
1529343052066,18
1529343053145,18
1529343054234,18
1529343055269,18
1529343056368,18
1529343057439,18
1529343058498,18
1529343059545,18
1529343060570,18
1529343061642,18
1529343062720,18
1529343063772,18
1529343064853,18
1529343065947,18
1529343067194,18
1529343068310,18
1529343069354,18
1529343070404,18
1529343071439,18
1529343072483,18
1529343073571,18
1529343075083,18
1529343076090,18
1529343077183,18
1529343078207,18
1529343079245,18
1529343080544,18
1529343081584,18
1529343082645,18
1529343083683,18
1529343084701,18
1529343085743,18
1529343086795,18
1529343087811,18
1529343088834,18
1529343089832,18
1529343090889,18
1529343091973,18
1529343093009,18
1529343094045,18
1529343095073,18
1529343096084,18
1529343097295,18
1529343098432,18
1529343099478,18
1529343100567,18
1529343101625,18
1529343102698,18
1529343103711,18
1529343104748,18
1529343105766,18
1529343106823,18
1529343107841,18
1529343108875,18
1529343109895,18
1529343110964,18
1529343112030,18
1529343113120,18
1529343114128,18
1529343115743,18
1529343116786,18
1529343117835,18
1529343118871,18
1529343119863,18
1529343120935,18
1529343122043,18
1529343123121,18
1529343124147,18
1529343125194,18
1529343126288,18
1529343127476,18
1529343128625,18
1529343129664,18
1529343130730,18
1529343131863,18
1529343132940,18
1529343134011,18
1529343135023,18
1529343136108,18
1529343137168,18
1529343138313,18
1529343139370,18
1529343140389,18
1529343141443,18
1529343142462,18
1529343143545,18
1529343144572,18
1529343145588,18
1529343146624,18
1529343147637,18
1529343148643,18
1529343150537,18
1529343151569,18
1529343152669,18
1529343153748,18
1529343154769,18
1529343155781,18
1529343156828,18
1529343157974,18
1529343159092,18
1529343160124,18
1529343161191,18
1529343162268,18
1529343163307,18
1529343164369,18
1529343165448,18
1529343166474,18
1529343167550,18
1529343168577,18
1529343169655,18
1529343170666,18
1529343171719,18
1529343172750,18
1529343173775,18
1529343174793,18
1529343175821,18
1529343176869,18
1529343177967,18
1529343179069,18
1529343180110,18
1529343181126,18
1529343182199,18
1529343183229,12
1529343184202,18
1529343185296,18
1529343186397,18
1529343188140,18
1529343189380,18
1529343190389,18
1529343191418,18
1529343192467,18
1529343193505,22
1529343195116,24
1529343196547,24
1529343197798,24
1529343199078,24
1529343200351,24
1529343201679,24
1529343202930,24
1529343204171,24
1529343205440,24
1529343206832,24
1529343208132,24
1529343209414,24
1529343210722,24
1529343212186,24
1529343213495,24
1529343214752,24
1529343216003,24
1529343217360,24
1529343218719,24
1529343220130,24
1529343221406,24
1529343222663,24
1529343223954,24
1529343225212,24
1529343226532,24
1529343227884,24
1529343229260,24
1529343230635,24
1529343232295,24
1529343233662,24
1529343234922,24
1529343236310,24
1529343237642,24
1529343239065,24
1529343240510,24
1529343241901,24
1529343243658,24
1529343244934,24
1529343246185,24
1529343247535,24
1529343249016,24
1529343250448,24
1529343251762,24
1529343253097,24
1529343254416,24
1529343255665,24
1529343256942,24
1529343258302,24
1529343259608,24
1529343260961,24
1529343262244,24
1529343263594,24
1529343264985,24
1529343266253,24
1529343267532,24
1529343268825,24
1529343270194,24
1529343271441,24
1529343272717,24
1529343274048,24
1529343275392,24
1529343276677,24
1529343278038,24
1529343279492,24
1529343280896,24
1529343282231,24
1529343283602,24
1529343284897,24
1529343286167,24
1529343287459,24
1529343288809,24
1529343290132,24
1529343291425,24
1529343292683,24
1529343294009,24
1529343295268,24
1529343296574,24
1529343297834,24
1529343299202,24
1529343300815,24
1529343302309,24
1529343303787,22
1529343305010,22
1529343306228,22
1529343307459,22
1529343308664,22
1529343309950,22
1529343311336,22
1529343312531,22
1529343313764,22
1529343314962,22
1529343316228,22
1529343317466,22
1529343318736,22
1529343319998,22
1529343321218,22
1529343322419,22
1529343323688,22
1529343324983,22
1529343326257,22
1529343327483,22
1529343328755,22
1529343330266,22
1529343331491,22
1529343332729,22
1529343333957,22
1529343335180,22
1529343336435,22
1529343337778,22
1529343339279,22
1529343340737,20
1529343342274,20
1529343343400,20
1529343344494,20
1529343345623,20
1529343346743,20
1529343347913,20
1529343349067,20
1529343350147,20
1529343351234,20
1529343352401,20
1529343353601,20
1529343354769,20
1529343355918,20
1529343357088,20
1529343358238,20
1529343359350,20
1529343360429,20
1529343361576,20
1529343362746,20
1529343363840,20
1529343364929,20
1529343366060,20
1529343367189,20
1529343368436,20
1529343369562,20
1529343370815,20
1529343372100,20
1529343373221,20
1529343374329,20
1529343375507,20
1529343376627,20
1529343377737,20
1529343378883,20
1529343380025,20
1529343381112,20
1529343382201,20
1529343383321,20
1529343384439,20
1529343385571,20
1529343386690,20
1529343387822,20
1529343388953,20
1529343390069,20
1529343391268,20
1529343392391,20
1529343393524,20
1529343394649,20
1529343395772,20
1529343396904,20
1529343398068,20
1529343399257,20
1529343400361,20
1529343401531,20
1529343402795,20
1529343403912,20
1529343405012,20
1529343406091,20
1529343407237,20
1529343408368,20
1529343409522,20
1529343410651,20
1529343411829,20
1529343412932,20
1529343414101,20
1529343415238,20
1529343416375,20
1529343417498,20
1529343418632,20
1529343419788,20
1529343420912,20
1529343422009,20
1529343423201,20
1529343424319,20
1529343425415,20
1529343426779,20
1529343427965,20
1529343429370,20
1529343430680,18
1529343431851,18
1529343433063,18
1529343434064,18
1529343435084,18
1529343436155,22
1529343437773,24
1529343439164,24
1529343440470,24
1529343441774,24
1529343443058,24
1529343444423,24
1529343445665,24
1529343446914,24
1529343448110,24
1529343449700,24
1529343450949,24
1529343452200,24
1529343453505,24
1529343454867,24
1529343456175,24
1529343457427,24
1529343458722,24
1529343459981,24
1529343461174,24
1529343462533,24
1529343463981,24
1529343465297,24
1529343466537,24
1529343467800,24
1529343469039,24
1529343470305,24
1529343471545,24
1529343472877,24
1529343474176,24
1529343475507,24
1529343476870,24
1529343478104,24
1529343479319,24
1529343481062,24
1529343482547,24
1529343483892,24
1529343485258,24
1529343486963,24
1529343488339,24
1529343489659,24
1529343491113,24
1529343492485,24
1529343493944,24
1529343495299,24
1529343496614,24
1529343497935,24
1529343499296,24
1529343500688,24
1529343502043,24
1529343503337,24
1529343504592,24
1529343505921,24
1529343507226,24
1529343508566,24
1529343509851,24
1529343511229,24
1529343512634,24
1529343513990,24
1529343515263,24
1529343516581,24
1529343517924,24
1529343519237,24
1529343520533,24
1529343521798,24
1529343523143,24
1529343524621,24
1529343525906,24
1529343527175,24
1529343528493,24
1529343529748,24
1529343531001,24
1529343532324,24
1529343533620,24
1529343535871,24
1529343537199,24
1529343538491,24
1529343539742,24
1529343540970,24
1529343542288,24
1529343543561,24
1529343544852,24
1529343546109,24
1529343547460,24
1529343548887,24
1529343550166,24
1529343551472,24
1529343553004,26
1529343554863,26
1529343556591,22
1529343557970,22
1529343559175,22
1529343560381,22
1529343561619,22
1529343562798,22
1529343564058,22
1529343565287,22
1529343566469,22
1529343567649,22
1529343568979,22
1529343570153,22
1529343571374,22
1529343572598,22
1529343573895,22
1529343575166,22
1529343576473,22
1529343577729,22
1529343578986,22
1529343580215,22
1529343581468,22
1529343582668,22
1529343583936,22
1529343585232,22
1529343586398,22
1529343587591,22
1529343588800,22
1529343590038,22
1529343591225,22
1529343592507,22
1529343593709,22
1529343594904,22
1529343596359,24
1529343597816,24
1529343599294,20
1529343600554,20
1529343601684,20
1529343602828,20
1529343603994,20
1529343605100,20
1529343606207,20
1529343607267,20
1529343608429,20
1529343609543,20
1529343610654,20
1529343611764,20
1529343612866,20
1529343614060,20
1529343615369,20
1529343616492,20
1529343617606,20
1529343618735,20
1529343619857,20
1529343620940,20
1529343622094,20
1529343623224,20
1529343624316,20
1529343625411,20
1529343626524,20
1529343627650,20
1529343628816,20
1529343629953,20
1529343631065,20
1529343632176,20
1529343633286,20
1529343634438,20
1529343635563,20
1529343636660,20
1529343637784,20
1529343638884,20
1529343640001,20
1529343641183,20
1529343642340,20
1529343643516,20
1529343644751,22
1529343647879,22
1529343649219,18
1529343650526,18
1529343651565,18
1529343652602,18
1529343653671,18
1529343654664,18
1529343655782,22
1529343657560,24
1529343658927,24
1529343660156,24
1529343661360,24
1529343662694,24
1529343663925,24
1529343665196,24
1529343666516,24
1529343667795,24
1529343669404,24
1529343670659,24
1529343671905,24
1529343673259,24
1529343674666,24
1529343676072,24
1529343677336,24
1529343678720,24
1529343680009,24
1529343681242,24
1529343682485,24
1529343683721,24
1529343684978,24
1529343686247,24
1529343687522,24
1529343688827,24
1529343690212,24
1529343691620,24
1529343692887,24
1529343694443,24
1529343695779,24
1529343697064,24
1529343698415,24
1529343699739,24
1529343701080,24
1529343702471,24
1529343703815,24
1529343705328,24
1529343706714,24
1529343708035,24
1529343709438,24
1529343710730,24
1529343712010,24
1529343713282,24
1529343714600,24
1529343715897,24
1529343717131,24
1529343718418,24
1529343719744,24
1529343721119,24
1529343722455,24
1529343723719,24
1529343725058,24
1529343726442,24
1529343727718,24
1529343729012,24
1529343730308,24
1529343731611,24
1529343732903,24
1529343734182,24
1529343735547,24
1529343736962,24
1529343738226,24
1529343739594,24
1529343740979,24
1529343742282,24
1529343743608,24
1529343744897,24
1529343746253,24
1529343747496,24
1529343748775,24
1529343750069,24
1529343751360,24
1529343752642,24
1529343753933,24
1529343755296,24
1529343756789,24
1529343758054,24
1529343759327,24
1529343760649,24
1529343762000,24
1529343763310,24
1529343764611,24
1529343765971,24
1529343767665,26
1529343769213,25
1529343770782,22
1529343772010,22
1529343773271,22
1529343774493,22
1529343775701,22
1529343776988,22
1529343778231,22
1529343779402,22
1529343780588,22
1529343781781,22
1529343783043,22
1529343784242,22
1529343785459,22
1529343786669,22
1529343787940,22
1529343789263,22
1529343790483,22
1529343791723,22
1529343792969,22
1529343794188,22
1529343795639,22
1529343796965,22
1529343798269,22
1529343799532,22
1529343800814,22
1529343802072,22
1529343803334,22
1529343804535,22
1529343805762,22
1529343806938,22
1529343808125,22
1529343809361,22
1529343810551,22
1529343811756,22
1529343812976,22
1529343814256,22
1529343815449,22
1529343816654,22
1529343817876,22
1529343819092,22
1529343820371,22
1529343821546,22
1529343822783,22
1529343824003,22
1529343825181,22
1529343826381,22
1529343827669,22
1529343828954,22
1529343830178,22
1529343831503,22
1529343832719,22
1529343833945,22
1529343835333,22
1529343836524,22
1529343837763,22
1529343839004,22
1529343840217,22
1529343841376,22
1529343842579,22
1529343843808,22
1529343845034,22
1529343846260,22
1529343847476,22
1529343848689,22
1529343849893,22
1529343851175,22
1529343852703,22
1529343854135,22
1529343855661,20
1529343856779,20
1529343857964,20
1529343859179,20
1529343860249,20
1529343861473,20
1529343862612,20
1529343863744,20
1529343864875,20
1529343865946,20
1529343866990,20
1529343868104,20
1529343869193,20
1529343870309,20
1529343871408,20
1529343872545,20
1529343873668,20
1529343874751,20
1529343875897,20
1529343876997,20
1529343878153,20
1529343879231,20
1529343880343,20
1529343881420,20
1529343882525,20
1529343883633,20
1529343885313,20
1529343886408,20
1529343887470,20
1529343888673,20
1529343889849,20
1529343890946,20
1529343892107,20
1529343893203,20
1529343894309,20
1529343895398,20
1529343896432,20
1529343897484,20
1529343898580,20
1529343899673,20
1529343900784,20
1529343901893,20
1529343902998,20
1529343904096,20
1529343905233,20
1529343906344,20
1529343907420,20
1529343908982,22
1529343910425,22
1529343911712,18
1529343912883,18
1529343913913,18
1529343914922,18
1529343915921,18
1529343916939,18
1529343917982,22
1529343919609,24
1529343921044,24
1529343922446,24
1529343923683,24
1529343924901,24
1529343926149,24
1529343927409,24
1529343928627,24
1529343929876,24
1529343931489,24
1529343932801,24
1529343934055,24
1529343935328,24
1529343936892,24
1529343938149,24
1529343939412,24
1529343940675,24
1529343941995,24
1529343943312,24
1529343944603,24
1529343945883,24
1529343947138,24
1529343948368,24
1529343949736,24
1529343951032,24
1529343952381,24
1529343953669,24
1529343954918,24
1529343956273,24
1529343957712,24
1529343959049,24
1529343960453,24
1529343961697,24
1529343962974,24
1529343964454,24
1529343965819,24
1529343967178,24
1529343968580,24
1529343970225,24
1529343971620,16
1529343973946,24
1529343975845,24
1529343977148,24
1529343979061,24
1529343980533,24
1529343981930,24
1529343983370,24
1529343984773,24
1529343986081,24
1529343987382,24
1529343988651,24
1529343990348,24
1529343991623,24
1529343992900,24
1529343994279,24
1529343995750,24
1529343996983,24
1529343998301,24
1529343999587,24
1529344001007,24
1529344002301,24
1529344003572,24
1529344004833,24
1529344006139,24
1529344007443,24
1529344008720,24
1529344010015,24
1529344011258,24
1529344012602,24
1529344013970,24
1529344015226,24
1529344016549,24
1529344018143,24
1529344019453,24
1529344021226,24
1529344022584,24
1529344024319,24
1529344025710,24
1529344027012,24
1529344028459,24
1529344029861,24
1529344031317,24
1529344032641,24
1529344033940,24
1529344035569,24
1529344036925,24
1529344038170,24
1529344039436,24
1529344040735,24
1529344042168,24
1529344043564,24
1529344044914,24
1529344046202,24
1529344047526,24
1529344048897,24
1529344050191,24
1529344051459,24
1529344052789,24
1529344054130,24
1529344055422,24
1529344056785,24
1529344058070,24
1529344059335,24
1529344060633,24
1529344061950,24
1529344063224,24
1529344064538,24
1529344065838,24
1529344067177,24
1529344068478,24
1529344069788,24
1529344071141,24
1529344072551,24
1529344073935,24
1529344075395,24
1529344076683,24
1529344078002,24
1529344079256,24
1529344080529,24
1529344081802,24
1529344083141,24
1529344084447,24
1529344085720,24
1529344087066,24
1529344088413,24
1529344089983,24
1529344091646,24
1529344093176,22
1529344094439,22
1529344095612,22
1529344096841,22
1529344098034,22
1529344099278,22
1529344100529,22
1529344101783,22
1529344103017,22
1529344105104,22
1529344106405,22
1529344107588,22
1529344108787,22
1529344109992,22
1529344111192,22
1529344112389,22
1529344113607,22
1529344114816,22
1529344116028,22
1529344117268,22
1529344118452,22
1529344119701,22
1529344120928,22
1529344122108,22
1529344123306,22
1529344124515,22
1529344125717,22
1529344126913,22
1529344128111,22
1529344129336,22
1529344130502,22
1529344131663,22
1529344132976,22
1529344134329,22
1529344135553,22
1529344136829,22
1529344138092,22
1529344139657,24
1529344141065,24
1529344142503,20
1529344143809,20
1529344145033,20
1529344146145,20
1529344147248,20
1529344148365,20
1529344149555,20
1529344150716,20
1529344152029,22
1529344153329,22
1529344154838,18
1529344156065,18
1529344157091,18
1529344158100,18
1529344159099,18
1529344160096,18
1529344161300,24
1529344163213,24
1529344164627,24
1529344165960,24
1529344167361,24
1529344168587,24
1529344169894,24
1529344171125,24
1529344172366,24
1529344173993,24
1529344175293,24
1529344176614,24
1529344177888,24
1529344179246,24
1529344180468,24
1529344181738,24
1529344183003,24
1529344184323,24
1529344185603,24
1529344186897,24
1529344188210,24
1529344189481,24
1529344190735,24
1529344191953,24
1529344193294,24
1529344194526,24
1529344195792,24
1529344197031,24
1529344198381,24
1529344199654,24
1529344201358,24
1529344202627,24
1529344203978,24
1529344205405,24
1529344206648,24
1529344207970,24
1529344209375,24
1529344210715,24
1529344212057,24
1529344213363,24
1529344214700,24
1529344216107,24
1529344217364,24
1529344218660,24
1529344219929,24
1529344221222,24
1529344222501,24
1529344223836,24
1529344225163,24
1529344226423,24
1529344227672,24
1529344229013,24
1529344230256,24
1529344231512,24
1529344232777,24
1529344234031,24
1529344235338,24
1529344236682,24
1529344237925,24
1529344239255,24
1529344240499,24
1529344241788,24
1529344243074,24
1529344244327,24
1529344245619,24
1529344246867,24
1529344248150,24
1529344249423,24
1529344250780,24
1529344252076,24
1529344253393,24
1529344254806,24
1529344256223,24
1529344257530,24
1529344258914,24
1529344260222,24
1529344261632,24
1529344262935,24
1529344264206,24
1529344265487,24
1529344266867,24
1529344268207,24
1529344269498,24
1529344270783,24
1529344272194,24
1529344274432,24
1529344275704,24
1529344276985,24
1529344278346,24
1529344279729,24
1529344281111,24
1529344282434,24
1529344283739,24
1529344286344,24
1529344287643,24
1529344289039,24
1529344290328,24
1529344291638,24
1529344292987,24
1529344294302,24
1529344295636,24
1529344296955,24
1529344298273,24
1529344299596,24
1529344300918,24
1529344302261,24
1529344303622,24
1529344305202,24
1529344306712,22
1529344308177,22
1529344309440,22
1529344310623,22
1529344311838,22
1529344313089,22
1529344314292,22
1529344315470,22
1529344316861,22
1529344318078,22
1529344319390,22
1529344320542,22
1529344321760,22
1529344323001,22
1529344324255,22
1529344325483,22
1529344326714,22
1529344327931,22
1529344329153,22
1529344330369,22
1529344331522,22
1529344332720,22
1529344333899,22
1529344335119,22
1529344336304,22
1529344337499,22
1529344338653,22
1529344339823,22
1529344341056,22
1529344342338,22
1529344343554,22
1529344344788,22
1529344345985,22
1529344347374,22
1529344348552,22
1529344349850,22
1529344351051,22
1529344352243,22
1529344353449,22
1529344354699,22
1529344355951,22
1529344357138,22
1529344358318,22
1529344359493,22
1529344360702,22
1529344361906,22
1529344363141,22
1529344364349,22
1529344365578,22
1529344366766,22
1529344368003,22
1529344369225,22
1529344370490,22
1529344371692,22
1529344373240,24
1529344374704,22
1529344376265,20
1529344377702,22
1529344379007,22
1529344380345,18
1529344381532,18
1529344382517,18
1529344383528,18
1529344384521,18
1529344385562,18
1529344386684,24
1529344388361,24
1529344389619,24
1529344390866,24
1529344392160,24
1529344394275,24
1529344395511,24
1529344396729,24
1529344397961,24
1529344399256,24
1529344400770,24
1529344402029,24
1529344403260,24
1529344404602,24
1529344405861,24
1529344407063,24
1529344408429,24
1529344409628,24
1529344410945,24
1529344412219,24
1529344413482,24
1529344414742,24
1529344416048,24
1529344417329,24
1529344418598,24
1529344419890,24
1529344421136,24
1529344422443,24
1529344423679,24
1529344424980,24
1529344426282,24
1529344427587,24
1529344428950,24
1529344430235,24
1529344431550,24
1529344432888,24
1529344434175,24
1529344436150,24
1529344437438,24
1529344438956,24
1529344440242,24
1529344441677,24
1529344442984,24
1529344444307,24
1529344445565,24
1529344446834,24
1529344448179,24
1529344449520,24
1529344450822,24
1529344452096,24
1529344454204,24
1529344455493,24
1529344456825,24
1529344458143,24
1529344459415,24
1529344460654,24
1529344461976,24
1529344463310,24
1529344464560,24
1529344466308,24
1529344467563,24
1529344468988,24
1529344470275,24
1529344471568,24
1529344472826,24
1529344474080,24
1529344475433,24
1529344476741,24
1529344478055,24
1529344479378,24
1529344480700,24
1529344481965,24
1529344483261,24
1529344484496,24
1529344485774,24
1529344487042,24
1529344488331,24
1529344489568,24
1529344490873,24
1529344492181,24
1529344493529,24
1529344494759,24
1529344496012,24
1529344497325,24
1529344498574,24
1529344500004,24
1529344501245,24
1529344502635,24
1529344503962,24
1529344505316,24
1529344506588,24
1529344507986,24
1529344509650,24
1529344511145,24
1529344512630,22
1529344513854,22
1529344515058,22
1529344516273,22
1529344517434,22
1529344518659,22
1529344519831,22
1529344521012,22
1529344522147,22
1529344523366,22
1529344524582,22
1529344525798,22
1529344526957,22
1529344528150,22
1529344529311,22
1529344530655,22
1529344531858,22
1529344533210,22
1529344534370,22
1529344535576,22
1529344536748,22
1529344537964,22
1529344539141,22
1529344540374,22
1529344541614,22
1529344542788,22
1529344543998,22
1529344545196,22
1529344546376,22
1529344547548,22
1529344548802,22
1529344550045,22
1529344551257,22
1529344552501,22
1529344553706,22
1529344554930,22
1529344556167,22
1529344557358,22
1529344558619,22
1529344559805,22
1529344561279,22
1529344562501,22
1529344563830,22
1529344565019,22
1529344566313,22
1529344567525,22
1529344568717,22
1529344570007,22
1529344571299,22
1529344572506,22
1529344573767,22
1529344574984,22
1529344576193,22
1529344577360,22
1529344578596,22
1529344579764,22
1529344580988,22
1529344582204,22
1529344583432,22
1529344584635,22
1529344585982,22
1529344587237,22
1529344588442,22
1529344589609,22
1529344590809,22
1529344592181,22
1529344593467,22
1529344594780,22
1529344596009,22
1529344597305,22
1529344598837,24
1529344600350,22
1529344601876,20
1529344603034,20
1529344604194,20
1529344605382,20
1529344606538,20
1529344607609,20
1529344608751,20
1529344609867,20
1529344610962,20
1529344612091,20
1529344613254,20
1529344614376,20
1529344615508,20
1529344616702,20
1529344617791,20
1529344618972,20
1529344620083,20
1529344621244,20
1529344622586,20
1529344623710,20
1529344624903,20
1529344626082,20
1529344627398,20
1529344628834,20
1529344630230,20
1529344631563,18
1529344632587,18
1529344633646,18
1529344634691,18
1529344635732,18
1529344636795,18
1529344637823,18
1529344638860,18
1529344639913,18
1529344640957,18
1529344642041,18
1529344643040,18
1529344644064,18
1529344645107,18
1529344646145,18
1529344647196,18
1529344648274,22
1529344649965,24
1529344651351,24
1529344652889,24
1529344654155,24
1529344655539,24
1529344656869,24
1529344658158,24
1529344659442,24
1529344660761,24
1529344662111,24
1529344663365,24
1529344664617,24
1529344665930,24
1529344667277,24
1529344668582,24
1529344669852,24
1529344671096,24
1529344672360,24
1529344673703,24
1529344675002,24
1529344676320,24
1529344677575,24
1529344678834,24
1529344681353,24
1529344682825,24
1529344684086,24
1529344685502,24
1529344687032,24
1529344688505,24
1529344689823,24
1529344691408,24
1529344692629,24
1529344694033,24
1529344695403,24
1529344696914,24
1529344698318,24
1529344699997,24
1529344701271,24
1529344702645,24
1529344704029,24
1529344705364,24
1529344706692,24
1529344707996,24
1529344709316,24
1529344710637,24
1529344711956,24
1529344713426,24
1529344714750,24
1529344716134,24
1529344717465,24
1529344718911,24
1529344720294,24
1529344721626,24
1529344723041,24
1529344724391,24
1529344725668,24
1529344726955,24
1529344728289,24
1529344729660,24
1529344730906,24
1529344732211,24
1529344733534,24
1529344734967,24
1529344736327,24
1529344737618,24
1529344738996,24
1529344740279,24
1529344741543,24
1529344742889,24
1529344744353,24
1529344745667,24
1529344747043,24
1529344748367,24
1529344749643,24
1529344750943,24
1529344752204,24
1529344753637,24
1529344754983,24
1529344756279,24
1529344757579,24
1529344758843,24
1529344760118,24
1529344761433,24
1529344762732,24
1529344764050,24
1529344766668,24
1529344768241,22
1529344769697,22
1529344770926,22
1529344772141,22
1529344773420,22
1529344774686,22
1529344775867,22
1529344777132,22
1529344778328,22
1529344779551,22
1529344780755,22
1529344782000,22
1529344783183,22
1529344784373,22
1529344785597,22
1529344786851,22
1529344788054,22
1529344789343,22
1529344790552,22
1529344791729,22
1529344792917,22
1529344794146,22
1529344795384,22
1529344796699,22
1529344797899,22
1529344799149,22
1529344800346,22
1529344801539,22
1529344802798,22
1529344804116,22
1529344805400,22
1529344806629,22
1529344807926,22
1529344809153,22
1529344810341,22
1529344811591,22
1529344812853,22
1529344814105,22
1529344815367,22
1529344816601,22
1529344817811,22
1529344819030,22
1529344820251,22
1529344821474,22
1529344822687,22
1529344823913,22
1529344825133,22
1529344826315,22
1529344827484,22
1529344828721,22
1529344829909,22
1529344831088,22
1529344832296,22
1529344833537,22
1529344834766,22
1529344836014,22
1529344837216,22
1529344838474,22
1529344839714,22
1529344840904,22
1529344842106,22
1529344843295,22
1529344844607,22
1529344845836,22
1529344847037,22
1529344848199,22
1529344849427,22
1529344851207,22
1529344852391,22
1529344853586,22
1529344854805,22
1529344856080,22
1529344857260,22
1529344858509,22
1529344859750,22
1529344860946,22
1529344862177,22
1529344863433,22
1529344864899,22
1529344866404,22
1529344867863,22
1529344869409,20
1529344870634,20
1529344871774,20
1529344872886,20
1529344874004,20
1529344875143,20
1529344876217,20
1529344877344,20
1529344878474,20
1529344879627,20
1529344880748,20
1529344881873,20
1529344883062,20
1529344884197,20
1529344885325,20
1529344886478,20
1529344887657,20
1529344888817,20
1529344889923,20
1529344891016,20
1529344892144,20
1529344893315,20
1529344894460,20
1529344895673,20
1529344897252,20
1529344898430,20
1529344899627,20
1529344900721,20
1529344901849,20
1529344903015,20
1529344904125,20
1529344905271,20
1529344906440,20
1529344907575,20
1529344908693,20
1529344909835,20
1529344910948,20
1529344912100,20
1529344913271,20
1529344914389,20
1529344915501,20
1529344916611,20
1529344917757,20
1529344918941,20
1529344920105,20
1529344921259,20
1529344922404,20
1529344923525,20
1529344924670,20
1529344925840,20
1529344926971,20
1529344928181,20
1529344929306,20
1529344930529,20
1529344931666,20
1529344932738,20
1529344933930,20
1529344935026,20
1529344936167,20
1529344937287,20
1529344938432,20
1529344939519,20
1529344940649,20
1529344941745,20
1529344942864,20
1529344955762,20
1529344956937,20
1529344958111,20
1529344959249,20
1529344960471,20
1529344961551,20
1529344962668,20
1529344963795,20
1529344964934,20
1529344966119,20
1529344967244,20
1529344968351,20
1529344969471,20
1529344970694,20
1529344971808,20
1529344972904,20
1529344974007,20
1529344975105,20
1529344976275,20
1529344977370,20
1529344978477,20
1529344979640,20
1529344980737,20
1529344981880,20
1529344983028,20
1529344984213,20
1529344985363,20
1529344986585,20
1529344987719,20
1529344988940,20
1529344990048,20
1529344991460,22
1529344992806,22
1529344994134,18
1529344996586,18
1529344997664,18
1529344998736,18
1529344999764,18
1529345000810,18
1529345001904,22
1529345003623,24
1529345005118,24
1529345006385,24
1529345007682,24
1529345009006,24
1529345010275,24
1529345011529,24
1529345012815,24
1529345014114,24
1529345015608,24
1529345016973,24
1529345018258,24
1529345019671,24
1529345020936,24
1529345022932,24
1529345024212,24
1529345025562,24
1529345026853,24
1529345028151,24
1529345029454,24
1529345030776,24
1529345032110,24
1529345033385,24
1529345034669,24
1529345035948,24
1529345037207,24
1529345038553,24
1529345039878,24
1529345041229,24
1529345042624,24
1529345043927,24
1529345045445,24
1529345046950,24
1529345048344,24
1529345049762,24
1529345051315,24
1529345053238,24
1529345054596,8
1529345055557,24
1529345058008,24
1529345059382,24
1529345060904,24
1529345062666,24
1529345063981,24
1529345065417,24
1529345066791,24
1529345068137,24
1529345069621,24
1529345070967,24
1529345072296,24
1529345073732,24
1529345075152,24
1529345076498,24
1529345077963,24
1529345079286,24
1529345080719,24
1529345082006,24
1529345083304,24
1529345084592,24
1529345085944,24
1529345087234,24
1529345088518,24
1529345089782,24
1529345091059,24
1529345092346,24
1529345093732,24
1529345095079,24
1529345096356,24
1529345097682,24
1529345099127,24
1529345100411,24
1529345101938,24
1529345103273,24
1529345104671,24
1529345106126,24
1529345107544,24
1529345108940,24
1529345110315,24
1529345111896,24
1529345114628,24
1529345116009,24
1529345117338,24
1529345118591,24
1529345119985,24
1529345121277,24
1529345122568,24
1529345123829,24
1529345125202,24
1529345126504,24
1529345127760,24
1529345129071,24
1529345130386,24
1529345131700,24
1529345133004,24
1529345134333,24
1529345135684,24
1529345136970,24
1529345138224,24
1529345139698,24
1529345141062,24
1529345142502,24
1529345143872,24
1529345145184,24
1529345146529,24
1529345147873,24
1529345154163,24
1529345155541,24
1529345156823,24
1529345158144,24
1529345159411,24
1529345160731,24
1529345162042,24
1529345163392,24
1529345169751,24
1529345171724,24
1529345173078,24
1529345174460,24
1529345175774,24
1529345177445,26
1529345179007,26
1529345180620,22
1529345182038,22
1529345183261,22
1529345184446,22
1529345185706,22
1529345187000,22
1529345188314,22
1529345189497,22
1529345190775,22
1529345192025,22
1529345193231,22
1529345194421,22
1529345195648,22
1529345196877,22
1529345198173,22
1529345199442,22
1529345200673,22
1529345201858,22
1529345203204,22
1529345204594,22
1529345205834,22
1529345207065,22
1529345208254,22
1529345209447,22
1529345210706,22
1529345211984,22
1529345213172,22
1529345214454,22
1529345215685,22
1529345216929,22
1529345218133,22
1529345219410,22
1529345220619,22
1529345221856,22
1529345223122,22
1529345224330,22
1529345225569,22
1529345226807,22
1529345228014,22
1529345229206,22
1529345230413,22
1529345231746,22
1529345232964,22
1529345234245,22
1529345235486,22
1529345236660,22
1529345237829,22
1529345239058,22
1529345240281,22
1529345241483,22
1529345242659,22
1529345243852,22
1529345246351,22
1529345247535,22
1529345248762,22
1529345249965,22
1529345251215,22
1529345252615,24
1529345254088,24
1529345255665,20
1529345256914,20
1529345258051,20
1529345259176,20
1529345260292,20
1529345261409,20
1529345262586,20
1529345263643,20
1529345264796,20
1529345266052,20
1529345267195,20
1529345268275,20
1529345269370,20
1529345270475,20
1529345271572,20
1529345272669,20
1529345273781,20
1529345274915,20
1529345275980,20
1529345277046,20
1529345278170,20
1529345279285,20
1529345280418,20
1529345281569,20
1529345282706,20
1529345283836,20
1529345284959,20
1529345286011,20
1529345287153,20
1529345288270,20
1529345289389,20
1529345290456,20
1529345291591,20
1529345292761,20
1529345295290,20
1529345296478,20
1529345297602,20
1529345298684,20
1529345299799,20
1529345300928,20
1529345302044,20
1529345303166,20
1529345304271,20
1529345305388,20
1529345306492,20
1529345307662,20
1529345308751,20
1529345309884,20
1529345310990,20
1529345312100,20
1529345313176,20
1529345314305,20
1529345315463,20
1529345316582,20
1529345317743,20
1529345318884,20
1529345319962,20
1529345321127,20
1529345322256,20
1529345323455,20
1529345324581,20
1529345325784,20
1529345327033,20
1529345328132,20
1529345329264,20
1529345330389,20
1529345331492,20
1529345332612,20
1529345333708,20
1529345334833,20
1529345335919,20
1529345337003,20
1529345338107,20
1529345339179,20
1529345340286,20
1529345341414,20
1529345342529,20
1529345343619,20
1529345344755,20
1529345345883,20
1529345347030,20
1529345348497,20
1529345349810,20
1529345351228,19
1529345352612,18
1529345355167,18
1529345356411,18
1529345357507,20
1529345358795,24
1529345360411,24
1529345361664,24
1529345362947,24
1529345364256,24
1529345365658,24
1529345366957,24
1529345368172,24
1529345369460,24
1529345370986,24
1529345372284,24
1529345373552,24
1529345374797,24
1529345376158,24
1529345377438,24
1529345378701,24
1529345379972,24
1529345381355,24
1529345382644,24
1529345383876,24
1529345385229,24
1529345386622,24
1529345387990,24
1529345389221,24
1529345390560,24
1529345391850,24
1529345393191,24
1529345394535,24
1529345395811,24
1529345397136,24
1529345398431,24
1529345399788,24
1529345401154,24
1529345402493,24
1529345404064,24
1529345405403,24
1529345406938,24
1529345408539,24
1529345409888,24
1529345411159,24
1529345412569,24
1529345413877,24
1529345415250,24
1529345416791,24
1529345418181,24
1529345419514,24
1529345420817,24
1529345422160,24
1529345423470,24
1529345424730,24
1529345426022,24
1529345427352,24
1529345428651,24
1529345429938,24
1529345431245,24
1529345432538,24
1529345433883,24
1529345435217,24
1529345436531,24
1529345437851,24
1529345439149,24
1529345440516,24
1529345441803,24
1529345443070,24
1529345444353,24
1529345445757,24
1529345447198,24
1529345448575,24
1529345449865,24
1529345451208,24
1529345452517,24
1529345453833,24
1529345455177,24
1529345456468,24
1529345457750,24
1529345459054,24
1529345460394,24
1529345461696,24
1529345462985,24
1529345464228,24
1529345465585,24
1529345466902,24
1529345468217,24
1529345469668,24
1529345471224,26
1529345472799,22
1529345474057,22
1529345475217,22
1529345476395,22
1529345477845,22
1529345479137,22
1529345480345,22
1529345481529,22
1529345482722,22
1529345483961,22
1529345486715,22
1529345487958,22
1529345489154,22
1529345490398,22
1529345491643,22
1529345492847,22
1529345494045,22
1529345495242,22
1529345496430,22
1529345497574,22
1529345498804,22
1529345500001,22
1529345501186,22
1529345502399,22
1529345503632,22
1529345504882,22
1529345506072,22
1529345507270,22
1529345508637,22
1529345509969,22
1529345511187,22
1529345512388,22
1529345513570,22
1529345514813,22
1529345516021,22
1529345517217,22
1529345518525,22
1529345520032,22
1529345521474,22
1529345522956,20
1529345524068,20
1529345525221,20
1529345526344,20
1529345527445,20
1529345528551,20
1529345529634,20
1529345530801,20
1529345531872,20
1529345532989,20
1529345534061,20
1529345535162,20
1529345536261,20
1529345537387,20
1529345538641,20
1529345539854,20
1529345540973,20
1529345542077,20
1529345543236,20
1529345544354,20
1529345545443,20
1529345546529,20
1529345547655,20
1529345548744,20
1529345549862,20
1529345550970,20
1529345552083,20
1529345553209,20
1529345554315,20
1529345555458,20
1529345556617,20
1529345557718,20
1529345558854,20
1529345559941,20
1529345561050,20
1529345562175,20
1529345563317,20
1529345564379,20
1529345565489,20
1529345566588,20
1529345567696,20
1529345568958,20
1529345570165,20
1529345571259,20
1529345572365,20
1529345573445,20
1529345574544,20
1529345575669,20
1529345576771,20
1529345577911,20
1529345579044,20
1529345580190,20
1529345581322,20
1529345582470,20
1529345583535,20
1529345584644,20
1529345585745,20
1529345586836,20
1529345587976,20
1529345589067,20
1529345590171,20
1529345591341,20
1529345592461,20
1529345593567,20
1529345594689,20
1529345595862,20
1529345596985,20
1529345598162,20
1529345599456,20
1529345600720,20
1529345601849,20
1529345602995,20
1529345604125,20
1529345605219,20
1529345606387,20
1529345607502,20
1529345608557,20
1529345609668,20
1529345610753,20
1529345612151,21
1529345613542,20
1529345615062,18
1529345616226,18
1529345617261,18
1529345618290,18
1529345619329,18
1529345620372,20
1529345621732,24
1529345623356,24
1529345624656,24
1529345625964,24
1529345627243,24
1529345628526,24
1529345630006,24
1529345631285,24
1529345632505,24
1529345633920,24
1529345635174,24
1529345636416,24
1529345637638,24
1529345639103,24
1529345640378,24
1529345641621,24
1529345642896,24
1529345644143,24
1529345645371,24
1529345646646,24
1529345647893,24
1529345649176,24
1529345650505,24
1529345651759,24
1529345652987,24
1529345654327,24
1529345655612,24
1529345656895,24
1529345658300,24
1529345659576,24
1529345661183,24
1529345662646,24
1529345663930,24
1529345665243,24
1529345666626,24
1529345668182,24
1529345669546,24
1529345671206,24
1529345672514,24
1529345673803,24
1529345675156,24
1529345676493,24
1529345677783,24
1529345679052,24
1529345680394,24
1529345681681,24
1529345683031,24
1529345684342,24
1529345685709,24
1529345687039,24
1529345688329,24
1529345689630,24
1529345691098,24
1529345692441,24
1529345693727,24
1529345694966,24
1529345696272,24
1529345697523,24
1529345698789,24
1529345700113,24
1529345701421,24
1529345702740,24
1529345704016,24
1529345705337,24
1529345706705,24
1529345707990,24
1529345709265,24
1529345710583,24
1529345711889,24
1529345714692,24
1529345715950,24
1529345717233,24
1529345718511,24
1529345719900,16
1529345721071,24
1529345722959,24
1529345724339,24
1529345725602,24
1529345727143,24
1529345728631,24
1529345730163,22
1529345731588,22
1529345732906,22
1529345734115,22
1529345735289,22
1529345736472,22
1529345737792,22
1529345738974,22
1529345740154,22
1529345741351,22
1529345742589,22
1529345743796,22
1529345745000,22
1529345746258,22
1529345747436,22
1529345748623,22
1529345749815,22
1529345751133,22
1529345752352,22
1529345753629,22
1529345754902,22
1529345756108,22
1529345757321,22
1529345758536,22
1529345759768,22
1529345760993,22
1529345762270,22
1529345763536,22
1529345764763,22
1529345766033,22
1529345767321,22
1529345768498,22
1529345769681,22
1529345770924,22
1529345772218,22
1529345773411,22
1529345774609,22
1529345775827,22
1529345777047,22
1529345778218,22
1529345779459,22
1529345780664,22
1529345781970,22
1529345783168,22
1529345784464,22
1529345785773,22
1529345786974,22
1529345788160,22
1529345789461,22
1529345790862,24
1529345792518,22
1529345794002,20
1529345795258,20
1529345796385,20
1529345797471,20
1529345798594,20
1529345799803,20
1529345800913,20
1529345802003,20
1529345803114,20
1529345804245,20
1529345805359,20
1529345806453,20
1529345807592,20
1529345808721,20
1529345809826,20
1529345810889,20
1529345812038,20
1529345813127,20
1529345814255,20
1529345815454,20
1529345816628,20
1529345817758,20
1529345818939,20
1529345820093,20
1529345821228,20
1529345822320,20
1529345823447,20
1529345824582,20
1529345825673,20
1529345826734,20
1529345827854,20
1529345828943,20
1529345830199,20
1529345831278,20
1529345832401,20
1529345833524,20
1529345834637,20
1529345835751,20
1529345836830,20
1529345837928,20
1529345839052,20
1529345840153,20
1529345841310,20
1529345842558,20
1529345843668,20
1529345844817,20
1529345845999,20
1529345847171,20
1529345848232,20
1529345849308,20
1529345850366,20
1529345851451,20
1529345852559,20
1529345853631,20
1529345854750,20
1529345855833,20
1529345856950,20
1529345858033,20
1529345859111,20
1529345860226,20
1529345861334,20
1529345862435,20
1529345863533,20
1529345864682,20
1529345865783,20
1529345866914,20
1529345868021,20
1529345869133,20
1529345870217,20
1529345871355,20
1529345872576,20
1529345873672,20
1529345874746,20
1529345875812,20
1529345876972,20
1529345878142,20
1529345879261,20
1529345880340,20
1529345881430,20
1529345882589,20
1529345883729,20
1529345884833,20
1529345885957,20
1529345887044,20
1529345888131,20
1529345889242,20
1529345890380,20
1529345891516,20
1529345892627,20
1529345893741,20
1529345894811,20
1529345895929,20
1529345897112,20
1529345898217,20
1529345899380,20
1529345900463,20
1529345901559,20
1529345902745,20
1529345903823,20
1529345904925,20
1529345906025,20
1529345907195,20
1529345908390,20
1529345909561,20
1529345910702,20
1529345911828,20
1529345912959,20
1529345914065,20
1529345915185,20
1529345916302,20
1529345917382,20
1529345918495,20
1529345919683,20
1529345920908,20
1529345922143,22
1529345923466,22
1529345924781,18
1529345926013,18
1529345927117,18
1529345928149,18
1529345929269,18
1529345930285,18
1529345931503,24
1529345933416,24
1529345934714,24
1529345935963,24
1529345937295,24
1529345938665,24
1529345940002,24
1529345941241,24
1529345942437,24
1529345943769,24
1529345945060,24
1529345946308,24
1529345947522,24
1529345948769,24
1529345950019,24
1529345952144,24
1529345953369,24
1529345954941,24
1529345956506,24
1529345957773,24
1529345959082,24
1529345960400,24
1529345961713,24
1529345963051,24
1529345964364,24
1529345965617,24
1529345967138,24
1529345968552,24
1529345969816,24
1529345971191,24
1529345972417,24
1529345973744,24
1529345975037,24
1529345976313,24
1529345977588,24
1529345978831,24
1529345980109,24
1529345981372,24
1529345982663,24
1529345983906,24
1529345985230,24
1529345986513,24
1529345987825,24
1529345989155,24
1529345990406,24
1529345991922,24
1529345993246,24
1529345994653,24
1529345996303,24
1529345997864,24
1529345999261,24
1529346000541,24
1529346001874,24
1529346003426,24
1529346005173,24
1529346006455,24
1529346007816,24
1529346009175,24
1529346010534,24
1529346011822,24
1529346013144,24
1529346014415,24
1529346015710,24
1529346017024,24
1529346018334,24
1529346019656,24
1529346020979,24
1529346022262,24
1529346023601,24
1529346025012,24
1529346026306,24
1529346027559,24
1529346028964,24
1529346030283,24
1529346031543,24
1529346032859,24
1529346034212,24
1529346035559,24
1529346036836,24
1529346038107,24
1529346039412,24
1529346040741,24
1529346042036,24
1529346045157,24
1529346046507,24
1529346047839,24
1529346049155,24
1529346050468,24
1529346051817,24
1529346053105,24
1529346054402,24
1529346055791,24
1529346057140,24
1529346058535,24
1529346059934,24
1529346061253,24
1529346062596,24
1529346063884,24
1529346065174,24
1529346066702,26
1529346068398,24
1529346069983,22
1529346071260,22
1529346072472,22
1529346073723,22
1529346074991,22
1529346076214,22
1529346077456,22
1529346078703,22
1529346079945,22
1529346081098,22
1529346082310,22
1529346083510,22
1529346084758,22
1529346086017,22
1529346087248,22
1529346088519,22
1529346089774,22
1529346090995,22
1529346092200,22
1529346093470,22
1529346094720,22
1529346095997,22
1529346097254,22
1529346098509,22
1529346099756,22
1529346100970,22
1529346102170,22
1529346103437,22
1529346104639,22
1529346105824,22
1529346107021,22
1529346108263,22
1529346109454,22
1529346110649,22
1529346111875,22
1529346113138,22
1529346114370,22
1529346115578,22
1529346116892,22
1529346118078,22
1529346119386,22
1529346120726,22
1529346121972,22
1529346123212,22
1529346124452,22
1529346125723,22
1529346127033,22
1529346128264,22
1529346129483,22
1529346130689,22
1529346131913,22
1529346133139,22
1529346134468,22
1529346135943,24
1529346137399,22
1529346138919,20
1529346140049,20
1529346141141,20
1529346142290,20
1529346143395,20
1529346144506,20
1529346145613,20
1529346146845,20
1529346147963,20
1529346149053,20
1529346150251,20
1529346151436,20
1529346152543,20
1529346153647,20
1529346154718,20
1529346155802,20
1529346156891,20
1529346157997,20
1529346159102,20
1529346160206,20
1529346161320,20
1529346162611,20
1529346163897,20
1529346165344,20
1529346166774,18
1529346167834,18
1529346168872,18
1529346169929,18
1529346170943,18
1529346171963,20
1529346173294,24
1529346174955,24
1529346176249,24
1529346177558,24
1529346178882,24
1529346180227,24
1529346181554,24
1529346182781,24
1529346184002,24
1529346185428,24
1529346186683,24
1529346187984,24
1529346189200,24
1529346190672,24
1529346191968,24
1529346193264,24
1529346194528,24
1529346195793,24
1529346197075,24
1529346198314,24
1529346199557,24
1529346200894,24
1529346202164,24
1529346203406,24
1529346204669,24
1529346205974,24
1529346207196,24
1529346208614,24
1529346209887,24
1529346211352,24
1529346212736,24
1529346214053,24
1529346215345,24
1529346216678,24
1529346218255,24
1529346219613,24
1529346221059,24
1529346222394,24
1529346223729,24
1529346225062,24
1529346226337,24
1529346227610,24
1529346228933,24
1529346230214,16
1529346231410,24
1529346234479,24
1529346235821,24
1529346237464,24
1529346239025,24
1529346240356,24
1529346241713,24
1529346243234,24
1529346244506,24
1529346245862,24
1529346247160,24
1529346248514,24
1529346249973,24
1529346251220,24
1529346252491,24
1529346253886,24
1529346255281,24
1529346256671,24
1529346257943,24
1529346259207,24
1529346260556,24
1529346261917,24
1529346263210,24
1529346264552,24
1529346265820,24
1529346267125,24
1529346268398,24
1529346269793,24
1529346271054,24
1529346272397,24
1529346273758,24
1529346275041,24
1529346276401,24
1529346277657,24
1529346278989,24
1529346280291,24
1529346281582,24
1529346282831,24
1529346284392,24
1529346285742,24
1529346287152,24
1529346288432,24
1529346289686,24
1529346290976,24
1529346292278,24
1529346293640,24
1529346294981,24
1529346296320,24
1529346297628,24
1529346298919,24
1529346300294,24
1529346301680,24
1529346303043,24
1529346304407,24
1529346305710,24
1529346307032,24
1529346308292,24
1529346309559,24
1529346310845,24
1529346312164,24
1529346313448,24
1529346314709,24
1529346315988,24
1529346317334,24
1529346318604,24
1529346319870,24
1529346321162,24
1529346322476,24
1529346323809,24
1529346325138,24
1529346326455,24
1529346327728,24
1529346329001,24
1529346330378,24
1529346331710,24
1529346333109,24
1529346334553,24
1529346335863,24
1529346337260,24
1529346338602,24
1529346339869,24
1529346341181,24
1529346342570,24
1529346344183,26
1529346345706,22
1529346346995,22
1529346348250,22
1529346349449,22
1529346350649,22
1529346351881,22
1529346353105,22
1529346354274,22
1529346355503,22
1529346356851,22
1529346358074,22
1529346359338,22
1529346360616,22
1529346361828,22
1529346363182,22
1529346364406,22
1529346365691,22
1529346366874,22
1529346368098,22
1529346369293,22
1529346370444,22
1529346371686,22
1529346372917,22
1529346374150,22
1529346375381,22
1529346376616,22
1529346377851,22
1529346379054,22
1529346380307,22
1529346381491,22
1529346382672,22
1529346383940,22
1529346385189,22
1529346386379,22
1529346387601,22
1529346388824,22
1529346390028,22
1529346391250,22
1529346392451,22
1529346393763,22
1529346394946,22
1529346396180,22
1529346397407,22
1529346398636,22
1529346399923,22
1529346401104,22
1529346402303,22
1529346403504,22
1529346404779,22
1529346405981,22
1529346407212,22
1529346408408,22
1529346409643,22
1529346410848,22
1529346412071,22
1529346413255,22
1529346414438,22
1529346415629,22
1529346416799,22
1529346418170,24
1529346419584,22
1529346421287,20
1529346422560,20
1529346423759,20
1529346424891,20
1529346426131,20
1529346427251,20
1529346428348,20
1529346429476,20
1529346430648,20
1529346431775,20
1529346432909,20
1529346434032,20
1529346435191,20
1529346436297,20
1529346437456,20
1529346438562,20
1529346439698,20
1529346440861,20
1529346442004,20
1529346443150,20
1529346444318,20
1529346445452,20
1529346446590,20
1529346447707,20
1529346448817,20
1529346449951,20
1529346451181,20
1529346452335,20
1529346453508,20
1529346454671,20
1529346455778,20
1529346456879,20
1529346457970,20
1529346459102,20
1529346460237,20
1529346461350,20
1529346462472,20
1529346463601,20
1529346464707,20
1529346465881,20
1529346467016,20
1529346468140,20
1529346469276,20
1529346470398,20
1529346471512,20
1529346472655,20
1529346473822,20
1529346474961,20
1529346476067,20
1529346477233,20
1529346478376,20
1529346479532,20
1529346480767,20
1529346481993,20
1529346483121,20
1529346484299,20
1529346485536,20
1529346486789,20
1529346488007,20
1529346489163,20
1529346490270,20
1529346491442,20
1529346492610,20
1529346493757,20
1529346496196,20
1529346497341,20
1529346498450,20
1529346499563,20
1529346500690,20
1529346501838,20
1529346502954,20
1529346504154,20
1529346505317,20
1529346506457,20
1529346507560,20
1529346509960,20
1529346511080,20
1529346512375,20
1529346513543,20
1529346514730,20
1529346515964,20
1529346517190,20
1529346518376,20
1529346519644,20
1529346520749,20
1529346521883,20
1529346522977,20
1529346524101,20
1529346526234,20
1529346527393,20
1529346528512,20
1529346529667,20
1529346530781,20
1529346531949,20
1529346533104,20
1529346534223,20
1529346535677,20
1529346536812,20
1529346538092,20
1529346539159,20
1529346540396,20
1529346541521,20
1529346542732,20
1529346543843,20
1529346544985,20
1529346546172,20
1529346547405,20
1529346548543,20
1529346549663,20
1529346550810,20
1529346551912,20
1529346553043,20
1529346554159,20
1529346555335,20
1529346556447,20
1529346557562,20
1529346558702,20
1529346559866,20
1529346560976,20
1529346562097,20
1529346563277,20
1529346564473,20
1529346565607,20
1529346566770,20
1529346567900,20
1529346569874,20
1529346570997,20
1529346572087,20
1529346573286,20
1529346574426,20
1529346575626,20
1529346576841,20
1529346578037,20
1529346579168,20
1529346580277,20
1529346581401,20
1529346582492,20
1529346583624,20
1529346584762,20
1529346585891,20
1529346586962,20
1529346588099,20
1529346589217,20
1529346590352,20
1529346591445,20
1529346592569,20
1529346593700,20
1529346594812,20
1529346595968,20
1529346597128,20
1529346598226,20
1529346599315,20
1529346600407,20
1529346601530,20
1529346602684,20
1529346604015,20
1529346605190,20
1529346606282,20
1529346607498,20
1529346608699,20
1529346609848,20
1529346611024,20
1529346612182,20
1529346613308,20
1529346614451,20
1529346615634,20
1529346616779,20
1529346617907,20
1529346619057,20
1529346620185,20
1529346621352,20
1529346622499,20
1529346623645,20
1529346624774,20
1529346625876,20
1529346627031,20
1529346628164,20
1529346629299,20
1529346630413,20
1529346631544,20
1529346632648,20
1529346633784,20
1529346635004,20
1529346636168,20
1529346637271,20
1529346638494,20
1529346639697,20
1529346640792,20
1529346641891,20
1529346643068,20
1529346644178,20
1529346645309,20
1529346646471,20
1529346647737,20
1529346649115,20
1529346650549,20
1529346651919,18
1529346653091,18
1529346654173,18
1529346655248,18
1529346656277,18
1529346657303,22
1529346658883,24
1529346660414,24
1529346661718,24
1529346663016,24
1529346664290,24
1529346665622,24
1529346666862,24
1529346668097,24
1529346669407,24
1529346671137,24
1529346672404,24
1529346673641,24
1529346674960,24
1529346676522,24
1529346677833,24
1529346679111,24
1529346680400,24
1529346681676,24
1529346682927,24
1529346684187,24
1529346685421,24
1529346686658,24
1529346687921,24
1529346690063,24
1529346691374,24
1529346692603,24
1529346693914,24
1529346695439,24
1529346696760,24
1529346698002,24
1529346699322,24
1529346700740,24
1529346702511,24
1529346703878,24
1529346705236,24
1529346706648,24
1529346708304,24
1529346709639,24
1529346710936,24
1529346712237,24
1529346713539,24
1529346714818,24
1529346716060,24
1529346717860,24
1529346719291,24
1529346720618,24
1529346721953,24
1529346723308,24
1529346724599,24
1529346725943,24
1529346727291,24
1529346728676,24
1529346730202,24
1529346731424,24
1529346732731,24
1529346734011,24
1529346735262,24
1529346736528,24
1529346737812,24
1529346739051,24
1529346740324,24
1529346741545,24
1529346742779,24
1529346744060,24
1529346745335,24
1529346746605,24
1529346747864,24
1529346749136,24
1529346750383,24
1529346751668,24
1529346752907,24
1529346754171,24
1529346755651,24
1529346757118,24
1529346758432,24
1529346759993,24
1529346761291,24
1529346762595,24
1529346763882,24
1529346765187,24
1529346766622,24
1529346767946,24
1529346769248,24
1529346770606,24
1529346771916,24
1529346773190,24
1529346774510,24
1529346775863,24
1529346777226,24
1529346778557,24
1529346779791,24
1529346781137,24
1529346782451,24
1529346783717,24
1529346785013,24
1529346786336,24
1529346787728,24
1529346789031,24
1529346790478,24
1529346791884,24
1529346793175,24
1529346794470,24
1529346795780,24
1529346797088,24
1529346798374,24
1529346799685,24
1529346800964,24
1529346802286,24
1529346803586,24
1529346804908,24
1529346806131,24
1529346807453,24
1529346808780,24
1529346810047,24
1529346811348,24
1529346812660,24
1529346814016,24
1529346815372,24
1529346816769,24
1529346818379,26
1529346819930,26
1529346821401,22
1529346822871,22
1529346824077,22
1529346825257,22
1529346826492,22
1529346827697,22
1529346828912,22
1529346830136,22
1529346831395,22
1529346832611,22
1529346833842,22
1529346835073,22
1529346836304,22
1529346837512,22
1529346838741,22
1529346840002,22
1529346841246,22
1529346842443,22
1529346843692,22
1529346844890,22
1529346846060,22
1529346847288,22
1529346848550,22
1529346849803,22
1529346851065,22
1529346852262,22
1529346853601,22
1529346854795,22
1529346855992,22
1529346857161,22
1529346858332,22
1529346859514,22
1529346860705,22
1529346861873,22
1529346863092,22
1529346864345,22
1529346865558,22
1529346866756,22
1529346867978,22
1529346869174,22
1529346870377,22
1529346871561,22
1529346872780,22
1529346874011,22
1529346875183,22
1529346876398,22
1529346877646,22
1529346878954,22
1529346880193,22
1529346881475,22
1529346882675,22
1529346883983,22
1529346885205,22
1529346886752,24
1529346888198,22
1529346889726,20
1529346890943,20
1529346892104,20
1529346893250,20
1529346894466,20
1529346895585,20
1529346896684,20
1529346897827,20
1529346898963,20
1529346900104,20
1529346901289,20
1529346902441,20
1529346903619,20
1529346904784,20
1529346905902,20
1529346907062,20
1529346908194,20
1529346909360,20
1529346910499,20
1529346911761,20
1529346912854,20
1529346914111,20
1529346915189,20
1529346916283,20
1529346917493,20
1529346918589,20
1529346919696,20
1529346920846,20
1529346922017,20
1529346923147,20
1529346924312,20
1529346925435,20
1529346926563,20
1529346927909,20
1529346929346,20
1529346930694,20
1529346932037,18
1529346933059,18
1529346934095,18
1529346935132,18
1529346936170,18
1529346937223,22
1529346938835,24
1529346940188,24
1529346941433,24
1529346942787,24
1529346944147,24
1529346945458,24
1529346946684,24
1529346947938,24
1529346949221,24
1529346950740,24
1529346951991,24
1529346953240,24
1529346954507,24
1529346955962,24
1529346957230,24
1529346958460,24
1529346959708,24
1529346960994,24
1529346962266,24
1529346963524,24
1529346964790,24
1529346966043,24
1529346967284,24
1529346968538,24
1529346969876,24
1529346971116,24
1529346972367,24
1529346973732,24
1529346975394,24
1529346976760,24
1529346978181,24
1529346979493,24
1529346980896,24
1529346982213,24
1529346983590,24
1529346985663,24
1529346986964,24
1529346988483,24
1529346989762,24
1529346991143,24
1529346992448,24
1529346993753,24
1529346995081,24
1529346996478,24
1529346997797,24
1529346999150,24
1529347000508,24
1529347001862,24
1529347003171,24
1529347004517,24
1529347005887,24
1529347007218,24
1529347008503,24
1529347009753,24
1529347011060,24
1529347012346,24
1529347013620,24
1529347014915,24
1529347016239,24
1529347017568,24
1529347018854,24
1529347020154,24
1529347021423,24
1529347022762,24
1529347024076,24
1529347025449,24
1529347026757,24
1529347028049,24
1529347029343,24
1529347030743,24
1529347032071,24
1529347033308,24
1529347034718,24
1529347036067,24
1529347037373,24
1529347038663,24
1529347039962,24
1529347041224,24
1529347042554,24
1529347043853,24
1529347045128,24
1529347046396,24
1529347047665,24
1529347048975,24
1529347050297,24
1529347051543,24
1529347052838,24
1529347054450,26
1529347056063,24
1529347057575,22
1529347058849,22
1529347060055,22
1529347061357,22
1529347062591,22
1529347063757,22
1529347065103,22
1529347066355,22
1529347067611,22
1529347068815,22
1529347070088,22
1529347071283,22
1529347072488,22
1529347073673,22
1529347074924,22
1529347076150,22
1529347077323,22
1529347078558,22
1529347079755,22
1529347080917,22
1529347082193,22
1529347083443,22
1529347084684,22
1529347085915,22
1529347087110,22
1529347088290,22
1529347089451,22
1529347090706,22
1529347092022,22
1529347093208,22
1529347094399,22
1529347095744,22
1529347096983,22
1529347098215,22
1529347099451,22
1529347100663,22
1529347101874,22
1529347103042,22
1529347104337,22
1529347105573,22
1529347106777,22
1529347108011,22
1529347109215,22
1529347110469,22
1529347111698,22
1529347112910,22
1529347114132,22
1529347115583,22
1529347117178,22
1529347118795,20
1529347119889,20
1529347120998,20
1529347122217,20
1529347123402,20
1529347124485,20
1529347125674,20
1529347126878,20
1529347128040,20
1529347129130,20
1529347130217,20
1529347131330,20
1529347132509,20
1529347133673,20
1529347134854,20
1529347135985,20
1529347137178,20
1529347138331,20
1529347139530,20
1529347140650,20
1529347141797,20
1529347142927,20
1529347144071,20
1529347145199,20
1529347146335,20
1529347147444,20
1529347148549,20
1529347149633,20
1529347150746,20
1529347151886,20
1529347153142,20
1529347154277,20
1529347155400,20
1529347156626,20
1529347157822,20
1529347158955,20
1529347160052,20
1529347161208,20
1529347162354,20
1529347163486,20
1529347164597,20
1529347165752,20
1529347166873,20
1529347168000,20
1529347169142,20
1529347170243,20
1529347171339,20
1529347172494,20
1529347173697,20
1529347174858,20
1529347176015,20
1529347177214,20
1529347178370,20
1529347179672,22
1529347181120,22
1529347182460,18
1529347183854,18
1529347184882,18
1529347185896,18
1529347187009,18
1529347188105,20
1529347189391,24
1529347191147,24
1529347192430,24
1529347193644,24
1529347194990,24
1529347196276,24
1529347197549,24
1529347198861,24
1529347200087,24
1529347201503,24
1529347202871,24
1529347204118,24
1529347205376,24
1529347206819,24
1529347208157,24
1529347209389,24
1529347210594,24
1529347211812,24
1529347213064,24
1529347214385,24
1529347215627,24
1529347216948,24
1529347218338,24
1529347219599,24
1529347220872,24
1529347222132,24
1529347223395,24
1529347225511,24
1529347226797,24
1529347228233,24
1529347229726,24
1529347231202,24
1529347232434,24
1529347233766,24
1529347235078,24
1529347236475,24
1529347237770,24
1529347239116,24
1529347240995,24
1529347242293,24
1529347243637,24
1529347245007,24
1529347246272,24
1529347247701,24
1529347249030,24
1529347250324,24
1529347251610,24
1529347252918,24
1529347254246,24
1529347255580,24
1529347256852,24
1529347258099,24
1529347259353,24
1529347260626,24
1529347261906,24
1529347263163,24
1529347264426,24
1529347265665,24
1529347266944,24
1529347268226,24
1529347269562,24
1529347270842,24
1529347272164,24
1529347273469,24
1529347274762,24
1529347276152,24
1529347277508,24
1529347278899,24
1529347280262,24
1529347281509,24
1529347282833,24
1529347284067,24
1529347285421,24
1529347286667,24
1529347287908,24
1529347289211,24
1529347290494,24
1529347291815,24
1529347293173,24
1529347294466,24
1529347295779,24
1529347297092,24
1529347298385,24
1529347299679,24
1529347301339,24
1529347302943,24
1529347304385,22
1529347305596,22
1529347306870,22
1529347308137,22
1529347309415,22
1529347310597,22
1529347311760,22
1529347312933,22
1529347314115,22
1529347315315,22
1529347316545,22
1529347317714,22
1529347318927,22
1529347320181,22
1529347321440,22
1529347322632,14
1529347324142,22
1529347325822,22
1529347327115,22
1529347328491,22
1529347329897,22
1529347331159,22
1529347332444,22
1529347333700,22
1529347334916,22
1529347336181,22
1529347337514,22
1529347338776,22
1529347340174,22
1529347341427,22
1529347342710,22
1529347343939,22
1529347345153,22
1529347346478,22
1529347347707,22
1529347348903,22
1529347350084,22
1529347351231,22
1529347352464,22
1529347353646,22
1529347354811,22
1529347356061,22
1529347357307,22
1529347358475,22
1529347359687,22
1529347360921,22
1529347362135,22
1529347363402,22
1529347364612,22
1529347365831,22
1529347367075,22
1529347368282,22
1529347369566,22
1529347370853,22
1529347372085,22
1529347373330,22
1529347374536,22
1529347375784,22
1529347377031,22
1529347378369,22
1529347379673,22
1529347381213,22
1529347382662,20
1529347384135,20
1529347385322,20
1529347386485,20
1529347387656,20
1529347388781,20
1529347389896,20
1529347391074,20
1529347392196,20
1529347393341,20
1529347394487,20
1529347395618,20
1529347396715,20
1529347397907,20
1529347399042,20
1529347400221,20
1529347401414,20
1529347402511,20
1529347403623,20
1529347404750,20
1529347405892,20
1529347406961,20
1529347408143,20
1529347409238,20
1529347410372,20
1529347411516,20
1529347412630,20
1529347413741,20
1529347414901,20
1529347415999,20
1529347417104,20
1529347418233,20
1529347419327,20
1529347420457,20
1529347421572,20
1529347422686,20
1529347423780,20
1529347424955,20
1529347426106,20
1529347427222,20
1529347428476,20
1529347429621,20
1529347430795,20
1529347431978,20
1529347433084,20
1529347434203,20
1529347435325,20
1529347436519,20
1529347437680,20
1529347438770,20
1529347439857,20
1529347440940,20
1529347442061,20
1529347443180,20
1529347444271,20
1529347445390,20
1529347446517,20
1529347447636,20
1529347448748,20
1529347449840,20
1529347450973,20
1529347452115,20
1529347453222,20
1529347454348,20
1529347455470,20
1529347456586,20
1529347457663,20
1529347458837,20
1529347459929,20
1529347461102,20
1529347462262,20
1529347463355,20
1529347464434,20
1529347465553,20
1529347466692,20
1529347467763,20
1529347468857,20
1529347470013,20
1529347471120,20
1529347472272,20
1529347473402,20
1529347474494,20
1529347475679,20
1529347476817,20
1529347477953,20
1529347479087,20
1529347480189,20
1529347481317,20
1529347482424,20
1529347483604,20
1529347484745,20
1529347485905,20
1529347487051,20
1529347488172,20
1529347489317,20
1529347490425,20
1529347491604,20
1529347492746,20
1529347493859,20
1529347494982,20
1529347496156,20
1529347497344,20
1529347498521,20
1529347499630,20
1529347500759,20
1529347501916,20
1529347503085,20
1529347504251,20
1529347505380,20
1529347506546,20
1529347507651,20
1529347508809,20
1529347509965,20
1529347511134,20
1529347512333,20
1529347513493,20
1529347514602,20
1529347515698,20
1529347516811,20
1529347517951,20
1529347519080,20
1529347520340,20
1529347521582,20
1529347522818,20
1529347524013,20
1529347525147,20
1529347526267,20
1529347527397,20
1529347528554,20
1529347529643,20
1529347530780,20
1529347531913,20
1529347533068,20
1529347534207,20
1529347535355,20
1529347536478,20
1529347537643,20
1529347538790,20
1529347539934,20
1529347541071,20
1529347542216,20
1529347543367,20
1529347544658,20
1529347546103,20
1529347547371,20
1529347548705,18
1529347549781,18
1529347550929,18
1529347552010,18
1529347553109,18
1529347554198,18
1529347557348,18
1529347558381,